Donor	c0	c1	c2	c3	c4	c5	c6	c7	c8	c9	c10	c11	c12	c13	c14	c15	c16	c17	label
SG_HC_OS_0005_BCR	0.01160205	0.00580103	0.03045539	0.00000000	0.04060718	0.00725128	0.00435077	0.01595282	0.00435077	0.00580103	0.02465436	0.00000000	0.01160205	0.02175385	0.00145026	0.01305231	0.02900513	0.00580103	0
SG_HC_OS_0007_BCR	0.03672552	0.01632245	0.03264490	0.02856429	0.04080613	0.02040307	0.00816123	0.02040307	0.01224184	0.01632245	0.04896736	0.02448368	0.02040307	0.03264490	0.01224184	0.05304797	0.00000000	0.02040307	0
SG_HC_OS_00129_BCR	0.09044428	0.03088341	0.01544171	0.04191320	0.05735491	0.01102979	0.01323575	0.00661787	0.05514895	0.01102979	0.01102979	0.02426554	0.06397278	0.00661787	0.00441192	0.02867746	0.04632512	0.03308937	0
SG_HC_OS_00163_BCR	0.12948260	0.03066693	0.00681487	0.02044462	0.02044462	0.01362975	0.01022231	0.03066693	0.00340744	0.00681487	0.00681487	0.01703718	0.08177848	0.00340744	0.00681487	0.04088924	0.02725949	0.03066693	0
SG_HC_OS_00168_BCR	0.04219823	0.00973805	0.02272212	0.01298407	0.02272212	0.00324602	0.00649204	0.00324602	0.03246018	0.00973805	0.01623009	0.00324602	0.00324602	0.01298407	0.00973805	0.01298407	0.00973805	0.00973805	0
SG_HC_OS_00215_BCR	0.05795238	0.01448809	0.00724405	0.04708631	0.05795238	0.00362202	0.00724405	0.00362202	0.00362202	0.01811012	0.02173214	0.00724405	0.02535417	0.00362202	0.00724405	0.01811012	0.11590476	0.03622024	0
SG_HC_OS_00216_BCR	0.07255186	0.02100185	0.02100185	0.06682408	0.01527407	0.01336482	0.01336482	0.02291111	0.01336482	0.01718333	0.02291111	0.00381852	0.04773148	0.01909259	0.01145556	0.02482037	0.03245741	0.02672963	0
SG_HC_OS_00259_BCR	0.12151028	0.03240274	0.01620137	0.06480548	0.04860411	0.04860411	0.01620137	0.01620137	0.00000000	0.03240274	0.17011439	0.02430206	0.01620137	0.02430206	0.03240274	0.07290617	0.09720822	0.05670480	0
SG_HC_OS_00264_BCR	0.07901594	0.02323998	0.00929599	0.02323998	0.01394399	0.01394399	0.01394399	0.01859199	0.01394399	0.00929599	0.07901594	0.00464800	0.04647996	0.01859199	0.00929599	0.05112796	0.11155192	0.01859199	0
SG_HC_OS_00265_BCR	0.09970960	0.03046682	0.04154567	0.01661827	0.05539422	0.00830913	0.02492740	0.02769711	0.04431538	0.02769711	0.05262451	0.01107884	0.12186729	0.02769711	0.01661827	0.04708509	0.11078845	0.02769711	0
SG_HC_OS_00272_BCR	0.13803061	0.02654435	0.05839757	0.05308870	0.04247096	0.02654435	0.05308870	0.02654435	0.04247096	0.03185322	0.03716209	0.00530887	0.03185322	0.00000000	0.00530887	0.05308870	0.04777983	0.03185322	0
SG_HC_OS_00277_BCR	0.03835615	0.01534246	0.04602738	0.07671229	0.01534246	0.01534246	0.03068492	0.03068492	0.13041090	0.04602738	0.05369861	0.03835615	0.00000000	0.06136984	0.05369861	0.00767123	0.06136984	0.00000000	0
SG_HC_OS_00282_BCR	0.05170231	0.02128919	0.06386756	0.02737181	0.04866100	0.00912394	0.01520656	0.00304131	0.11252856	0.01520656	0.01520656	0.02737181	0.04561969	0.02128919	0.01824787	0.01824787	0.06082625	0.05170231	0
SG_HC_OS_00284_BCR	0.02115458	0.00705153	0.00705153	0.02115458	0.00705153	0.01410305	0.00705153	0.00705153	0.01410305	0.00000000	0.00000000	0.00000000	0.01410305	0.00705153	0.00705153	0.00000000	0.02115458	0.00000000	0
SG_HC_OS_00292_BCR	0.09215270	0.04365128	0.00485014	0.05820170	0.00485014	0.02425071	0.01455043	0.00970028	0.01455043	0.00485014	0.01455043	0.00485014	0.01940057	0.01940057	0.02910085	0.04365128	0.00000000	0.06790199	0
SG_HC_OS_00294_BCR	0.06005971	0.01501493	0.00250249	0.00750746	0.02502488	0.00750746	0.01501493	0.00500498	0.02001990	0.00250249	0.01000995	0.01251244	0.06506469	0.01751742	0.01000995	0.02252239	0.00250249	0.01501493	0
SG_HC_OS_00295_BCR	0.01457913	0.02186870	0.02186870	0.02186870	0.04373740	0.00728957	0.00000000	0.03644783	0.16037047	0.01457913	0.02186870	0.07289567	0.02186870	0.01457913	0.02186870	0.00728957	0.17494961	0.02915827	0
SG_HC_OS_00296_BCR	0.12628597	0.01098139	0.00549069	0.03843486	0.05490694	0.01647208	0.04392555	0.03843486	0.08236041	0.06039764	0.02745347	0.00549069	0.03843486	0.02196278	0.02196278	0.00549069	0.05490694	0.03843486	0
SG_HC_OS_0194_BCR	0.05209279	0.01157618	0.06366897	0.14470219	0.02315235	0.04630470	0.01736426	0.02315235	0.00578809	0.00578809	0.05209279	0.03472853	0.05209279	0.03472853	0.00578809	0.05209279	0.00000000	0.04051661	0
SG_HC_OS_0199_BCR	0.08447772	0.03167915	0.03167915	0.03167915	0.01055972	0.00000000	0.03167915	0.01055972	0.03167915	0.01055972	0.00000000	0.03167915	0.05279858	0.01055972	0.01055972	0.03167915	0.00000000	0.06335829	0
SG_HC_OS_0219_BCR	0.05461439	0.01724665	0.02874442	0.02874442	0.04311662	0.00287444	0.00862332	0.00862332	0.00862332	0.00862332	0.02586997	0.00287444	0.01724665	0.00574888	0.02299553	0.02586997	0.03736774	0.03161886	0
SG_HC_OS_0222_BCR	0.28843102	0.06897263	0.00627024	0.03762144	0.10659407	0.05016192	0.04389168	0.03135120	0.06897263	0.01254048	0.03135120	0.01881072	0.16929647	0.00627024	0.01254048	0.08151311	0.11286431	0.07524287	0
SG_HC_OS_0224_BCR	0.01043726	0.00139163	0.00069582	0.00208745	0.00104373	0.00313118	0.00243536	0.00173954	0.00034791	0.00104373	0.00034791	0.00104373	0.00104373	0.00243536	0.00417490	0.00173954	0.00104373	0.00173954	0
SG_HC_OS_0225_BCR	0.04510916	0.00902183	0.02706550	0.03608733	0.00000000	0.00902183	0.01804366	0.04510916	0.01804366	0.01804366	0.07217466	0.03608733	0.00000000	0.00000000	0.00902183	0.00000000	0.02706550	0.00000000	0
SG_HC_OS_0228_BCR	0.07887537	0.01971884	0.04732522	0.02760638	0.07098783	0.00394377	0.01183131	0.01577507	0.06704406	0.03155015	0.04338145	0.00394377	0.04338145	0.00788754	0.00394377	0.02760638	0.00788754	0.02760638	0
SG_HC_OS_0229_BCR	0.06254676	0.01340288	0.00893525	0.04020863	0.03127338	0.01787050	0.00446763	0.02233813	0.05807914	0.00893525	0.00446763	0.00893525	0.06701439	0.01340288	0.00000000	0.04914389	0.03127338	0.02680576	0
SG_HC_OS_0230_BCR	0.05641530	0.05077377	0.03384918	0.01128306	0.01128306	0.01128306	0.01692459	0.00000000	0.07898142	0.01692459	0.03384918	0.00564153	0.07333989	0.01128306	0.00000000	0.01128306	0.00564153	0.00564153	0
SG_HC_OS_0236_BCR	0.10528455	0.02105691	0.02807588	0.05615176	0.06317073	0.01403794	0.04211382	0.05615176	0.04913279	0.02105691	0.00701897	0.02807588	0.04913279	0.05615176	0.00701897	0.02807588	0.10528455	0.01403794	0
SG_HC_OS_0249_BCR	0.10780187	0.03850067	0.04363409	0.07186791	0.08470147	0.03850067	0.05133422	0.03850067	0.07186791	0.03336724	0.04876751	0.00513342	0.09240160	0.04876751	0.02310040	0.04620080	0.09496831	0.05133422	0
SC_GC_OS_0235_BCR	0.16478672	0.01432928	0.02865856	0.05731712	0.14329280	0.04298784	0.02865856	0.02149392	0.14329280	0.07164640	0.08597568	0.03582320	0.05015248	0.00000000	0.00716464	0.05731712	0.03582320	0.03582320	1
SG_CO_OK_00005_BCR	0.05273518	0.00585946	0.04296941	0.04687572	0.02734417	0.01757839	0.01367208	0.01171893	0.05859464	0.02929732	0.02929732	0.00781262	0.01367208	0.02343786	0.00781262	0.01757839	0.02148470	0.01757839	1
SG_CO_OK_00006_BCR	0.00279955	0.00046659	0.00015553	0.00062212	0.00023330	0.00038883	0.00139978	0.00007777	0.00093318	0.00023330	0.00077765	0.00000000	0.00077765	0.00069989	0.00085542	0.00038883	0.00015553	0.00031106	1
SG_CO_OK_00007_BCR	0.01828904	0.00415660	0.00000000	0.01246980	0.01330112	0.00083132	0.00665056	0.00665056	0.00498792	0.00083132	0.00083132	0.00083132	0.00581924	0.01912036	0.00415660	0.00415660	0.04572259	0.00748188	1
SG_CO_OK_00008_BCR	0.00006752	0.00003376	0.00016879	0.00000000	0.00023631	0.00010128	0.00000000	0.00006752	0.00013503	0.00016879	0.00010128	0.00000000	0.00003376	0.00000000	0.00000000	0.00013503	0.00013503	0.00000000	1
SG_CO_OK_00009_0315_BCR	0.00043908	0.00021954	0.00000000	0.00065862	0.00065862	0.00087816	0.00000000	0.00021954	0.00000000	0.00021954	0.00000000	0.00000000	0.00000000	0.00021954	0.00043908	0.00351263	0.00065862	0.00131724	1
SG_CO_OK_00011_BCR	0.00026988	0.00007711	0.00007711	0.00015422	0.00007711	0.00000000	0.00011566	0.00003855	0.00111809	0.00000000	0.00003855	0.00011566	0.00003855	0.00000000	0.00003855	0.00015422	0.00038555	0.00015422	1
SG_CO_OK_00012_BCR	0.00030452	0.00000000	0.00020301	0.00040602	0.00071054	0.00000000	0.00000000	0.00020301	0.00121807	0.00030452	0.00081205	0.00010151	0.00040602	0.00000000	0.00000000	0.00010151	0.00050753	0.00050753	1
SG_CO_OK_00013_BCR	0.00510353	0.00255177	0.00850588	0.00000000	0.00595412	0.00000000	0.00085059	0.00255177	0.00170118	0.00425294	0.00255177	0.00085059	0.00255177	0.00935647	0.00000000	0.00255177	0.00170118	0.00340235	1
SG_CO_OK_00014_0315_BCR	0.00000000	0.00008974	0.00000000	0.00008974	0.00026922	0.00017948	0.00008974	0.00000000	0.00143585	0.00008974	0.00008974	0.00000000	0.00000000	0.00017948	0.00000000	0.00000000	0.00000000	0.00017948	1
SG_CO_OK_00015_BCR	0.00000000	0.00000000	0.00000000	0.00000000	0.00000000	0.00000000	0.00000000	0.00000000	0.00000000	0.00001214	0.00007284	0.00000000	0.00000000	0.00001214	0.00000000	0.00000000	0.00000000	0.00000000	1
SG_CO_OK_00016_BCR	0.00109500	0.00095813	0.00082125	0.00027375	0.00095813	0.00054750	0.00027375	0.00041063	0.00287438	0.00123188	0.00219000	0.00082125	0.00013688	0.00095813	0.00068438	0.00068438	0.00205313	0.00041063	1
SG_CO_OK_00017_BCR	0.00000000	0.00000000	0.00009241	0.00000000	0.00000000	0.00000000	0.00000000	0.00000000	0.00000000	0.00000000	0.00000000	0.00000000	0.00000000	0.00000000	0.00000000	0.00000000	0.00000000	0.00000000	1
SG_CO_OK_00018_BCR	0.00009252	0.00006168	0.00001542	0.00004626	0.00004626	0.00000000	0.00001542	0.00003084	0.00001542	0.00000000	0.00000000	0.00004626	0.00026214	0.00004626	0.00001542	0.00003084	0.00029298	0.00001542	1
SG_CO_OK_00020_BCR	0.00052263	0.00000000	0.01228185	0.00000000	0.00052263	0.00000000	0.00000000	0.00026132	0.00365842	0.00078395	0.00078395	0.00026132	0.00156790	0.00052263	0.00104526	0.00000000	0.00391974	0.00078395	1
SG_CO_OK_00021_BCR	0.02736184	0.00672045	0.00624042	0.01200081	0.01728116	0.00240016	0.00144010	0.01104074	0.02544171	0.00672045	0.00864058	0.00528035	0.01488100	0.02784187	0.00768052	0.00864058	0.03552238	0.00960064	1
SG_CO_OK_00022_BCR	0.00271954	0.00036260	0.00054391	0.00108781	0.00036260	0.00018130	0.00163172	0.00072521	0.00199433	0.00054391	0.00145042	0.00072521	0.00072521	0.00090651	0.00090651	0.00054391	0.00199433	0.00199433	1
SG_CO_OK_00023_BCR	0.01168861	0.00681836	0.00340918	0.00535728	0.00681836	0.00243513	0.00243513	0.00292215	0.01753292	0.00048703	0.01071456	0.00681836	0.00438323	0.00340918	0.00097405	0.00389620	0.00974051	0.00584431	1
SG_CO_OK_00027_BCR	0.00413243	0.00133304	0.00146635	0.00333260	0.00399913	0.00066652	0.00213287	0.00213287	0.00359921	0.00026661	0.00106643	0.00173295	0.00239948	0.00066652	0.00159965	0.00159965	0.00679851	0.00319930	1
SG_CO_OK_00028_BCR	0.01954099	0.00217122	0.01302733	0.01519855	0.00434244	0.00217122	0.01085611	0.01736977	0.00651366	0.01519855	0.01085611	0.00000000	0.01085611	0.00217122	0.00217122	0.01519855	0.04559565	0.00868488	1
SG_CO_OK_00029_BCR	0.00132758	0.00018965	0.00028448	0.00018965	0.00000000	0.00028448	0.00018965	0.00009483	0.00056896	0.00000000	0.00066379	0.00009483	0.00094827	0.00085344	0.00056896	0.00132758	0.00180171	0.00018965	1
SG_CO_OK_00030_BCR	0.00127492	0.00078372	0.00004415	0.00004967	0.00012142	0.00002208	0.00001104	0.00002208	0.00006623	0.00003311	0.00011038	0.00001104	0.00006623	0.00002208	0.00003311	0.00002208	0.00004967	0.00004967	1
SG_CO_OK_00032_BCR	0.01832704	0.01374528	0.00000000	0.00000000	0.00000000	0.00000000	0.00000000	0.00916352	0.01374528	0.00000000	0.00000000	0.00000000	0.01832704	0.00000000	0.00000000	0.00000000	0.00458176	0.00916352	1
SG_CO_OK_00033_BCR	0.02264583	0.01019062	0.00792604	0.00792604	0.01358750	0.00226458	0.01132292	0.00566146	0.00566146	0.00339687	0.00792604	0.00339687	0.03849791	0.00792604	0.00339687	0.01811666	0.03057187	0.00792604	1
SG_CO_OK_00037_BCR	0.00197340	0.00098670	0.00026565	0.00049335	0.00034155	0.00011385	0.00068310	0.00034155	0.00094875	0.00003795	0.00003795	0.00045540	0.00148005	0.00007590	0.00026565	0.00041745	0.00170775	0.00087285	1
SG_CO_OK_00040_BCR	0.06154518	0.03269587	0.00769315	0.06731504	0.03846574	0.01923287	0.01730958	0.01153972	0.03269587	0.00576986	0.00576986	0.04615888	0.01923287	0.03654245	0.00961643	0.01923287	0.08462462	0.03269587	1
SG_CO_OK_00043_BCR	0.00080426	0.00016085	0.00096511	0.00008043	0.00056298	0.00008043	0.00016085	0.00072383	0.00120639	0.00080426	0.00040213	0.00016085	0.00016085	0.00016085	0.00056298	0.00024128	0.00225193	0.00016085	1
SG_CO_OK_00048_BCR	0.00012925	0.00012063	0.00005170	0.00010340	0.00012063	0.00000862	0.00005170	0.00002585	0.00014648	0.00004308	0.00000000	0.00000000	0.00003447	0.00000000	0.00000862	0.00001723	0.00008616	0.00007755	1
SG_CO_OK_00049_BCR	0.02772284	0.00163076	0.00652302	0.00978453	0.02283057	0.00000000	0.00326151	0.00163076	0.00326151	0.00163076	0.01141529	0.00000000	0.01793831	0.00326151	0.00326151	0.00489227	0.00326151	0.00978453	1
SG_CO_OK_00051_BCR	0.00000000	0.00000000	0.00000000	0.00000000	0.00000000	0.00000000	0.00000000	0.00000000	0.00000000	0.00000000	0.00000000	0.00000000	0.00000000	0.00000000	0.00000000	0.00000000	0.00000000	0.00000000	1
SG_CO_OK_00060_BCR	0.00050100	0.00006263	0.00006263	0.00018788	0.00025050	0.00012525	0.00037575	0.00012525	0.00006263	0.00000000	0.00006263	0.00012525	0.00006263	0.00006263	0.00006263	0.00025050	0.00018788	0.00043838	1
SG_CO_OK_00061_BCR	0.00062660	0.00000000	0.00000000	0.00000000	0.00003133	0.00006266	0.00003133	0.00006266	0.00006266	0.00003133	0.00003133	0.00003133	0.00000000	0.00015665	0.00003133	0.00009399	0.00021931	0.00018798	1
SG_CO_OK_00063_BCR	0.01707632	0.00341526	0.00546442	0.00956274	0.01092884	0.00819663	0.00956274	0.00751358	0.02527295	0.00614748	0.00614748	0.00751358	0.00614748	0.00478137	0.00751358	0.00409832	0.01434411	0.01229495	1
SG_CO_OK_00066_BCR	0.00687910	0.00144823	0.00217235	0.00108617	0.00217235	0.00036206	0.00072412	0.00036206	0.00868939	0.00000000	0.00036206	0.00000000	0.00325852	0.00072412	0.00108617	0.00253441	0.00905145	0.00470675	1
SG_CO_OK_00068_BCR	0.00015773	0.00006309	0.00003155	0.00006309	0.00009464	0.00003155	0.00002103	0.00007361	0.00030494	0.00007361	0.00003155	0.00001052	0.00008412	0.00016824	0.00004206	0.00011567	0.00015773	0.00003155	1
SG_CO_OK_00070_BCR	0.00652720	0.00343537	0.00240476	0.00377891	0.00240476	0.00103061	0.00085884	0.00171768	0.00532482	0.00292006	0.00292006	0.00034354	0.00360714	0.00206122	0.00154592	0.00154592	0.01064965	0.00120238	1
SG_CO_OK_00071_BCR	0.00064999	0.00074285	0.00074285	0.00102142	0.00120713	0.00009286	0.00018571	0.00018571	0.00120713	0.00027857	0.00111427	0.00046428	0.00055714	0.00111427	0.00074285	0.00083570	0.00046428	0.00083570	1
SG_CO_OK_00072_BCR	0.01665236	0.00000000	0.02497854	0.00000000	0.00832618	0.00000000	0.00000000	0.00000000	0.00000000	0.00416309	0.01248927	0.00000000	0.01665236	0.00000000	0.00000000	0.01665236	0.07077254	0.00416309	1
SG_CO_OK_00073_BCR	0.00199531	0.01596247	0.00598593	0.00798123	0.01596247	0.00000000	0.00199531	0.00798123	0.01995309	0.00598593	0.01197185	0.00598593	0.00598593	0.04389679	0.00199531	0.00399062	0.04988271	0.00798123	1
SG_CO_OK_00074_BCR	0.00033219	0.00000000	0.00014237	0.00014237	0.00009491	0.00009491	0.00000000	0.00009491	0.00042710	0.00009491	0.00004746	0.00000000	0.00014237	0.00000000	0.00037964	0.00000000	0.00037964	0.00014237	1
SG_CO_OK_00080_BCR	0.02617554	0.00747873	0.00934841	0.01028325	0.00373936	0.01308777	0.00934841	0.00841357	0.03552395	0.01028325	0.02150134	0.01869682	0.01308777	0.01869682	0.00093484	0.01869682	0.00467420	0.01495745	1
SG_GC_OS_0234_BCR	0.03603896	0.02252435	0.05856331	0.03153409	0.04955357	0.00450487	0.01351461	0.01801948	0.04054383	0.02702922	0.13514610	0.01801948	0.07658279	0.04054383	0.00900974	0.02252435	0.13965097	0.02252435	1
