Rep	Col
Healthy-SG_HC_OS_00160_BCR_0_1040	c0
COVID19-SG_CO_OK_00070_BCR_0_2819	c1
COVID19-SG_CO_OK_00052_BCR_0_2145	c2
COVID19-SG_CO_OK_00077_BCR_0_2857	c3
COVID19-SC_GC_OS_0235_BCR_0_42	c4
COVID19-SG_CO_OK_00025_BCR_0_3449	c5
COVID19-SG_CO_OK_00022_BCR_0_2889	c6
Healthy-SG_HC_OS_00163_BCR_0_263	c7
COVID19-SG_CO_OK_00014_0315_BCR_0_821	c8
Healthy-SG_HC_OS_00160_BCR_0_2643	c9
COVID19-SG_CO_OK_00080_BCR_0_3506	c10
Healthy-SG_HC_OS_0240_BCR_0_331	c11
COVID19-SG_CO_OK_00018_BCR_1_3728	c12
COVID19-SG_GC_OS_0182_BCR_0_409	c13
Healthy-SG_HC_OS_0224_BCR_0_737	c14
COVID19-SG_CO_OK_00029_BCR_0_1553	c15
COVID19-SG_GC_OS_0234_BCR_0_1414	c16
COVID19-SG_GC_OS_0182_BCR_0_15	c17
Healthy-SG_HC_OS_0224_BCR_0_685	c18
Healthy-SG_HC_OS_00293_BCR_0_1961	c19
Healthy-SG_HC_OS_00293_BCR_0_1950	c20
COVID19-SG_CO_OK_00052_BCR_0_1053	c21
COVID19-SG_CO_OK_00021_BCR_0_1583	c22
Healthy-SG_HC_OS_00129_BCR_0_3256	c23
COVID19-SG_CO_OK_00021_BCR_0_2613	c24
Healthy-SG_HC_OS_0005_BCR_0_200	c25
COVID19-SG_CO_OK_00007_BCR_0_445	c26
Healthy-SG_HC_OS_00259_BCR_0_695	c27
COVID19-SG_CO_OK_00037_BCR_0_179	c28
COVID19-SG_CO_OK_00042_BCR_0_752	c29
Healthy-SG_HC_OS_00218_BCR_0_187	c30
Healthy-SG_HC_OS_0228_BCR_0_1919	c31
Healthy-SG_HC_OS_00266_BCR_0_1254	c32
COVID19-SG_CO_OK_00071_BCR_0_1929	c33
COVID19-SG_CO_OK_00023_BCR_0_1250	c34
COVID19-SG_CO_OK_00068_BCR_0_3044	c35
COVID19-SG_CO_OK_00007_BCR_0_2651	c36
Healthy-SG_HC_OS_00218_BCR_0_776	c37
COVID19-SG_CO_OK_00057_BCR_0_713	c38
COVID19-SG_CO_OK_00012_BCR_0_779	c39
COVID19-SG_CO_OK_00063_BCR_0_762	c40
Healthy-SG_HC_OS_00168_BCR_0_140	c41
COVID19-SC_GC_OS_0186_BCR_0_86	c42
COVID19-SG_CO_OK_00028_BCR_0_523	c43
Healthy-SG_HC_OS_00264_BCR_0_663	c44
COVID19-SG_CO_OK_00016_BCR_0_1619	c45
Healthy-SG_HC_OS_0240_BCR_0_1913	c46
COVID19-SG_CO_OK_00052_BCR_0_3736	c47
COVID19-SG_CO_OK_00034_BCR_0_1130	c48
COVID19-SG_CO_OK_00021_BCR_0_1897	c49
COVID19-SG_CO_OK_00022_BCR_0_1725	c50
COVID19-SG_CO_OK_00020_BCR_0_1103	c51
Healthy-SG_HC_OS_00218_BCR_0_372	c52
Healthy-SG_HC_OS_00296_BCR_0_1900	c53
COVID19-SG_CO_OK_00037_BCR_0_407	c54
Healthy-SG_HC_OS_0224_BCR_0_194	c55
Healthy-SG_HC_OS_00217_BCR_0_2134	c56
COVID19-SG_GC_OS_0234_BCR_0_2381	c57
Healthy-SG_HC_OS_00168_BCR_0_1258	c58
COVID19-SG_CO_OK_00009_0315_BCR_0_2034	c59
Healthy-SG_HC_OS_00260_BCR_0_307	c60
Healthy-SG_HC_OS_00265_BCR_0_1323	c61
Healthy-SG_HC_OS_00260_BCR_0_2786	c62
COVID19-SG_CO_OK_00029_BCR_0_1220	c63
Healthy-SG_HC_OS_0219_BCR_0_1598	c64
COVID19-SC_GC_OS_0171_BCR_0_729	c65
COVID19-SG_CO_OK_00007_BCR_0_450	c66
COVID19-SG_CO_OK_00023_BCR_0_1299	c67
Healthy-SG_HC_OS_00006_BCR_0_610	c68
COVID19-SG_CO_OK_00007_BCR_0_825	c69
Healthy-SG_HC_OS_0224_BCR_0_934	c70
Healthy-SG_HC_OS_0236_BCR_0_577	c71
COVID19-SG_CO_OK_00074_BCR_0_679	c72
Healthy-SG_HC_OS_0224_BCR_0_78	c73
COVID19-SG_CO_OK_00057_BCR_0_975	c74
Healthy-SG_HC_OS_00160_BCR_0_2171	c75
COVID19-SG_CO_OK_00028_BCR_0_28	c76
COVID19-SG_CO_OK_00021_BCR_0_759	c77
Healthy-SG_HC_OS_0228_BCR_0_1328	c78
Healthy-SG_HC_OS_00216_BCR_0_1223	c79
Healthy-SG_HC_OS_00293_BCR_0_439	c80
Healthy-SG_HC_OS_00129_BCR_0_3788	c81
COVID19-SG_CO_OK_00025_BCR_0_3187	c82
COVID19-SG_CO_OK_00080_BCR_0_2067	c83
COVID19-SG_CO_OK_00027_BCR_0_2795	c84
Healthy-SG_HC_OS_00277_BCR_0_1900	c85
COVID19-SG_CO_OK_00027_BCR_0_2972	c86
COVID19-SG_CO_OK_00070_BCR_0_2502	c87
COVID19-SG_CO_OK_00007_BCR_0_1602	c88
Healthy-SG_HC_OS_0221_BCR_0_1049	c89
Healthy-SG_HC_OS_0228_BCR_0_1140	c90
COVID19-SG_CO_OK_00063_BCR_0_3048	c91
Healthy-SG_HC_OS_0221_BCR_0_1895	c92
COVID19-SG_CO_OK_00042_BCR_0_1295	c93
Healthy-SG_HC_OS_00272_BCR_0_1866	c94
Healthy-SG_HC_OS_00216_BCR_0_1395	c95
Healthy-SG_HC_OS_00129_BCR_0_360	c96
Healthy-SG_HC_OS_0229_BCR_0_1317	c97
Healthy-SG_HC_OS_0194_BCR_0_15	c98
Healthy-SG_HC_OS_00264_BCR_0_926	c99
Healthy-SG_HC_OS_00217_BCR_0_1643	c100
Healthy-SG_HC_OS_0240_BCR_0_1334	c101
COVID19-SG_CO_OK_00022_BCR_0_216	c102
Healthy-SG_HC_OS_00216_BCR_0_2153	c103
COVID19-SG_CO_OK_00080_BCR_0_2110	c104
Healthy-SG_HC_OS_00160_BCR_0_1307	c105
COVID19-SG_CO_OK_00027_BCR_0_1236	c106
COVID19-SG_CO_OK_00052_BCR_0_3354	c107
COVID19-SG_CO_OK_00008_BCR_0_998	c108
Healthy-SG_HC_OS_0229_BCR_0_40	c109
Healthy-SG_HC_OS_00260_BCR_0_2917	c110
COVID19-SG_CO_OK_00060_BCR_0_596	c111
COVID19-SG_CO_OK_00073_BCR_0_2477	c112
Healthy-SG_HC_OS_00293_BCR_0_2151	c113
COVID19-SG_CO_OK_00080_BCR_0_1122	c114
Healthy-SG_HC_OS_0193_BCR_0_288	c115
COVID19-SG_CO_OK_00021_BCR_0_5181	c116
COVID19-SG_CO_OK_00010_0315_BCR_0_2824	c117
COVID19-SG_CO_OK_00074_BCR_0_935	c118
Healthy-SG_HC_OS_0221_BCR_0_1614	c119
Healthy-SG_HC_OS_00129_BCR_0_3058	c120
Healthy-SG_HC_OS_0231_BCR_0_1228	c121
Healthy-SG_HC_OS_00264_BCR_0_1112	c122
COVID19-SG_CO_OK_00076_BCR_0_2954	c123
COVID19-SG_CO_OK_00020_BCR_0_1789	c124
Healthy-SG_HC_OS_00216_BCR_0_1654	c125
COVID19-SG_CO_OK_00048_BCR_0_1739	c126
Healthy-SG_HC_OS_00260_BCR_0_314	c127
Healthy-SG_HC_OS_00160_BCR_0_567	c128
COVID19-SG_CO_OK_00070_BCR_0_2003	c129
COVID19-SG_CO_OK_00057_BCR_0_1914	c130
COVID19-SG_CO_OK_00025_BCR_0_3450	c131
COVID19-SC_GC_OS_0186_BCR_0_1541	c132
Healthy-SG_HC_OS_00217_BCR_0_2240	c133
COVID19-SG_CO_OK_00052_BCR_0_284	c134
Healthy-SG_HC_OS_00296_BCR_0_1622	c135
COVID19-SG_CO_OK_00052_BCR_0_721	c136
COVID19-SG_CO_OK_00080_BCR_0_1409	c137
COVID19-SG_CO_OK_00021_BCR_0_4015	c138
Healthy-SG_HC_OS_00129_BCR_0_3793	c139
Healthy-SG_HC_OS_00216_BCR_0_1567	c140
Healthy-SG_HC_OS_00295_BCR_0_1049	c141
COVID19-SG_CO_OK_00025_BCR_0_2617	c142
COVID19-SG_CO_OK_00010_0315_BCR_0_791	c143
COVID19-SG_CO_OK_00048_BCR_0_5803	c144
COVID19-SG_CO_OK_00023_BCR_0_4495	c145
Healthy-SG_HC_OS_00282_BCR_0_2369	c146
COVID19-SG_CO_OK_00060_BCR_0_1420	c147
Healthy-SG_HC_OS_0005_BCR_0_1052	c148
Healthy-SG_HC_OS_00260_BCR_0_2000	c149
COVID19-SG_CO_OK_00007_BCR_0_1100	c150
COVID19-SG_GC_OS_0234_BCR_0_1324	c151
Healthy-SG_HC_OS_00160_BCR_0_554	c152
Healthy-SG_HC_OS_0005_BCR_0_1191	c153
COVID19-SC_GC_OS_0235_BCR_0_1534	c154
COVID19-SG_CO_OK_00066_BCR_0_1507	c155
Healthy-SG_HC_OS_00265_BCR_0_2106	c156
Healthy-SG_HC_OS_0240_BCR_0_1515	c157
Healthy-SG_HC_OS_00265_BCR_0_1450	c158
Healthy-SG_HC_OS_00266_BCR_0_89	c159
Healthy-SG_HC_OS_00217_BCR_0_920	c160
Healthy-SG_HC_OS_00293_BCR_0_461	c161
COVID19-SG_CO_OK_00067_BCR_0_1530	c162
COVID19-SG_CO_OK_00033_BCR_0_2627	c163
COVID19-SG_CO_OK_00028_BCR_0_37	c164
Healthy-SG_HC_OS_00129_BCR_0_3391	c165
COVID19-SG_CO_OK_00063_BCR_0_3542	c166
COVID19-SG_CO_OK_00043_BCR_0_1103	c167
Healthy-SG_HC_OS_0249_BCR_0_148	c168
COVID19-SG_CO_OK_00013_BCR_0_1332	c169
COVID19-SG_CO_OK_00021_BCR_0_4344	c170
COVID19-SG_CO_OK_00021_BCR_0_4699	c171
COVID19-SG_CO_OK_00073_BCR_0_1723	c172
COVID19-SG_CO_OK_00011_BCR_0_318	c173
COVID19-SG_CO_OK_00021_BCR_0_1479	c174
Healthy-SG_HC_OS_00272_BCR_0_590	c175
COVID19-SG_CO_OK_00004_BCR_0_853	c176
Healthy-SG_HC_OS_0232_BCR_0_74	c177
Healthy-SG_HC_OS_00282_BCR_0_3079	c178
Healthy-SG_HC_OS_00266_BCR_0_129	c179
COVID19-SG_CO_OK_00023_BCR_0_1552	c180
Healthy-SG_HC_OS_00259_BCR_0_635	c181
Healthy-SG_HC_OS_00293_BCR_0_1575	c182
COVID19-SG_CO_OK_00027_BCR_0_2968	c183
Healthy-SG_HC_OS_00217_BCR_0_200	c184
COVID19-SG_GC_OS_0234_BCR_0_2975	c185
COVID19-SG_CO_OK_00027_BCR_0_3661	c186
Healthy-SG_HC_OS_00264_BCR_0_1083	c187
COVID19-SG_CO_OK_00068_BCR_0_3212	c188
COVID19-SG_CO_OK_00021_BCR_0_4171	c189
COVID19-SG_CO_OK_00072_BCR_0_502	c190
Healthy-SG_HC_OS_0228_BCR_0_440	c191
COVID19-SG_CO_OK_00057_BCR_0_108	c192
COVID19-SG_CO_OK_00028_BCR_0_199	c193
Healthy-SG_HC_OS_0005_BCR_0_2027	c194
COVID19-SG_CO_OK_00011_BCR_0_168	c195
COVID19-SG_CO_OK_00023_BCR_0_770	c196
Healthy-SG_HC_OS_00168_BCR_0_638	c197
Healthy-SG_HC_OS_0221_BCR_0_799	c198
COVID19-SG_CO_OK_00071_BCR_0_2390	c199
Healthy-SG_HC_OS_0230_BCR_0_24	c200
Healthy-SG_HC_OS_00265_BCR_0_1326	c201
COVID19-SG_CO_OK_00043_BCR_0_1615	c202
Healthy-SG_HC_OS_00006_BCR_0_1325	c203
COVID19-SG_CO_OK_00080_BCR_0_1931	c204
Healthy-SG_HC_OS_00168_BCR_0_803	c205
COVID19-SG_CO_OK_00007_BCR_0_678	c206
COVID19-SG_CO_OK_00030_BCR_0_11577	c207
COVID19-SG_CO_OK_00025_BCR_0_1604	c208
Healthy-SG_HC_OS_00294_BCR_0_1329	c209
Healthy-SG_HC_OS_00216_BCR_0_952	c210
Healthy-SG_HC_OS_0219_BCR_0_890	c211
COVID19-SG_CO_OK_00067_BCR_0_1420	c212
COVID19-SG_CO_OK_00015_BCR_0_310	c213
COVID19-SC_GC_OS_0186_BCR_0_99	c214
Healthy-SG_HC_OS_00218_BCR_0_1277	c215
COVID19-SG_CO_OK_00057_BCR_0_2377	c216
Healthy-SG_HC_OS_00216_BCR_0_221	c217
COVID19-SG_CO_OK_00018_BCR_1_3593	c218
Healthy-SG_HC_OS_00264_BCR_0_432	c219
COVID19-SC_GC_OS_0186_BCR_0_1765	c220
COVID19-SG_CO_OK_00040_BCR_0_1023	c221
COVID19-SG_CO_OK_00061_BCR_0_299	c222
Healthy-SG_HC_OS_0219_BCR_0_1262	c223
COVID19-SG_CO_OK_00070_BCR_0_3852	c224
Healthy-SG_HC_OS_0222_BCR_0_30	c225
Healthy-SG_HC_OS_0220_BCR_0_564	c226
Healthy-SG_HC_OS_0220_BCR_0_547	c227
COVID19-SG_CO_OK_00071_BCR_0_2092	c228
COVID19-SG_CO_OK_00077_BCR_0_2297	c229
COVID19-SG_CO_OK_00010_0315_BCR_0_3113	c230
Healthy-SG_HC_OS_00265_BCR_0_2947	c231
Healthy-SG_HC_OS_00218_BCR_0_253	c232
Healthy-SG_HC_OS_00216_BCR_0_627	c233
Healthy-SG_HC_OS_0223_BCR_0_1047	c234
COVID19-SG_CO_OK_00067_BCR_0_583	c235
COVID19-SG_CO_OK_00019_BCR_0_87	c236
COVID19-SG_CO_OK_00043_BCR_0_911	c237
Healthy-SG_HC_OS_00280_BCR_0_1162	c238
COVID19-SG_CO_OK_00037_BCR_0_1451	c239
COVID19-SG_CO_OK_00073_BCR_0_2485	c240
COVID19-SG_CO_OK_00052_BCR_0_4243	c241
Healthy-SG_HC_OS_0228_BCR_0_420	c242
COVID19-SG_CO_OK_00021_BCR_0_3161	c243
COVID19-SG_CO_OK_00070_BCR_0_1046	c244
COVID19-SG_CO_OK_00013_BCR_0_441	c245
COVID19-SG_CO_OK_00010_0315_BCR_0_3363	c246
Healthy-SG_HC_OS_00280_BCR_0_2168	c247
COVID19-SC_GC_OS_0171_BCR_0_691	c248
COVID19-SG_CO_OK_00030_BCR_0_1089	c249
Healthy-SG_HC_OS_00293_BCR_0_308	c250
COVID19-SG_CO_OK_00074_BCR_0_371	c251
COVID19-SG_CO_OK_00025_BCR_0_688	c252
Healthy-SG_HC_OS_00272_BCR_0_295	c253
COVID19-SG_CO_OK_00063_BCR_0_928	c254
Healthy-SG_HC_OS_00218_BCR_0_65	c255
COVID19-SG_CO_OK_00077_BCR_0_1104	c256
COVID19-SG_CO_OK_00021_BCR_0_3419	c257
COVID19-SG_CO_OK_00027_BCR_0_1051	c258
COVID19-SG_CO_OK_00043_BCR_0_1153	c259
COVID19-SG_CO_OK_00027_BCR_0_1175	c260
COVID19-SG_CO_OK_00027_BCR_0_2722	c261
COVID19-SG_CO_OK_00026_BCR_0_331	c262
COVID19-SG_CO_OK_00066_BCR_0_1439	c263
Healthy-SG_HC_OS_00218_BCR_0_1037	c264
COVID19-SG_CO_OK_00023_BCR_0_3122	c265
COVID19-SG_CO_OK_00052_BCR_0_1318	c266
Healthy-SG_HC_OS_00163_BCR_0_200	c267
Healthy-SG_HC_OS_00006_BCR_0_341	c268
COVID19-SG_CO_OK_00076_BCR_0_2127	c269
COVID19-SG_CO_OK_00070_BCR_0_2001	c270
COVID19-SG_CO_OK_00021_BCR_0_2730	c271
Healthy-SG_HC_OS_00264_BCR_0_409	c272
COVID19-SG_CO_OK_00027_BCR_0_3628	c273
Healthy-SG_HC_OS_00282_BCR_0_3652	c274
COVID19-SG_CO_OK_00080_BCR_0_2031	c275
Healthy-SG_HC_OS_00280_BCR_0_1695	c276
Healthy-SG_HC_OS_0240_BCR_0_972	c277
COVID19-SG_CO_OK_00030_BCR_0_1524	c278
Healthy-SG_HC_OS_0232_BCR_0_983	c279
Healthy-SG_HC_OS_00160_BCR_0_1128	c280
COVID19-SG_CO_OK_00072_BCR_0_214	c281
COVID19-SG_CO_OK_00073_BCR_0_2871	c282
COVID19-SG_CO_OK_00021_BCR_0_2972	c283
COVID19-SG_CO_OK_00071_BCR_0_1787	c284
COVID19-SG_CO_OK_00026_BCR_0_118	c285
COVID19-SG_CO_OK_00025_BCR_0_3012	c286
Healthy-SG_HC_OS_00293_BCR_0_1974	c287
Healthy-SG_HC_OS_00280_BCR_0_554	c288
COVID19-SG_CO_OK_00052_BCR_0_475	c289
COVID19-SG_CO_OK_00052_BCR_0_1201	c290
Healthy-SG_HC_OS_00218_BCR_0_1204	c291
Healthy-SG_HC_OS_0249_BCR_0_847	c292
COVID19-SG_CO_OK_00022_BCR_0_3029	c293
COVID19-SG_CO_OK_00057_BCR_0_998	c294
Healthy-SG_HC_OS_0224_BCR_0_1209	c295
COVID19-SG_CO_OK_00027_BCR_0_2567	c296
COVID19-SG_CO_OK_00057_BCR_0_2986	c297
Healthy-SG_HC_OS_0007_BCR_0_1099	c298
Healthy-SG_HC_OS_0221_BCR_0_769	c299
Healthy-SG_HC_OS_00160_BCR_0_2400	c300
COVID19-SG_CO_OK_00015_BCR_0_469	c301
Healthy-SG_HC_OS_00217_BCR_0_3679	c302
Healthy-SG_HC_OS_00293_BCR_0_259	c303
COVID19-SG_CO_OK_00052_BCR_0_3389	c304
COVID19-SG_CO_OK_00057_BCR_0_1773	c305
COVID19-SG_CO_OK_00037_BCR_0_1331	c306
COVID19-SG_CO_OK_00022_BCR_0_954	c307
Healthy-SG_HC_OS_0193_BCR_0_774	c308
Healthy-SG_HC_OS_0221_BCR_0_1198	c309
COVID19-SG_CO_OK_00021_BCR_0_2287	c310
COVID19-SG_CO_OK_00005_BCR_0_665	c311
Healthy-SG_HC_OS_0240_BCR_0_819	c312
COVID19-SG_CO_OK_00030_BCR_0_16340	c313
COVID19-SG_CO_OK_00014_0315_BCR_0_223	c314
COVID19-SC_GC_OS_0235_BCR_0_1543	c315
Healthy-SG_HC_OS_0228_BCR_0_226	c316
COVID19-SG_CO_OK_00063_BCR_0_295	c317
COVID19-SG_CO_OK_00070_BCR_0_3325	c318
Healthy-SG_HC_OS_00296_BCR_0_984	c319
COVID19-SG_CO_OK_00005_BCR_0_1670	c320
COVID19-SG_CO_OK_00027_BCR_0_2703	c321
COVID19-SG_CO_OK_00030_BCR_0_11169	c322
Healthy-SG_HC_OS_0228_BCR_0_2050	c323
Healthy-SG_HC_OS_00296_BCR_0_934	c324
COVID19-SG_CO_OK_00049_BCR_0_195	c325
Healthy-SG_HC_OS_00282_BCR_0_3142	c326
Healthy-SG_HC_OS_00293_BCR_0_1661	c327
COVID19-SG_CO_OK_00052_BCR_0_3880	c328
COVID19-SC_GC_OS_0186_BCR_0_1331	c329
Healthy-SG_HC_OS_0236_BCR_0_333	c330
COVID19-SG_CO_OK_00061_BCR_0_2537	c331
COVID19-SG_CO_OK_00030_BCR_0_12736	c332
COVID19-SG_CO_OK_00076_BCR_0_3138	c333
COVID19-SG_CO_OK_00022_BCR_0_2452	c334
Healthy-SG_HC_OS_00260_BCR_0_2524	c335
COVID19-SG_CO_OK_00080_BCR_0_2195	c336
Healthy-SG_HC_OS_00282_BCR_0_2473	c337
COVID19-SG_CO_OK_00027_BCR_0_1703	c338
Healthy-SG_HC_OS_00282_BCR_0_2456	c339
COVID19-SG_CO_OK_00031_BCR_0_520	c340
Healthy-SG_HC_OS_0228_BCR_0_2340	c341
COVID19-SG_CO_OK_00077_BCR_0_315	c342
Healthy-SG_HC_OS_00296_BCR_0_1035	c343
Healthy-SG_HC_OS_00277_BCR_0_1242	c344
COVID19-SC_GC_OS_0235_BCR_0_1461	c345
COVID19-SG_CO_OK_00019_BCR_0_945	c346
COVID19-SG_CO_OK_00063_BCR_0_1422	c347
Healthy-SG_HC_OS_00282_BCR_0_1897	c348
Healthy-SG_HC_OS_00293_BCR_0_1890	c349
Healthy-SG_HC_OS_00006_BCR_0_879	c350
COVID19-SG_CO_OK_00029_BCR_0_1098	c351
COVID19-SG_CO_OK_00005_BCR_0_1248	c352
COVID19-SG_CO_OK_00021_BCR_0_4519	c353
Healthy-SG_HC_OS_00216_BCR_0_2674	c354
COVID19-SG_CO_OK_00006_BCR_0_2401	c355
COVID19-SG_CO_OK_00076_BCR_0_1949	c356
Healthy-SG_HC_OS_00218_BCR_0_1754	c357
Healthy-SG_HC_OS_0222_BCR_0_918	c358
Healthy-SG_HC_OS_00163_BCR_0_1179	c359
Healthy-SG_HC_OS_00168_BCR_0_704	c360
Healthy-SG_HC_OS_0249_BCR_0_3118	c361
Healthy-SG_HC_OS_00260_BCR_0_631	c362
COVID19-SG_CO_OK_00052_BCR_0_2015	c363
COVID19-SG_CO_OK_00072_BCR_0_708	c364
COVID19-SG_CO_OK_00028_BCR_0_252	c365
COVID19-SG_CO_OK_00063_BCR_0_281	c366
COVID19-SG_CO_OK_00070_BCR_0_2891	c367
COVID19-SG_CO_OK_00020_BCR_0_585	c368
COVID19-SG_CO_OK_00042_BCR_0_754	c369
Healthy-SG_HC_OS_00294_BCR_0_1423	c370
COVID19-SG_CO_OK_00063_BCR_0_3413	c371
COVID19-SG_CO_OK_00007_BCR_0_284	c372
COVID19-SG_CO_OK_00040_BCR_0_2142	c373
Healthy-SG_HC_OS_00264_BCR_0_823	c374
Healthy-SG_HC_OS_00277_BCR_0_1639	c375
Healthy-SG_HC_OS_0007_BCR_0_548	c376
COVID19-SG_CO_OK_00040_BCR_0_74	c377
Healthy-SG_HC_OS_00265_BCR_0_280	c378
COVID19-SG_CO_OK_00057_BCR_0_1656	c379
COVID19-SG_CO_OK_00026_BCR_0_1311	c380
COVID19-SG_CO_OK_00023_BCR_0_2626	c381
Healthy-SG_HC_OS_00217_BCR_0_2370	c382
COVID19-SG_CO_OK_00021_BCR_0_1315	c383
Healthy-SG_HC_OS_00293_BCR_0_807	c384
COVID19-SG_CO_OK_00033_BCR_0_2400	c385
Healthy-SG_HC_OS_00218_BCR_0_1691	c386
Healthy-SG_HC_OS_00294_BCR_0_492	c387
COVID19-SG_CO_OK_00011_BCR_0_419	c388
Healthy-SG_HC_OS_0249_BCR_0_870	c389
Healthy-SG_HC_OS_00264_BCR_0_1493	c390
Healthy-SG_HC_OS_00272_BCR_0_697	c391
Healthy-SG_HC_OS_00265_BCR_0_2392	c392
Healthy-SG_HC_OS_00282_BCR_0_516	c393
Healthy-SG_HC_OS_0007_BCR_0_921	c394
Healthy-SG_HC_OS_00260_BCR_0_2525	c395
COVID19-SG_CO_OK_00063_BCR_0_1162	c396
Healthy-SG_HC_OS_0231_BCR_0_184	c397
COVID19-SG_CO_OK_00057_BCR_0_281	c398
COVID19-SG_GC_OS_0234_BCR_0_1856	c399
Healthy-SG_HC_OS_00218_BCR_0_259	c400
COVID19-SG_CO_OK_00080_BCR_0_3233	c401
COVID19-SG_CO_OK_00013_BCR_0_255	c402
Healthy-SG_HC_OS_00293_BCR_0_1277	c403
Healthy-SG_HC_OS_00260_BCR_0_3258	c404
Healthy-SG_HC_OS_00160_BCR_0_936	c405
Healthy-SG_HC_OS_0231_BCR_0_675	c406
Healthy-SG_HC_OS_0224_BCR_0_361	c407
COVID19-SG_CO_OK_00005_BCR_0_638	c408
COVID19-SG_CO_OK_00057_BCR_0_2129	c409
COVID19-SG_CO_OK_00030_BCR_0_12171	c410
COVID19-SG_CO_OK_00068_BCR_0_1940	c411
COVID19-SG_CO_OK_00057_BCR_0_1122	c412
COVID19-SG_CO_OK_00037_BCR_0_1720	c413
COVID19-SG_CO_OK_00023_BCR_0_4708	c414
COVID19-SG_CO_OK_00009_0315_BCR_0_564	c415
COVID19-SG_CO_OK_00071_BCR_0_250	c416
Healthy-SG_HC_OS_00294_BCR_0_936	c417
COVID19-SG_CO_OK_00061_BCR_0_738	c418
Healthy-SG_HC_OS_0249_BCR_0_2992	c419
Healthy-SG_HC_OS_00217_BCR_0_2349	c420
COVID19-SG_CO_OK_00077_BCR_0_3414	c421
COVID19-SC_GC_OS_0171_BCR_0_127	c422
COVID19-SG_CO_OK_00007_BCR_0_712	c423
COVID19-SG_CO_OK_00033_BCR_0_2335	c424
Healthy-SG_HC_OS_00006_BCR_0_598	c425
COVID19-SG_CO_OK_00034_BCR_0_918	c426
Healthy-SG_HC_OS_00282_BCR_0_2210	c427
COVID19-SG_CO_OK_00077_BCR_0_22	c428
Healthy-SG_HC_OS_0249_BCR_0_2892	c429
COVID19-SG_CO_OK_00048_BCR_0_6272	c430
Healthy-SG_HC_OS_0199_BCR_0_726	c431
COVID19-SG_CO_OK_00025_BCR_0_693	c432
Healthy-SG_HC_OS_00282_BCR_0_1837	c433
COVID19-SG_CO_OK_00007_BCR_0_319	c434
Healthy-SG_HC_OS_00293_BCR_0_2116	c435
COVID19-SG_CO_OK_00004_BCR_0_519	c436
COVID19-SG_CO_OK_00023_BCR_0_4564	c437
COVID19-SG_CO_OK_00020_BCR_0_682	c438
COVID19-SG_CO_OK_00040_BCR_0_2555	c439
COVID19-SG_CO_OK_00011_BCR_0_896	c440
COVID19-SG_CO_OK_00019_BCR_0_980	c441
COVID19-SG_CO_OK_00073_BCR_0_2134	c442
COVID19-SG_CO_OK_00037_BCR_0_1326	c443
Healthy-SG_HC_OS_00260_BCR_0_1184	c444
Healthy-SG_HC_OS_0232_BCR_0_1058	c445
COVID19-SG_CO_OK_00023_BCR_0_986	c446
Healthy-SG_HC_OS_0228_BCR_0_1496	c447
Healthy-SG_HC_OS_0228_BCR_0_1365	c448
COVID19-SG_CO_OK_00010_0315_BCR_0_2933	c449
COVID19-SG_CO_OK_00052_BCR_0_82	c450
COVID19-SG_CO_OK_00057_BCR_0_2372	c451
COVID19-SG_CO_OK_00030_BCR_0_12922	c452
COVID19-SG_CO_OK_00048_BCR_0_4654	c453
Healthy-SG_HC_OS_00163_BCR_0_1442	c454
COVID19-SG_CO_OK_00043_BCR_0_1882	c455
Healthy-SG_HC_OS_00277_BCR_0_1458	c456
Healthy-SG_HC_OS_00272_BCR_0_1797	c457
COVID19-SG_CO_OK_00072_BCR_0_997	c458
Healthy-SG_HC_OS_00272_BCR_0_1795	c459
COVID19-SG_CO_OK_00080_BCR_0_3448	c460
COVID19-SG_CO_OK_00025_BCR_0_2156	c461
COVID19-SG_CO_OK_00006_BCR_0_1175	c462
Healthy-SG_HC_OS_0221_BCR_0_2016	c463
Healthy-SG_HC_OS_0219_BCR_0_622	c464
Healthy-SG_HC_OS_00260_BCR_0_2391	c465
COVID19-SG_CO_OK_00071_BCR_0_2007	c466
COVID19-SG_CO_OK_00007_BCR_0_2216	c467
Healthy-SG_HC_OS_0219_BCR_0_2003	c468
COVID19-SG_CO_OK_00021_BCR_0_2936	c469
Healthy-SG_HC_OS_0222_BCR_0_1089	c470
COVID19-SG_CO_OK_00068_BCR_0_1215	c471
Healthy-SG_HC_OS_00168_BCR_0_774	c472
Healthy-SG_HC_OS_00282_BCR_0_20	c473
COVID19-SG_CO_OK_00070_BCR_0_1297	c474
COVID19-SG_CO_OK_00052_BCR_0_1468	c475
Healthy-SG_HC_OS_0007_BCR_0_1375	c476
COVID19-SG_CO_OK_00005_BCR_0_3134	c477
Healthy-SG_HC_OS_00282_BCR_0_2059	c478
Healthy-SG_HC_OS_00292_BCR_0_1437	c479
COVID19-SG_CO_OK_00040_BCR_0_1094	c480
Healthy-SG_HC_OS_00217_BCR_0_805	c481
COVID19-SG_CO_OK_00021_BCR_0_2877	c482
Healthy-SG_HC_OS_00259_BCR_0_329	c483
COVID19-SG_CO_OK_00037_BCR_0_461	c484
Healthy-SG_HC_OS_0240_BCR_0_96	c485
COVID19-SG_CO_OK_00072_BCR_0_908	c486
Healthy-SG_HC_OS_00216_BCR_0_3144	c487
COVID19-SG_CO_OK_00006_BCR_0_3407	c488
COVID19-SG_CO_OK_00033_BCR_0_955	c489
COVID19-SG_CO_OK_00030_BCR_0_16516	c490
Healthy-SG_HC_OS_00293_BCR_0_424	c491
COVID19-SG_CO_OK_00072_BCR_0_64	c492
Healthy-SG_HC_OS_00259_BCR_0_874	c493
COVID19-SG_CO_OK_00010_0315_BCR_0_2750	c494
Healthy-SG_HC_OS_0240_BCR_0_2041	c495
Healthy-SG_HC_OS_00282_BCR_0_1168	c496
Healthy-SG_HC_OS_00216_BCR_0_957	c497
Healthy-SG_HC_OS_0221_BCR_0_1117	c498
Healthy-SG_HC_OS_00260_BCR_0_3019	c499
Healthy-SG_HC_OS_0232_BCR_0_886	c500
Healthy-SG_HC_OS_0007_BCR_0_378	c501
Healthy-SG_HC_OS_00282_BCR_0_2049	c502
Healthy-SG_HC_OS_00215_BCR_0_166	c503
Healthy-SG_HC_OS_00218_BCR_0_675	c504
COVID19-SG_CO_OK_00057_BCR_0_2050	c505
Healthy-SG_HC_OS_00293_BCR_0_908	c506
COVID19-SG_CO_OK_00071_BCR_0_1602	c507
COVID19-SG_CO_OK_00008_BCR_0_50	c508
Healthy-SG_HC_OS_00160_BCR_0_2445	c509
COVID19-SG_CO_OK_00067_BCR_0_1816	c510
Healthy-SG_HC_OS_00284_BCR_0_46	c511
Healthy-SG_HC_OS_0007_BCR_0_74	c512
COVID19-SG_CO_OK_00063_BCR_0_1410	c513
COVID19-SG_CO_OK_00030_BCR_0_9202	c514
COVID19-SG_CO_OK_00080_BCR_0_2547	c515
COVID19-SG_CO_OK_00049_BCR_0_1084	c516
COVID19-SG_CO_OK_00043_BCR_0_1422	c517
COVID19-SG_GC_OS_0234_BCR_0_1189	c518
Healthy-SG_HC_OS_00272_BCR_0_1822	c519
Healthy-SG_HC_OS_00006_BCR_0_876	c520
Healthy-SG_HC_OS_0228_BCR_0_2102	c521
Healthy-SG_HC_OS_00272_BCR_0_228	c522
COVID19-SG_CO_OK_00057_BCR_0_2414	c523
COVID19-SG_CO_OK_00057_BCR_0_2784	c524
COVID19-SG_CO_OK_00048_BCR_0_3372	c525
COVID19-SC_GC_OS_0171_BCR_0_130	c526
Healthy-SG_HC_OS_00294_BCR_0_855	c527
Healthy-SG_HC_OS_00294_BCR_0_804	c528
COVID19-SG_CO_OK_00052_BCR_0_801	c529
COVID19-SG_CO_OK_00042_BCR_0_946	c530
COVID19-SG_CO_OK_00005_BCR_0_2220	c531
COVID19-SG_CO_OK_00021_BCR_0_551	c532
Healthy-SG_HC_OS_00272_BCR_0_933	c533
COVID19-SG_CO_OK_00011_BCR_0_2033	c534
COVID19-SG_GC_OS_0182_BCR_0_233	c535
COVID19-SG_CO_OK_00080_BCR_0_1745	c536
COVID19-SG_CO_OK_00080_BCR_0_80	c537
COVID19-SG_CO_OK_00005_BCR_0_1481	c538
COVID19-SG_GC_OS_0182_BCR_0_1275	c539
Healthy-SG_HC_OS_0225_BCR_0_972	c540
Healthy-SG_HC_OS_00266_BCR_0_664	c541
Healthy-SG_HC_OS_0194_BCR_0_995	c542
COVID19-SG_CO_OK_00076_BCR_0_2783	c543
COVID19-SG_CO_OK_00048_BCR_0_5610	c544
COVID19-SG_CO_OK_00030_BCR_0_12189	c545
COVID19-SG_CO_OK_00029_BCR_0_1001	c546
COVID19-SG_CO_OK_00010_0315_BCR_0_1597	c547
COVID19-SG_CO_OK_00023_BCR_0_1016	c548
Healthy-SG_HC_OS_00160_BCR_0_2571	c549
COVID19-SG_CO_OK_00040_BCR_0_2042	c550
COVID19-SG_CO_OK_00025_BCR_0_4102	c551
Healthy-SG_HC_OS_0249_BCR_0_737	c552
COVID19-SG_GC_OS_0234_BCR_0_243	c553
COVID19-SG_CO_OK_00057_BCR_0_641	c554
COVID19-SG_CO_OK_00010_0315_BCR_0_1036	c555
COVID19-SG_CO_OK_00061_BCR_0_911	c556
Healthy-SG_HC_OS_0236_BCR_0_970	c557
COVID19-SG_CO_OK_00077_BCR_0_1603	c558
COVID19-SG_CO_OK_00021_BCR_0_107	c559
COVID19-SG_CO_OK_00014_0315_BCR_0_1168	c560
Healthy-SG_HC_OS_0240_BCR_0_1411	c561
Healthy-SG_HC_OS_00129_BCR_0_1807	c562
COVID19-SG_CO_OK_00021_BCR_0_467	c563
COVID19-SG_CO_OK_00018_BCR_1_1192	c564
COVID19-SG_CO_OK_00021_BCR_0_340	c565
Healthy-SG_HC_OS_00259_BCR_0_1260	c566
COVID19-SG_CO_OK_00040_BCR_0_1593	c567
COVID19-SG_CO_OK_00043_BCR_0_130	c568
COVID19-SG_CO_OK_00013_BCR_0_1299	c569
COVID19-SG_CO_OK_00012_BCR_0_1583	c570
Healthy-SG_HC_OS_0231_BCR_0_116	c571
Healthy-SG_HC_OS_0219_BCR_0_2132	c572
Healthy-SG_HC_OS_0193_BCR_0_1039	c573
COVID19-SG_CO_OK_00042_BCR_0_2027	c574
COVID19-SG_CO_OK_00073_BCR_0_2483	c575
COVID19-SG_CO_OK_00028_BCR_0_912	c576
COVID19-SG_CO_OK_00026_BCR_0_782	c577
Healthy-SG_HC_OS_0221_BCR_0_262	c578
Healthy-SG_HC_OS_0249_BCR_0_686	c579
COVID19-SG_CO_OK_00070_BCR_0_3100	c580
COVID19-SG_CO_OK_00005_BCR_0_2814	c581
Healthy-SG_HC_OS_00265_BCR_0_1859	c582
COVID19-SG_CO_OK_00021_BCR_0_2346	c583
Healthy-SG_HC_OS_00266_BCR_0_1645	c584
COVID19-SG_CO_OK_00061_BCR_0_680	c585
COVID19-SG_CO_OK_00012_BCR_0_606	c586
Healthy-SG_HC_OS_00282_BCR_0_344	c587
COVID19-SG_CO_OK_00014_0315_BCR_0_1761	c588
COVID19-SG_CO_OK_00057_BCR_0_1184	c589
Healthy-SG_HC_OS_00282_BCR_0_4039	c590
COVID19-SG_CO_OK_00057_BCR_0_1039	c591
Healthy-SG_HC_OS_00216_BCR_0_802	c592
Healthy-SG_HC_OS_0228_BCR_0_396	c593
Healthy-SG_HC_OS_0249_BCR_0_2964	c594
Healthy-SG_HC_OS_00163_BCR_0_913	c595
Healthy-SG_HC_OS_00260_BCR_0_2141	c596
Healthy-SG_HC_OS_0228_BCR_0_2118	c597
COVID19-SG_CO_OK_00071_BCR_0_340	c598
COVID19-SG_CO_OK_00025_BCR_0_3923	c599
Healthy-SG_HC_OS_0193_BCR_0_1050	c600
COVID19-SG_CO_OK_00071_BCR_0_2466	c601
Healthy-SG_HC_OS_0193_BCR_0_248	c602
Healthy-SG_HC_OS_0232_BCR_0_1079	c603
Healthy-SG_HC_OS_0219_BCR_0_216	c604
COVID19-SC_GC_OS_0235_BCR_0_1355	c605
COVID19-SG_CO_OK_00077_BCR_0_2525	c606
COVID19-SG_CO_OK_00009_0315_BCR_0_1603	c607
Healthy-SG_HC_OS_00260_BCR_0_2962	c608
COVID19-SG_CO_OK_00076_BCR_0_1272	c609
COVID19-SG_CO_OK_00008_BCR_0_34	c610
COVID19-SG_CO_OK_00042_BCR_0_1491	c611
Healthy-SG_HC_OS_00217_BCR_0_861	c612
Healthy-SG_HC_OS_00259_BCR_0_723	c613
COVID19-SG_CO_OK_00025_BCR_0_782	c614
Healthy-SG_HC_OS_0232_BCR_0_722	c615
COVID19-SG_CO_OK_00008_BCR_0_1208	c616
COVID19-SG_CO_OK_00043_BCR_0_794	c617
COVID19-SG_CO_OK_00022_BCR_0_1328	c618
COVID19-SG_CO_OK_00021_BCR_0_4408	c619
COVID19-SG_CO_OK_00013_BCR_0_754	c620
Healthy-SG_HC_OS_00160_BCR_0_331	c621
COVID19-SG_CO_OK_00029_BCR_0_528	c622
COVID19-SG_CO_OK_00067_BCR_0_253	c623
COVID19-SG_CO_OK_00063_BCR_0_13	c624
COVID19-SG_CO_OK_00030_BCR_0_4847	c625
Healthy-SG_HC_OS_00160_BCR_0_1988	c626
COVID19-SG_CO_OK_00063_BCR_0_3246	c627
COVID19-SG_CO_OK_00043_BCR_0_1618	c628
Healthy-SG_HC_OS_0221_BCR_0_946	c629
COVID19-SG_CO_OK_00057_BCR_0_2622	c630
COVID19-SG_CO_OK_00080_BCR_0_1388	c631
COVID19-SG_CO_OK_00040_BCR_0_2447	c632
Healthy-SG_HC_OS_00280_BCR_0_266	c633
COVID19-SG_CO_OK_00021_BCR_0_336	c634
Healthy-SG_HC_OS_0249_BCR_0_1905	c635
Healthy-SG_HC_OS_00277_BCR_0_2118	c636
Healthy-SG_HC_OS_00280_BCR_0_336	c637
COVID19-SG_CO_OK_00007_BCR_0_1112	c638
Healthy-SG_HC_OS_00160_BCR_0_2057	c639
Healthy-SG_HC_OS_0221_BCR_0_850	c640
COVID19-SG_CO_OK_00052_BCR_0_4093	c641
Healthy-SG_HC_OS_0222_BCR_0_1390	c642
COVID19-SG_CO_OK_00080_BCR_0_3016	c643
COVID19-SG_CO_OK_00074_BCR_0_70	c644
Healthy-SG_HC_OS_0231_BCR_0_1395	c645
Healthy-SG_HC_OS_0199_BCR_0_73	c646
COVID19-SG_CO_OK_00080_BCR_0_278	c647
COVID19-SG_CO_OK_00031_BCR_0_120	c648
Healthy-SG_HC_OS_00260_BCR_0_570	c649
COVID19-SG_CO_OK_00019_BCR_0_1344	c650
Healthy-SG_HC_OS_00218_BCR_0_951	c651
Healthy-SG_HC_OS_0230_BCR_0_698	c652
COVID19-SC_GC_OS_0171_BCR_0_205	c653
COVID19-SC_GC_OS_0186_BCR_0_1121	c654
Healthy-SG_HC_OS_00272_BCR_0_328	c655
Healthy-SG_HC_OS_0240_BCR_0_958	c656
COVID19-SC_GC_OS_0186_BCR_0_95	c657
Healthy-SG_HC_OS_0240_BCR_0_948	c658
COVID19-SG_CO_OK_00060_BCR_0_232	c659
Healthy-SG_HC_OS_00217_BCR_0_970	c660
Healthy-SG_HC_OS_00265_BCR_0_2927	c661
COVID19-SG_CO_OK_00052_BCR_0_3295	c662
COVID19-SG_CO_OK_00021_BCR_0_160	c663
Healthy-SG_HC_OS_00160_BCR_0_467	c664
Healthy-SG_HC_OS_00217_BCR_0_1851	c665
Healthy-SG_HC_OS_00168_BCR_0_598	c666
COVID19-SG_CO_OK_00077_BCR_0_621	c667
Healthy-SG_HC_OS_0249_BCR_0_2941	c668
COVID19-SG_CO_OK_00027_BCR_0_3414	c669
COVID19-SG_CO_OK_00030_BCR_0_4242	c670
COVID19-SG_CO_OK_00057_BCR_0_2318	c671
Healthy-SG_HC_OS_00280_BCR_0_472	c672
Healthy-SG_HC_OS_00295_BCR_0_638	c673
COVID19-SG_CO_OK_00033_BCR_0_1655	c674
Healthy-SG_HC_OS_00295_BCR_0_971	c675
COVID19-SG_CO_OK_00071_BCR_0_1374	c676
Healthy-SG_HC_OS_00168_BCR_0_1008	c677
Healthy-SG_HC_OS_0249_BCR_0_2990	c678
Healthy-SG_HC_OS_0222_BCR_0_90	c679
Healthy-SG_HC_OS_00294_BCR_0_1280	c680
Healthy-SG_HC_OS_00260_BCR_0_1569	c681
COVID19-SC_GC_OS_0186_BCR_0_707	c682
COVID19-SG_CO_OK_00042_BCR_0_2032	c683
Healthy-SG_HC_OS_00277_BCR_0_196	c684
COVID19-SG_CO_OK_00029_BCR_0_1078	c685
Healthy-SG_HC_OS_00163_BCR_0_125	c686
Healthy-SG_HC_OS_0249_BCR_0_2071	c687
COVID19-SG_CO_OK_00076_BCR_0_1350	c688
Healthy-SG_HC_OS_00277_BCR_0_1003	c689
Healthy-SG_HC_OS_0222_BCR_0_1243	c690
Healthy-SG_HC_OS_0219_BCR_0_1687	c691
Healthy-SG_HC_OS_00277_BCR_0_721	c692
Healthy-SG_HC_OS_00260_BCR_0_323	c693
Healthy-SG_HC_OS_00293_BCR_0_1424	c694
Healthy-SG_HC_OS_00259_BCR_0_1038	c695
COVID19-SG_CO_OK_00030_BCR_0_12787	c696
Healthy-SG_HC_OS_00129_BCR_0_1758	c697
Healthy-SG_HC_OS_00259_BCR_0_1101	c698
COVID19-SG_CO_OK_00019_BCR_0_1140	c699
COVID19-SG_CO_OK_00068_BCR_0_2485	c700
COVID19-SG_CO_OK_00070_BCR_0_1114	c701
Healthy-SG_HC_OS_0249_BCR_0_3386	c702
Healthy-SG_HC_OS_00282_BCR_0_466	c703
COVID19-SG_CO_OK_00020_BCR_0_617	c704
COVID19-SG_CO_OK_00073_BCR_0_11	c705
COVID19-SG_CO_OK_00033_BCR_0_1502	c706
Healthy-SG_HC_OS_0007_BCR_0_843	c707
Healthy-SG_HC_OS_00272_BCR_0_955	c708
Healthy-SG_HC_OS_0224_BCR_0_1429	c709
COVID19-SG_CO_OK_00057_BCR_0_1036	c710
COVID19-SG_CO_OK_00070_BCR_0_4330	c711
Healthy-SG_HC_OS_0249_BCR_0_3328	c712
COVID19-SG_CO_OK_00006_BCR_0_2730	c713
COVID19-SG_CO_OK_00048_BCR_0_6790	c714
COVID19-SG_CO_OK_00006_BCR_0_2157	c715
COVID19-SG_CO_OK_00037_BCR_0_2451	c716
COVID19-SG_CO_OK_00007_BCR_0_2713	c717
COVID19-SG_CO_OK_00014_0315_BCR_0_465	c718
COVID19-SG_CO_OK_00021_BCR_0_959	c719
COVID19-SG_CO_OK_00031_BCR_0_482	c720
Healthy-SG_HC_OS_0249_BCR_0_1416	c721
Healthy-SG_HC_OS_0240_BCR_0_2122	c722
COVID19-SG_CO_OK_00077_BCR_0_2765	c723
Healthy-SG_HC_OS_00272_BCR_0_1150	c724
COVID19-SG_CO_OK_00030_BCR_0_5431	c725
Healthy-SG_HC_OS_00294_BCR_0_102	c726
COVID19-SG_CO_OK_00022_BCR_0_914	c727
COVID19-SG_CO_OK_00021_BCR_0_3818	c728
COVID19-SG_CO_OK_00057_BCR_0_1860	c729
Healthy-SG_HC_OS_00217_BCR_0_3043	c730
Healthy-SG_HC_OS_00282_BCR_0_649	c731
COVID19-SG_CO_OK_00040_BCR_0_153	c732
COVID19-SG_CO_OK_00022_BCR_0_2386	c733
Healthy-SG_HC_OS_0236_BCR_0_897	c734
Healthy-SG_HC_OS_00280_BCR_0_1420	c735
COVID19-SG_CO_OK_00066_BCR_0_1295	c736
Healthy-SG_HC_OS_0199_BCR_0_481	c737
COVID19-SG_CO_OK_00070_BCR_0_1999	c738
COVID19-SG_CO_OK_00030_BCR_0_5611	c739
Healthy-SG_HC_OS_00272_BCR_0_1527	c740
Healthy-SG_HC_OS_00129_BCR_0_2498	c741
COVID19-SG_CO_OK_00080_BCR_0_34	c742
Healthy-SG_HC_OS_0240_BCR_0_485	c743
COVID19-SG_CO_OK_00009_0315_BCR_0_794	c744
COVID19-SG_CO_OK_00027_BCR_0_2842	c745
Healthy-SG_HC_OS_00272_BCR_0_1361	c746
COVID19-SG_CO_OK_00080_BCR_0_3038	c747
COVID19-SG_CO_OK_00004_BCR_0_145	c748
COVID19-SC_GC_OS_0171_BCR_0_1640	c749
Healthy-SG_HC_OS_0236_BCR_0_879	c750
Healthy-SG_HC_OS_0231_BCR_0_1030	c751
COVID19-SG_CO_OK_00040_BCR_0_2441	c752
COVID19-SG_GC_OS_0234_BCR_0_1451	c753
COVID19-SG_CO_OK_00027_BCR_0_1883	c754
Healthy-SG_HC_OS_0228_BCR_0_1053	c755
COVID19-SG_CO_OK_00052_BCR_0_1815	c756
Healthy-SG_HC_OS_0221_BCR_0_97	c757
Healthy-SG_HC_OS_00260_BCR_0_2313	c758
Healthy-SG_HC_OS_00216_BCR_0_315	c759
COVID19-SG_CO_OK_00040_BCR_0_1812	c760
COVID19-SG_CO_OK_00063_BCR_0_828	c761
COVID19-SG_CO_OK_00021_BCR_0_4975	c762
COVID19-SG_CO_OK_00006_BCR_0_3737	c763
COVID19-SG_CO_OK_00022_BCR_0_2463	c764
COVID19-SG_CO_OK_00021_BCR_0_3109	c765
COVID19-SG_CO_OK_00037_BCR_0_453	c766
COVID19-SG_CO_OK_00021_BCR_0_3880	c767
Healthy-SG_HC_OS_00264_BCR_0_457	c768
Healthy-SG_HC_OS_0199_BCR_0_85	c769
Healthy-SG_HC_OS_0229_BCR_0_280	c770
Healthy-SG_HC_OS_00216_BCR_0_382	c771
Healthy-SG_HC_OS_00259_BCR_0_63	c772
COVID19-SC_GC_OS_0171_BCR_0_248	c773
Healthy-SG_HC_OS_00292_BCR_0_460	c774
COVID19-SG_CO_OK_00021_BCR_0_1629	c775
COVID19-SG_GC_OS_0234_BCR_0_1245	c776
Healthy-SG_HC_OS_0249_BCR_0_893	c777
Healthy-SG_HC_OS_00216_BCR_0_3126	c778
COVID19-SG_CO_OK_00005_BCR_0_3105	c779
Healthy-SG_HC_OS_0219_BCR_0_992	c780
Healthy-SG_HC_OS_00129_BCR_0_1995	c781
COVID19-SG_CO_OK_00037_BCR_0_629	c782
Healthy-SG_HC_OS_00216_BCR_0_1422	c783
Healthy-SG_HC_OS_0007_BCR_0_65	c784
Healthy-SG_HC_OS_0228_BCR_0_2121	c785
Healthy-SG_HC_OS_0228_BCR_0_41	c786
COVID19-SG_CO_OK_00012_BCR_0_1617	c787
Healthy-SG_HC_OS_00260_BCR_0_1293	c788
Healthy-SG_HC_OS_00264_BCR_0_1466	c789
Healthy-SG_HC_OS_0221_BCR_0_544	c790
Healthy-SG_HC_OS_00215_BCR_0_1862	c791
COVID19-SG_CO_OK_00025_BCR_0_1179	c792
Healthy-SG_HC_OS_00129_BCR_0_104	c793
Healthy-SG_HC_OS_00296_BCR_0_303	c794
COVID19-SG_CO_OK_00007_BCR_0_2012	c795
COVID19-SG_CO_OK_00052_BCR_0_200	c796
COVID19-SG_CO_OK_00022_BCR_0_640	c797
COVID19-SG_CO_OK_00034_BCR_0_595	c798
COVID19-SG_CO_OK_00005_BCR_0_3460	c799
COVID19-SG_GC_OS_0234_BCR_0_86	c800
COVID19-SG_CO_OK_00057_BCR_0_675	c801
COVID19-SG_CO_OK_00077_BCR_0_501	c802
COVID19-SG_CO_OK_00040_BCR_0_2710	c803
Healthy-SG_HC_OS_00280_BCR_0_236	c804
COVID19-SG_CO_OK_00014_0315_BCR_0_1900	c805
COVID19-SG_CO_OK_00068_BCR_0_1385	c806
Healthy-SG_HC_OS_0005_BCR_0_593	c807
Healthy-SG_HC_OS_0249_BCR_0_2779	c808
COVID19-SG_CO_OK_00052_BCR_0_2733	c809
COVID19-SG_CO_OK_00073_BCR_0_2427	c810
COVID19-SG_CO_OK_00052_BCR_0_4232	c811
COVID19-SG_CO_OK_00060_BCR_0_560	c812
COVID19-SG_CO_OK_00026_BCR_0_1909	c813
COVID19-SG_CO_OK_00022_BCR_0_2229	c814
COVID19-SG_CO_OK_00026_BCR_0_2016	c815
Healthy-SG_HC_OS_0220_BCR_0_798	c816
Healthy-SG_HC_OS_00293_BCR_0_2390	c817
COVID19-SG_GC_OS_0234_BCR_0_949	c818
COVID19-SG_CO_OK_00060_BCR_0_460	c819
COVID19-SG_CO_OK_00077_BCR_0_2329	c820
COVID19-SG_CO_OK_00013_BCR_0_688	c821
Healthy-SG_HC_OS_00216_BCR_0_2019	c822
COVID19-SG_CO_OK_00030_BCR_0_10242	c823
Healthy-SG_HC_OS_00280_BCR_0_1109	c824
COVID19-SG_CO_OK_00004_BCR_0_899	c825
Healthy-SG_HC_OS_00264_BCR_0_1184	c826
COVID19-SC_GC_OS_0186_BCR_0_574	c827
COVID19-SG_CO_OK_00070_BCR_0_4706	c828
COVID19-SG_CO_OK_00032_BCR_0_252	c829
Healthy-SG_HC_OS_00129_BCR_0_1439	c830
COVID19-SG_CO_OK_00031_BCR_0_403	c831
COVID19-SG_CO_OK_00022_BCR_0_1420	c832
Healthy-SG_HC_OS_00296_BCR_0_792	c833
COVID19-SG_CO_OK_00027_BCR_0_224	c834
COVID19-SG_CO_OK_00021_BCR_0_3370	c835
COVID19-SG_CO_OK_00010_0315_BCR_0_4084	c836
COVID19-SG_CO_OK_00021_BCR_0_650	c837
COVID19-SG_CO_OK_00025_BCR_0_1621	c838
COVID19-SG_CO_OK_00042_BCR_0_2177	c839
COVID19-SG_CO_OK_00042_BCR_0_1483	c840
Healthy-SG_HC_OS_0249_BCR_0_1093	c841
Healthy-SG_HC_OS_00282_BCR_0_580	c842
Healthy-SG_HC_OS_00006_BCR_0_1596	c843
COVID19-SG_CO_OK_00020_BCR_0_1405	c844
Healthy-SG_HC_OS_00292_BCR_0_771	c845
Healthy-SG_HC_OS_0228_BCR_0_147	c846
COVID19-SG_CO_OK_00010_0315_BCR_0_377	c847
COVID19-SG_CO_OK_00023_BCR_0_586	c848
COVID19-SG_CO_OK_00068_BCR_0_576	c849
Healthy-SG_HC_OS_00294_BCR_0_1115	c850
COVID19-SG_CO_OK_00063_BCR_0_1916	c851
Healthy-SG_HC_OS_00129_BCR_0_2771	c852
COVID19-SG_CO_OK_00028_BCR_0_502	c853
COVID19-SG_CO_OK_00021_BCR_0_2299	c854
Healthy-SG_HC_OS_00277_BCR_0_1501	c855
COVID19-SG_CO_OK_00052_BCR_0_4251	c856
COVID19-SG_CO_OK_00072_BCR_0_1038	c857
COVID19-SG_CO_OK_00005_BCR_0_957	c858
Healthy-SG_HC_OS_0219_BCR_0_2204	c859
Healthy-SG_HC_OS_0222_BCR_0_99	c860
Healthy-SG_HC_OS_00217_BCR_0_2328	c861
Healthy-SG_HC_OS_0240_BCR_0_360	c862
Healthy-SG_HC_OS_00217_BCR_0_325	c863
Healthy-SG_HC_OS_00272_BCR_0_1280	c864
Healthy-SG_HC_OS_00265_BCR_0_2578	c865
Healthy-SG_HC_OS_00160_BCR_0_1132	c866
Healthy-SG_HC_OS_00006_BCR_0_447	c867
Healthy-SG_HC_OS_00168_BCR_0_654	c868
Healthy-SG_HC_OS_0249_BCR_0_568	c869
COVID19-SG_CO_OK_00030_BCR_0_1609	c870
COVID19-SG_CO_OK_00048_BCR_0_276	c871
COVID19-SG_CO_OK_00071_BCR_0_1331	c872
COVID19-SC_GC_OS_0171_BCR_0_1805	c873
Healthy-SG_HC_OS_0219_BCR_0_2606	c874
COVID19-SG_CO_OK_00040_BCR_0_2334	c875
Healthy-SG_HC_OS_00217_BCR_0_10	c876
COVID19-SG_CO_OK_00011_BCR_0_1423	c877
Healthy-SG_HC_OS_00218_BCR_0_2758	c878
Healthy-SG_HC_OS_0193_BCR_0_276	c879
Healthy-SG_HC_OS_0236_BCR_0_258	c880
COVID19-SG_CO_OK_00042_BCR_0_231	c881
COVID19-SG_CO_OK_00016_BCR_0_195	c882
COVID19-SG_CO_OK_00066_BCR_0_434	c883
COVID19-SG_CO_OK_00030_BCR_0_16230	c884
COVID19-SG_CO_OK_00021_BCR_0_3610	c885
COVID19-SG_CO_OK_00070_BCR_0_2388	c886
COVID19-SC_GC_OS_0235_BCR_0_958	c887
Healthy-SG_HC_OS_0007_BCR_0_1744	c888
COVID19-SG_CO_OK_00052_BCR_0_3240	c889
COVID19-SG_CO_OK_00057_BCR_0_2778	c890
Healthy-SG_HC_OS_0229_BCR_0_1156	c891
COVID19-SG_CO_OK_00074_BCR_0_1264	c892
COVID19-SG_CO_OK_00029_BCR_0_2032	c893
COVID19-SG_CO_OK_00013_BCR_0_323	c894
COVID19-SG_CO_OK_00063_BCR_0_1314	c895
Healthy-SG_HC_OS_0223_BCR_0_1075	c896
Healthy-SG_HC_OS_00216_BCR_0_2332	c897
COVID19-SG_CO_OK_00007_BCR_0_911	c898
Healthy-SG_HC_OS_0222_BCR_0_1412	c899
Healthy-SG_HC_OS_00265_BCR_0_981	c900
Healthy-SG_HC_OS_0223_BCR_0_440	c901
COVID19-SG_CO_OK_00019_BCR_0_128	c902
Healthy-SG_HC_OS_0229_BCR_0_1197	c903
COVID19-SG_CO_OK_00023_BCR_0_3751	c904
Healthy-SG_HC_OS_00266_BCR_0_107	c905
COVID19-SG_CO_OK_00077_BCR_0_2436	c906
COVID19-SG_CO_OK_00012_BCR_0_2047	c907
COVID19-SG_CO_OK_00027_BCR_0_1765	c908
COVID19-SG_CO_OK_00028_BCR_0_192	c909
COVID19-SG_CO_OK_00026_BCR_0_954	c910
Healthy-SG_HC_OS_00163_BCR_0_578	c911
COVID19-SC_GC_OS_0171_BCR_0_1239	c912
COVID19-SG_CO_OK_00070_BCR_0_4255	c913
COVID19-SG_CO_OK_00011_BCR_0_1743	c914
Healthy-SG_HC_OS_00282_BCR_0_1092	c915
COVID19-SG_CO_OK_00067_BCR_0_1680	c916
COVID19-SG_CO_OK_00015_BCR_0_585	c917
Healthy-SG_HC_OS_00266_BCR_0_430	c918
COVID19-SG_CO_OK_00070_BCR_0_145	c919
COVID19-SG_CO_OK_00040_BCR_0_1680	c920
COVID19-SG_CO_OK_00009_0315_BCR_0_518	c921
Healthy-SG_HC_OS_00216_BCR_0_2944	c922
COVID19-SG_CO_OK_00011_BCR_0_1	c923
Healthy-SG_HC_OS_00272_BCR_0_343	c924
COVID19-SG_CO_OK_00068_BCR_0_1440	c925
COVID19-SG_CO_OK_00030_BCR_0_17336	c926
COVID19-SG_CO_OK_00006_BCR_0_2070	c927
Healthy-SG_HC_OS_00293_BCR_0_1231	c928
Healthy-SG_HC_OS_00293_BCR_0_1073	c929
Healthy-SG_HC_OS_00216_BCR_0_1029	c930
Healthy-SG_HC_OS_00217_BCR_0_1182	c931
Healthy-SG_HC_OS_00216_BCR_0_920	c932
Healthy-SG_HC_OS_00216_BCR_0_907	c933
Healthy-SG_HC_OS_0220_BCR_0_1127	c934
COVID19-SG_CO_OK_00021_BCR_0_4604	c935
Healthy-SG_HC_OS_0221_BCR_0_637	c936
Healthy-SG_HC_OS_00272_BCR_0_1720	c937
Healthy-SG_HC_OS_0219_BCR_0_371	c938
COVID19-SG_CO_OK_00006_BCR_0_3624	c939
COVID19-SC_GC_OS_0235_BCR_0_1066	c940
Healthy-SG_HC_OS_00293_BCR_0_1479	c941
COVID19-SG_CO_OK_00030_BCR_0_1607	c942
Healthy-SG_HC_OS_00260_BCR_0_2053	c943
Healthy-SG_HC_OS_00296_BCR_0_2218	c944
Healthy-SG_HC_OS_00217_BCR_0_1391	c945
COVID19-SG_CO_OK_00076_BCR_0_1577	c946
COVID19-SG_CO_OK_00016_BCR_0_1763	c947
Healthy-SG_HC_OS_00006_BCR_0_1036	c948
Healthy-SG_HC_OS_0221_BCR_0_1404	c949
COVID19-SC_GC_OS_0171_BCR_0_597	c950
COVID19-SG_GC_OS_0234_BCR_0_1318	c951
COVID19-SG_CO_OK_00073_BCR_0_396	c952
Healthy-SG_HC_OS_00294_BCR_0_1282	c953
Healthy-SG_HC_OS_0229_BCR_0_822	c954
COVID19-SG_CO_OK_00017_BCR_0_242	c955
Healthy-SG_HC_OS_00282_BCR_0_3923	c956
Healthy-SG_HC_OS_00163_BCR_0_526	c957
Healthy-SG_HC_OS_00160_BCR_0_656	c958
COVID19-SG_CO_OK_00037_BCR_0_939	c959
COVID19-SG_CO_OK_00022_BCR_0_340	c960
Healthy-SG_HC_OS_0240_BCR_0_196	c961
COVID19-SG_CO_OK_00026_BCR_0_1607	c962
COVID19-SG_CO_OK_00037_BCR_0_197	c963
COVID19-SG_CO_OK_00025_BCR_0_629	c964
Healthy-SG_HC_OS_00294_BCR_0_1253	c965
Healthy-SG_HC_OS_0223_BCR_0_902	c966
COVID19-SG_CO_OK_00040_BCR_0_1893	c967
Healthy-SG_HC_OS_0229_BCR_0_701	c968
Healthy-SG_HC_OS_0249_BCR_0_2308	c969
Healthy-SG_HC_OS_00265_BCR_0_1813	c970
Healthy-SG_HC_OS_00217_BCR_0_3732	c971
COVID19-SG_CO_OK_00022_BCR_0_1456	c972
COVID19-SG_CO_OK_00073_BCR_0_1044	c973
Healthy-SG_HC_OS_00218_BCR_0_2799	c974
COVID19-SG_CO_OK_00072_BCR_0_97	c975
Healthy-SG_HC_OS_00006_BCR_0_1248	c976
COVID19-SG_CO_OK_00005_BCR_0_2883	c977
COVID19-SG_CO_OK_00080_BCR_0_854	c978
COVID19-SG_CO_OK_00074_BCR_0_627	c979
Healthy-SG_HC_OS_0228_BCR_0_419	c980
COVID19-SG_CO_OK_00073_BCR_0_790	c981
Healthy-SG_HC_OS_00129_BCR_0_1397	c982
Healthy-SG_HC_OS_0240_BCR_0_641	c983
COVID19-SG_CO_OK_00021_BCR_0_4495	c984
COVID19-SG_CO_OK_00077_BCR_0_1512	c985
COVID19-SG_CO_OK_00076_BCR_0_1861	c986
COVID19-SG_CO_OK_00009_0315_BCR_0_1504	c987
Healthy-SG_HC_OS_00280_BCR_0_2537	c988
COVID19-SG_CO_OK_00021_BCR_0_1122	c989
COVID19-SG_CO_OK_00042_BCR_0_1997	c990
COVID19-SG_CO_OK_00021_BCR_0_3476	c991
Healthy-SG_HC_OS_00006_BCR_0_507	c992
Healthy-SG_HC_OS_00266_BCR_0_1223	c993
Healthy-SG_HC_OS_0249_BCR_0_1438	c994
Healthy-SG_HC_OS_0194_BCR_0_901	c995
COVID19-SG_CO_OK_00071_BCR_0_502	c996
COVID19-SG_CO_OK_00042_BCR_0_1585	c997
COVID19-SG_CO_OK_00023_BCR_0_4109	c998
Healthy-SG_HC_OS_00266_BCR_0_13	c999
COVID19-SG_CO_OK_00033_BCR_0_2141	c1000
COVID19-SG_CO_OK_00080_BCR_0_1441	c1001
Healthy-SG_HC_OS_00259_BCR_0_1	c1002
COVID19-SG_CO_OK_00012_BCR_0_79	c1003
Healthy-SG_HC_OS_0249_BCR_0_2245	c1004
Healthy-SG_HC_OS_00006_BCR_0_47	c1005
COVID19-SG_CO_OK_00070_BCR_0_3755	c1006
COVID19-SG_CO_OK_00052_BCR_0_1022	c1007
COVID19-SG_CO_OK_00040_BCR_0_1494	c1008
Healthy-SG_HC_OS_00129_BCR_0_2904	c1009
COVID19-SG_CO_OK_00040_BCR_0_1081	c1010
Healthy-SG_HC_OS_00296_BCR_0_1430	c1011
Healthy-SG_HC_OS_00264_BCR_0_1334	c1012
Healthy-SG_HC_OS_00264_BCR_0_326	c1013
COVID19-SG_CO_OK_00073_BCR_0_788	c1014
COVID19-SG_CO_OK_00040_BCR_0_1010	c1015
COVID19-SG_CO_OK_00025_BCR_0_2683	c1016
COVID19-SG_CO_OK_00026_BCR_0_1364	c1017
Healthy-SG_HC_OS_0221_BCR_0_1508	c1018
COVID19-SG_CO_OK_00030_BCR_0_3319	c1019
Healthy-SG_HC_OS_0007_BCR_0_718	c1020
Healthy-SG_HC_OS_00216_BCR_0_3295	c1021
Healthy-SG_HC_OS_00272_BCR_0_973	c1022
Healthy-SG_HC_OS_00217_BCR_0_1286	c1023
COVID19-SG_CO_OK_00025_BCR_0_917	c1024
COVID19-SG_CO_OK_00028_BCR_0_1303	c1025
COVID19-SG_CO_OK_00057_BCR_0_2798	c1026
COVID19-SG_CO_OK_00005_BCR_0_658	c1027
Healthy-SG_HC_OS_00282_BCR_0_2670	c1028
Healthy-SG_HC_OS_0007_BCR_0_751	c1029
COVID19-SG_CO_OK_00025_BCR_0_2275	c1030
COVID19-SG_CO_OK_00033_BCR_0_343	c1031
Healthy-SG_HC_OS_0223_BCR_0_78	c1032
Healthy-SG_HC_OS_0222_BCR_0_173	c1033
COVID19-SG_CO_OK_00072_BCR_0_643	c1034
COVID19-SG_CO_OK_00023_BCR_0_1891	c1035
Healthy-SG_HC_OS_00293_BCR_0_2410	c1036
COVID19-SG_CO_OK_00016_BCR_0_1677	c1037
Healthy-SG_HC_OS_00163_BCR_0_723	c1038
Healthy-SG_HC_OS_0221_BCR_0_190	c1039
Healthy-SG_HC_OS_0229_BCR_0_498	c1040
COVID19-SG_CO_OK_00008_BCR_0_534	c1041
Healthy-SG_HC_OS_0230_BCR_0_566	c1042
COVID19-SG_CO_OK_00033_BCR_0_1738	c1043
Healthy-SG_HC_OS_0219_BCR_0_2703	c1044
COVID19-SG_CO_OK_00068_BCR_0_1549	c1045
COVID19-SC_GC_OS_0235_BCR_0_1392	c1046
Healthy-SG_HC_OS_0249_BCR_0_656	c1047
COVID19-SG_CO_OK_00068_BCR_0_1537	c1048
COVID19-SG_CO_OK_00052_BCR_0_2747	c1049
COVID19-SG_GC_OS_0182_BCR_0_220	c1050
Healthy-SG_HC_OS_00282_BCR_0_3482	c1051
Healthy-SG_HC_OS_00282_BCR_0_1856	c1052
Healthy-SG_HC_OS_0228_BCR_0_952	c1053
Healthy-SG_HC_OS_0220_BCR_0_397	c1054
COVID19-SG_CO_OK_00070_BCR_0_2974	c1055
COVID19-SG_CO_OK_00027_BCR_0_4394	c1056
Healthy-SG_HC_OS_0231_BCR_0_67	c1057
Healthy-SG_HC_OS_0005_BCR_0_2288	c1058
COVID19-SG_CO_OK_00063_BCR_0_801	c1059
COVID19-SG_CO_OK_00034_BCR_0_755	c1060
COVID19-SG_CO_OK_00021_BCR_0_1221	c1061
COVID19-SG_CO_OK_00071_BCR_0_1858	c1062
Healthy-SG_HC_OS_00265_BCR_0_1764	c1063
Healthy-SG_HC_OS_0194_BCR_0_675	c1064
Healthy-SG_HC_OS_0231_BCR_0_1116	c1065
Healthy-SG_HC_OS_0193_BCR_0_813	c1066
COVID19-SG_CO_OK_00063_BCR_0_3360	c1067
COVID19-SG_CO_OK_00042_BCR_0_2157	c1068
Healthy-SG_HC_OS_0249_BCR_0_1636	c1069
Healthy-SG_HC_OS_00282_BCR_0_966	c1070
Healthy-SG_HC_OS_00272_BCR_0_1588	c1071
COVID19-SG_CO_OK_00030_BCR_0_1069	c1072
COVID19-SG_CO_OK_00071_BCR_0_3369	c1073
COVID19-SG_CO_OK_00022_BCR_0_2342	c1074
COVID19-SG_CO_OK_00005_BCR_0_2567	c1075
COVID19-SG_CO_OK_00042_BCR_0_645	c1076
COVID19-SG_CO_OK_00070_BCR_0_1920	c1077
COVID19-SG_CO_OK_00004_BCR_0_484	c1078
COVID19-SG_CO_OK_00080_BCR_0_3227	c1079
Healthy-SG_HC_OS_00266_BCR_0_1378	c1080
Healthy-SG_HC_OS_00296_BCR_0_2015	c1081
Healthy-SG_HC_OS_00293_BCR_0_227	c1082
COVID19-SG_CO_OK_00021_BCR_0_4937	c1083
COVID19-SG_CO_OK_00049_BCR_0_681	c1084
COVID19-SG_CO_OK_00027_BCR_0_206	c1085
COVID19-SG_GC_OS_0182_BCR_0_4	c1086
COVID19-SG_CO_OK_00070_BCR_0_2838	c1087
COVID19-SG_CO_OK_00018_BCR_1_2766	c1088
COVID19-SG_CO_OK_00057_BCR_0_2284	c1089
Healthy-SG_HC_OS_00265_BCR_0_2450	c1090
COVID19-SG_CO_OK_00018_BCR_1_768	c1091
COVID19-SG_CO_OK_00043_BCR_0_1753	c1092
Healthy-SG_HC_OS_00282_BCR_0_3937	c1093
COVID19-SG_CO_OK_00073_BCR_0_1104	c1094
COVID19-SG_CO_OK_00010_0315_BCR_0_3463	c1095
Healthy-SG_HC_OS_00006_BCR_0_669	c1096
COVID19-SG_CO_OK_00073_BCR_0_120	c1097
Healthy-SG_HC_OS_00294_BCR_0_483	c1098
Healthy-SG_HC_OS_0007_BCR_0_2328	c1099
COVID19-SG_CO_OK_00052_BCR_0_2148	c1100
COVID19-SG_CO_OK_00043_BCR_0_2069	c1101
COVID19-SG_CO_OK_00040_BCR_0_1859	c1102
COVID19-SC_GC_OS_0171_BCR_0_1246	c1103
Healthy-SG_HC_OS_0232_BCR_0_539	c1104
COVID19-SG_CO_OK_00063_BCR_0_3725	c1105
COVID19-SG_CO_OK_00068_BCR_0_2785	c1106
COVID19-SG_CO_OK_00010_0315_BCR_0_4025	c1107
Healthy-SG_HC_OS_00217_BCR_0_1815	c1108
Healthy-SG_HC_OS_00217_BCR_0_1365	c1109
Healthy-SG_HC_OS_00294_BCR_0_608	c1110
COVID19-SG_CO_OK_00063_BCR_0_1465	c1111
COVID19-SG_CO_OK_00077_BCR_0_2003	c1112
Healthy-SG_HC_OS_0224_BCR_0_1109	c1113
Healthy-SG_HC_OS_0007_BCR_0_1408	c1114
COVID19-SG_CO_OK_00030_BCR_0_9830	c1115
Healthy-SG_HC_OS_00006_BCR_0_1688	c1116
Healthy-SG_HC_OS_0231_BCR_0_241	c1117
COVID19-SG_CO_OK_00070_BCR_0_3978	c1118
COVID19-SG_CO_OK_00005_BCR_0_803	c1119
COVID19-SC_GC_OS_0235_BCR_0_193	c1120
COVID19-SG_CO_OK_00027_BCR_0_777	c1121
COVID19-SG_CO_OK_00067_BCR_0_713	c1122
Healthy-SG_HC_OS_00260_BCR_0_3404	c1123
COVID19-SG_CO_OK_00030_BCR_0_15587	c1124
Healthy-SG_HC_OS_00282_BCR_0_1673	c1125
Healthy-SG_HC_OS_00260_BCR_0_1403	c1126
COVID19-SG_CO_OK_00027_BCR_0_550	c1127
COVID19-SG_CO_OK_00077_BCR_0_816	c1128
COVID19-SG_CO_OK_00076_BCR_0_1599	c1129
COVID19-SG_CO_OK_00006_BCR_0_3987	c1130
COVID19-SG_CO_OK_00043_BCR_0_547	c1131
Healthy-SG_HC_OS_00293_BCR_0_1379	c1132
Healthy-SG_HC_OS_00218_BCR_0_2435	c1133
COVID19-SG_CO_OK_00037_BCR_0_1658	c1134
Healthy-SG_HC_OS_00295_BCR_0_523	c1135
Healthy-SG_HC_OS_00215_BCR_0_568	c1136
COVID19-SG_CO_OK_00008_BCR_0_822	c1137
Healthy-SG_HC_OS_00293_BCR_0_2040	c1138
COVID19-SG_CO_OK_00021_BCR_0_324	c1139
COVID19-SG_CO_OK_00037_BCR_0_1443	c1140
Healthy-SG_HC_OS_00295_BCR_0_654	c1141
COVID19-SG_CO_OK_00052_BCR_0_1525	c1142
COVID19-SG_CO_OK_00016_BCR_0_2064	c1143
COVID19-SG_CO_OK_00042_BCR_0_2174	c1144
COVID19-SG_CO_OK_00021_BCR_0_2376	c1145
COVID19-SG_CO_OK_00021_BCR_0_893	c1146
COVID19-SG_CO_OK_00057_BCR_0_1831	c1147
Healthy-SG_HC_OS_0231_BCR_0_1124	c1148
COVID19-SG_CO_OK_00068_BCR_0_1655	c1149
COVID19-SG_CO_OK_00048_BCR_0_1428	c1150
Healthy-SG_HC_OS_00160_BCR_0_2435	c1151
Healthy-SG_HC_OS_00259_BCR_0_80	c1152
Healthy-SG_HC_OS_00216_BCR_0_320	c1153
COVID19-SG_GC_OS_0234_BCR_0_825	c1154
COVID19-SG_CO_OK_00026_BCR_0_1568	c1155
Healthy-SG_HC_OS_00265_BCR_0_523	c1156
COVID19-SG_CO_OK_00013_BCR_0_537	c1157
COVID19-SG_CO_OK_00072_BCR_0_73	c1158
Healthy-SG_HC_OS_0240_BCR_0_870	c1159
COVID19-SG_CO_OK_00011_BCR_0_681	c1160
COVID19-SG_CO_OK_00006_BCR_0_2986	c1161
COVID19-SG_CO_OK_00033_BCR_0_2543	c1162
COVID19-SG_CO_OK_00080_BCR_0_195	c1163
Healthy-SG_HC_OS_00006_BCR_0_1168	c1164
COVID19-SG_CO_OK_00040_BCR_0_1144	c1165
COVID19-SG_CO_OK_00021_BCR_0_4983	c1166
COVID19-SG_CO_OK_00013_BCR_0_1120	c1167
COVID19-SG_CO_OK_00023_BCR_0_1151	c1168
Healthy-SG_HC_OS_0225_BCR_0_188	c1169
COVID19-SG_GC_OS_0234_BCR_0_2773	c1170
COVID19-SG_CO_OK_00063_BCR_0_2285	c1171
COVID19-SG_CO_OK_00016_BCR_0_1447	c1172
COVID19-SG_GC_OS_0234_BCR_0_363	c1173
COVID19-SG_CO_OK_00018_BCR_1_3232	c1174
Healthy-SG_HC_OS_0249_BCR_0_207	c1175
Healthy-SG_HC_OS_00218_BCR_0_3186	c1176
Healthy-SG_HC_OS_0249_BCR_0_1915	c1177
COVID19-SG_CO_OK_00077_BCR_0_2371	c1178
Healthy-SG_HC_OS_00282_BCR_0_3390	c1179
COVID19-SG_CO_OK_00077_BCR_0_1697	c1180
Healthy-SG_HC_OS_00277_BCR_0_756	c1181
COVID19-SG_CO_OK_00032_BCR_0_1105	c1182
Healthy-SG_HC_OS_00277_BCR_0_636	c1183
COVID19-SG_CO_OK_00020_BCR_0_1493	c1184
Healthy-SG_HC_OS_0221_BCR_0_1234	c1185
COVID19-SG_CO_OK_00063_BCR_0_1327	c1186
COVID19-SG_CO_OK_00007_BCR_0_1271	c1187
COVID19-SG_CO_OK_00068_BCR_0_592	c1188
Healthy-SG_HC_OS_0229_BCR_0_1116	c1189
COVID19-SG_CO_OK_00077_BCR_0_2753	c1190
COVID19-SG_CO_OK_00052_BCR_0_3034	c1191
COVID19-SG_CO_OK_00052_BCR_0_2377	c1192
Healthy-SG_HC_OS_0249_BCR_0_1813	c1193
Healthy-SG_HC_OS_0221_BCR_0_1372	c1194
Healthy-SG_HC_OS_00217_BCR_0_83	c1195
COVID19-SG_CO_OK_00057_BCR_0_1549	c1196
COVID19-SG_CO_OK_00027_BCR_0_3034	c1197
COVID19-SG_CO_OK_00077_BCR_0_419	c1198
COVID19-SG_CO_OK_00006_BCR_0_4034	c1199
Healthy-SG_HC_OS_00217_BCR_0_35	c1200
Healthy-SG_HC_OS_00218_BCR_0_1048	c1201
COVID19-SG_CO_OK_00023_BCR_0_838	c1202
Healthy-SG_HC_OS_00280_BCR_0_423	c1203
Healthy-SG_HC_OS_0194_BCR_0_644	c1204
COVID19-SG_GC_OS_0234_BCR_0_686	c1205
Healthy-SG_HC_OS_00129_BCR_0_66	c1206
COVID19-SC_GC_OS_0171_BCR_0_240	c1207
Healthy-SG_HC_OS_0236_BCR_0_1258	c1208
Healthy-SG_HC_OS_00160_BCR_0_1254	c1209
Healthy-SG_HC_OS_0249_BCR_0_323	c1210
COVID19-SC_GC_OS_0186_BCR_0_1166	c1211
Healthy-SG_HC_OS_00160_BCR_0_1905	c1212
COVID19-SG_CO_OK_00037_BCR_0_2815	c1213
COVID19-SG_CO_OK_00037_BCR_0_2777	c1214
Healthy-SG_HC_OS_00260_BCR_0_410	c1215
COVID19-SG_CO_OK_00042_BCR_0_1601	c1216
Healthy-SG_HC_OS_0228_BCR_0_2331	c1217
Healthy-SG_HC_OS_0240_BCR_0_835	c1218
COVID19-SG_CO_OK_00018_BCR_1_3097	c1219
Healthy-SG_HC_OS_00260_BCR_0_3429	c1220
Healthy-SG_HC_OS_0240_BCR_0_1195	c1221
COVID19-SG_CO_OK_00022_BCR_0_299	c1222
Healthy-SG_HC_OS_0229_BCR_0_869	c1223
Healthy-SG_HC_OS_0219_BCR_0_1684	c1224
Healthy-SG_HC_OS_00260_BCR_0_3130	c1225
COVID19-SG_CO_OK_00071_BCR_0_2972	c1226
COVID19-SG_CO_OK_00067_BCR_0_921	c1227
COVID19-SG_CO_OK_00066_BCR_0_123	c1228
COVID19-SG_CO_OK_00005_BCR_0_1639	c1229
COVID19-SG_CO_OK_00022_BCR_0_1	c1230
COVID19-SG_CO_OK_00030_BCR_0_4248	c1231
Healthy-SG_HC_OS_00295_BCR_0_430	c1232
COVID19-SG_GC_OS_0234_BCR_0_156	c1233
COVID19-SG_CO_OK_00048_BCR_0_4569	c1234
Healthy-SG_HC_OS_0240_BCR_0_1326	c1235
COVID19-SG_CO_OK_00060_BCR_0_2170	c1236
Healthy-SG_HC_OS_0005_BCR_0_244	c1237
COVID19-SG_CO_OK_00019_BCR_0_700	c1238
COVID19-SG_CO_OK_00005_BCR_0_2864	c1239
COVID19-SG_CO_OK_00027_BCR_0_2031	c1240
COVID19-SG_CO_OK_00028_BCR_0_916	c1241
COVID19-SG_CO_OK_00073_BCR_0_2010	c1242
Healthy-SG_HC_OS_0005_BCR_0_994	c1243
COVID19-SG_CO_OK_00063_BCR_0_2597	c1244
COVID19-SG_CO_OK_00023_BCR_0_3992	c1245
Healthy-SG_HC_OS_00006_BCR_0_875	c1246
COVID19-SG_CO_OK_00040_BCR_0_207	c1247
Healthy-SG_HC_OS_00294_BCR_0_1040	c1248
COVID19-SG_CO_OK_00073_BCR_0_3039	c1249
Healthy-SG_HC_OS_00265_BCR_0_560	c1250
Healthy-SG_HC_OS_0224_BCR_0_1230	c1251
Healthy-SG_HC_OS_0007_BCR_0_744	c1252
Healthy-SG_HC_OS_0224_BCR_0_1279	c1253
Healthy-SG_HC_OS_0249_BCR_0_3464	c1254
Healthy-SG_HC_OS_00129_BCR_0_1231	c1255
COVID19-SG_CO_OK_00023_BCR_0_4191	c1256
Healthy-SG_HC_OS_0228_BCR_0_410	c1257
Healthy-SG_HC_OS_00265_BCR_0_3272	c1258
Healthy-SG_HC_OS_00265_BCR_0_462	c1259
Healthy-SG_HC_OS_00293_BCR_0_594	c1260
Healthy-SG_HC_OS_00129_BCR_0_3042	c1261
COVID19-SG_CO_OK_00021_BCR_0_4376	c1262
COVID19-SG_CO_OK_00073_BCR_0_859	c1263
Healthy-SG_HC_OS_00265_BCR_0_517	c1264
Healthy-SG_HC_OS_0007_BCR_0_691	c1265
Healthy-SG_HC_OS_00163_BCR_0_546	c1266
COVID19-SG_CO_OK_00027_BCR_0_4537	c1267
COVID19-SG_CO_OK_00042_BCR_0_714	c1268
Healthy-SG_HC_OS_00216_BCR_0_128	c1269
COVID19-SC_GC_OS_0186_BCR_0_43	c1270
COVID19-SG_CO_OK_00034_BCR_0_1126	c1271
Healthy-SG_HC_OS_0249_BCR_0_1402	c1272
COVID19-SG_CO_OK_00014_0315_BCR_0_143	c1273
COVID19-SG_CO_OK_00030_BCR_0_15474	c1274
COVID19-SG_CO_OK_00042_BCR_0_659	c1275
Healthy-SG_HC_OS_00216_BCR_0_172	c1276
COVID19-SG_CO_OK_00043_BCR_0_1126	c1277
Healthy-SG_HC_OS_00259_BCR_0_969	c1278
Healthy-SG_HC_OS_00259_BCR_0_1460	c1279
COVID19-SG_CO_OK_00052_BCR_0_2062	c1280
Healthy-SG_HC_OS_00216_BCR_0_2814	c1281
COVID19-SG_CO_OK_00033_BCR_0_337	c1282
COVID19-SG_CO_OK_00023_BCR_0_1211	c1283
Healthy-SG_HC_OS_00216_BCR_0_3280	c1284
COVID19-SG_CO_OK_00023_BCR_0_1229	c1285
Healthy-SG_HC_OS_00216_BCR_0_820	c1286
COVID19-SG_CO_OK_00021_BCR_0_2884	c1287
COVID19-SG_CO_OK_00057_BCR_0_320	c1288
Healthy-SG_HC_OS_00272_BCR_0_609	c1289
COVID19-SG_CO_OK_00057_BCR_0_1706	c1290
Healthy-SG_HC_OS_00292_BCR_0_394	c1291
COVID19-SG_CO_OK_00052_BCR_0_2146	c1292
Healthy-SG_HC_OS_0236_BCR_0_1391	c1293
COVID19-SG_CO_OK_00057_BCR_0_2951	c1294
Healthy-SG_HC_OS_0219_BCR_0_2060	c1295
Healthy-SG_HC_OS_00277_BCR_0_1172	c1296
COVID19-SG_CO_OK_00080_BCR_0_129	c1297
COVID19-SG_CO_OK_00043_BCR_0_1365	c1298
COVID19-SG_CO_OK_00012_BCR_0_2114	c1299
Healthy-SG_HC_OS_00168_BCR_0_1398	c1300
COVID19-SG_CO_OK_00016_BCR_0_2012	c1301
COVID19-SG_CO_OK_00022_BCR_0_605	c1302
COVID19-SG_CO_OK_00080_BCR_0_955	c1303
Healthy-SG_HC_OS_00218_BCR_0_769	c1304
COVID19-SG_CO_OK_00012_BCR_0_240	c1305
COVID19-SG_CO_OK_00080_BCR_0_3537	c1306
COVID19-SG_CO_OK_00027_BCR_0_4221	c1307
Healthy-SG_HC_OS_00215_BCR_0_1280	c1308
COVID19-SG_CO_OK_00076_BCR_0_2058	c1309
COVID19-SG_CO_OK_00052_BCR_0_3126	c1310
Healthy-SG_HC_OS_0231_BCR_0_723	c1311
COVID19-SG_CO_OK_00080_BCR_0_475	c1312
Healthy-SG_HC_OS_00272_BCR_0_1481	c1313
Healthy-SG_HC_OS_00217_BCR_0_1620	c1314
Healthy-SG_HC_OS_00260_BCR_0_1726	c1315
COVID19-SG_CO_OK_00068_BCR_0_159	c1316
COVID19-SG_CO_OK_00021_BCR_0_1199	c1317
Healthy-SG_HC_OS_00259_BCR_0_145	c1318
Healthy-SG_HC_OS_00265_BCR_0_1601	c1319
Healthy-SG_HC_OS_00272_BCR_0_752	c1320
Healthy-SG_HC_OS_00259_BCR_0_1017	c1321
COVID19-SG_CO_OK_00005_BCR_0_2655	c1322
COVID19-SG_CO_OK_00027_BCR_0_2445	c1323
COVID19-SG_CO_OK_00028_BCR_0_42	c1324
COVID19-SG_CO_OK_00030_BCR_0_11284	c1325
COVID19-SG_CO_OK_00023_BCR_0_837	c1326
Healthy-SG_HC_OS_00282_BCR_0_3496	c1327
COVID19-SG_CO_OK_00006_BCR_0_1598	c1328
COVID19-SG_CO_OK_00005_BCR_0_1790	c1329
COVID19-SG_CO_OK_00030_BCR_0_6092	c1330
COVID19-SG_CO_OK_00025_BCR_0_1440	c1331
COVID19-SG_CO_OK_00023_BCR_0_3404	c1332
Healthy-SG_HC_OS_00280_BCR_0_809	c1333
Healthy-SG_HC_OS_0219_BCR_0_2882	c1334
Healthy-SG_HC_OS_0219_BCR_0_361	c1335
COVID19-SG_CO_OK_00027_BCR_0_2364	c1336
COVID19-SG_CO_OK_00027_BCR_0_4476	c1337
Healthy-SG_HC_OS_00282_BCR_0_2573	c1338
COVID19-SG_CO_OK_00063_BCR_0_2828	c1339
COVID19-SG_CO_OK_00006_BCR_0_2604	c1340
Healthy-SG_HC_OS_00218_BCR_0_1878	c1341
Healthy-SG_HC_OS_00282_BCR_0_274	c1342
COVID19-SG_CO_OK_00029_BCR_0_887	c1343
Healthy-SG_HC_OS_00280_BCR_0_933	c1344
Healthy-SG_HC_OS_0220_BCR_0_738	c1345
Healthy-SG_HC_OS_0240_BCR_0_689	c1346
Healthy-SG_HC_OS_00129_BCR_0_1084	c1347
COVID19-SG_CO_OK_00007_BCR_0_2484	c1348
COVID19-SG_CO_OK_00040_BCR_0_2051	c1349
COVID19-SG_CO_OK_00021_BCR_0_4104	c1350
COVID19-SG_CO_OK_00073_BCR_0_1915	c1351
COVID19-SG_CO_OK_00025_BCR_0_2041	c1352
Healthy-SG_HC_OS_00294_BCR_0_1269	c1353
Healthy-SG_HC_OS_0005_BCR_0_2614	c1354
COVID19-SG_CO_OK_00073_BCR_0_2249	c1355
Healthy-SG_HC_OS_00129_BCR_0_1272	c1356
COVID19-SG_CO_OK_00011_BCR_0_1336	c1357
Healthy-SG_HC_OS_0221_BCR_0_226	c1358
COVID19-SG_CO_OK_00040_BCR_0_2734	c1359
COVID19-SG_CO_OK_00073_BCR_0_2546	c1360
COVID19-SG_CO_OK_00011_BCR_0_1793	c1361
Healthy-SG_HC_OS_00006_BCR_0_226	c1362
COVID19-SG_CO_OK_00011_BCR_0_349	c1363
COVID19-SG_CO_OK_00073_BCR_0_592	c1364
COVID19-SG_CO_OK_00031_BCR_0_702	c1365
COVID19-SC_GC_OS_0171_BCR_0_334	c1366
COVID19-SG_CO_OK_00011_BCR_0_1348	c1367
COVID19-SG_CO_OK_00073_BCR_0_1210	c1368
COVID19-SG_CO_OK_00070_BCR_0_2870	c1369
COVID19-SG_CO_OK_00021_BCR_0_1708	c1370
COVID19-SG_CO_OK_00008_BCR_0_1578	c1371
COVID19-SG_CO_OK_00033_BCR_0_495	c1372
COVID19-SG_CO_OK_00070_BCR_0_45	c1373
Healthy-SG_HC_OS_0236_BCR_0_722	c1374
Healthy-SG_HC_OS_00216_BCR_0_1386	c1375
Healthy-SG_HC_OS_00293_BCR_0_1332	c1376
COVID19-SG_CO_OK_00034_BCR_0_154	c1377
COVID19-SG_CO_OK_00033_BCR_0_2599	c1378
COVID19-SG_CO_OK_00071_BCR_0_1586	c1379
Healthy-SG_HC_OS_00215_BCR_0_391	c1380
COVID19-SG_CO_OK_00071_BCR_0_2951	c1381
COVID19-SC_GC_OS_0186_BCR_0_1360	c1382
Healthy-SG_HC_OS_00293_BCR_0_2322	c1383
COVID19-SG_CO_OK_00052_BCR_0_120	c1384
COVID19-SG_CO_OK_00071_BCR_0_3260	c1385
Healthy-SG_HC_OS_00160_BCR_0_345	c1386
COVID19-SG_CO_OK_00060_BCR_0_2480	c1387
COVID19-SG_CO_OK_00016_BCR_0_681	c1388
Healthy-SG_HC_OS_00296_BCR_0_651	c1389
COVID19-SG_CO_OK_00049_BCR_0_995	c1390
COVID19-SG_CO_OK_00037_BCR_0_653	c1391
Healthy-SG_HC_OS_0231_BCR_0_408	c1392
COVID19-SG_CO_OK_00025_BCR_0_924	c1393
COVID19-SG_CO_OK_00052_BCR_0_2293	c1394
COVID19-SG_CO_OK_00025_BCR_0_311	c1395
COVID19-SG_CO_OK_00043_BCR_0_1525	c1396
COVID19-SG_CO_OK_00017_BCR_0_385	c1397
COVID19-SG_CO_OK_00042_BCR_0_2170	c1398
Healthy-SG_HC_OS_00295_BCR_0_781	c1399
COVID19-SG_CO_OK_00014_0315_BCR_0_1307	c1400
COVID19-SG_CO_OK_00022_BCR_0_1264	c1401
COVID19-SG_GC_OS_0234_BCR_0_2840	c1402
COVID19-SG_CO_OK_00025_BCR_0_4027	c1403
COVID19-SG_CO_OK_00021_BCR_0_4724	c1404
COVID19-SG_CO_OK_00013_BCR_0_1396	c1405
COVID19-SG_CO_OK_00077_BCR_0_2698	c1406
Healthy-SG_HC_OS_00296_BCR_0_1891	c1407
COVID19-SG_CO_OK_00037_BCR_0_1777	c1408
Healthy-SG_HC_OS_0225_BCR_0_276	c1409
COVID19-SG_CO_OK_00067_BCR_0_937	c1410
Healthy-SG_HC_OS_0225_BCR_0_238	c1411
Healthy-SG_HC_OS_00160_BCR_0_984	c1412
COVID19-SG_CO_OK_00037_BCR_0_1733	c1413
COVID19-SG_CO_OK_00037_BCR_0_1966	c1414
Healthy-SG_HC_OS_00293_BCR_0_2408	c1415
COVID19-SG_CO_OK_00013_BCR_0_1583	c1416
Healthy-SG_HC_OS_0219_BCR_0_1966	c1417
COVID19-SG_CO_OK_00037_BCR_0_224	c1418
Healthy-SG_HC_OS_00160_BCR_0_2582	c1419
COVID19-SG_CO_OK_00030_BCR_0_10603	c1420
COVID19-SG_CO_OK_00071_BCR_0_377	c1421
COVID19-SG_CO_OK_00060_BCR_0_268	c1422
COVID19-SG_CO_OK_00005_BCR_0_866	c1423
Healthy-SG_HC_OS_00282_BCR_0_1361	c1424
COVID19-SG_CO_OK_00076_BCR_0_98	c1425
COVID19-SG_CO_OK_00071_BCR_0_2667	c1426
Healthy-SG_HC_OS_00168_BCR_0_277	c1427
Healthy-SG_HC_OS_00168_BCR_0_1330	c1428
COVID19-SG_CO_OK_00057_BCR_0_2686	c1429
COVID19-SG_CO_OK_00021_BCR_0_2055	c1430
Healthy-SG_HC_OS_0249_BCR_0_969	c1431
COVID19-SG_CO_OK_00013_BCR_0_799	c1432
Healthy-SG_HC_OS_00260_BCR_0_1189	c1433
COVID19-SG_CO_OK_00034_BCR_0_1053	c1434
Healthy-SG_HC_OS_00296_BCR_0_2225	c1435
COVID19-SG_CO_OK_00034_BCR_0_1092	c1436
COVID19-SG_CO_OK_00030_BCR_0_14382	c1437
Healthy-SG_HC_OS_00280_BCR_0_1199	c1438
Healthy-SG_HC_OS_0232_BCR_0_733	c1439
COVID19-SG_CO_OK_00068_BCR_0_1596	c1440
Healthy-SG_HC_OS_00277_BCR_0_2129	c1441
Healthy-SG_HC_OS_00215_BCR_0_689	c1442
Healthy-SG_HC_OS_0229_BCR_0_910	c1443
COVID19-SG_CO_OK_00077_BCR_0_415	c1444
COVID19-SG_CO_OK_00018_BCR_1_2166	c1445
COVID19-SG_CO_OK_00025_BCR_0_3871	c1446
COVID19-SG_CO_OK_00030_BCR_0_13476	c1447
COVID19-SG_CO_OK_00034_BCR_0_860	c1448
Healthy-SG_HC_OS_0231_BCR_0_6	c1449
Healthy-SG_HC_OS_00168_BCR_0_994	c1450
COVID19-SG_CO_OK_00057_BCR_0_2108	c1451
Healthy-SG_HC_OS_00260_BCR_0_2769	c1452
Healthy-SG_HC_OS_0228_BCR_0_233	c1453
COVID19-SG_CO_OK_00037_BCR_0_329	c1454
COVID19-SG_CO_OK_00063_BCR_0_2276	c1455
COVID19-SC_GC_OS_0171_BCR_0_1581	c1456
COVID19-SG_CO_OK_00022_BCR_0_1936	c1457
COVID19-SG_CO_OK_00022_BCR_0_1920	c1458
Healthy-SG_HC_OS_0231_BCR_0_1216	c1459
COVID19-SG_CO_OK_00076_BCR_0_1607	c1460
COVID19-SG_CO_OK_00073_BCR_0_2307	c1461
Healthy-SG_HC_OS_00266_BCR_0_417	c1462
Healthy-SG_HC_OS_00295_BCR_0_354	c1463
Healthy-SG_HC_OS_0005_BCR_0_2237	c1464
COVID19-SG_CO_OK_00022_BCR_0_1785	c1465
Healthy-SG_HC_OS_00266_BCR_0_1652	c1466
COVID19-SG_CO_OK_00021_BCR_0_4205	c1467
Healthy-SG_HC_OS_0228_BCR_0_934	c1468
COVID19-SG_GC_OS_0234_BCR_0_2354	c1469
Healthy-SG_HC_OS_00006_BCR_0_999	c1470
COVID19-SC_GC_OS_0235_BCR_0_761	c1471
COVID19-SG_GC_OS_0234_BCR_0_455	c1472
Healthy-SG_HC_OS_0224_BCR_0_1456	c1473
COVID19-SG_CO_OK_00022_BCR_0_1454	c1474
COVID19-SG_CO_OK_00011_BCR_0_846	c1475
Healthy-SG_HC_OS_00280_BCR_0_2490	c1476
Healthy-SG_HC_OS_0194_BCR_0_1000	c1477
Healthy-SG_HC_OS_0231_BCR_0_41	c1478
Healthy-SG_HC_OS_0007_BCR_0_1336	c1479
Healthy-SG_HC_OS_00160_BCR_0_2082	c1480
Healthy-SG_HC_OS_00295_BCR_0_953	c1481
Healthy-SG_HC_OS_00216_BCR_0_2242	c1482
COVID19-SG_CO_OK_00076_BCR_0_829	c1483
COVID19-SG_GC_OS_0234_BCR_0_927	c1484
COVID19-SG_CO_OK_00029_BCR_0_872	c1485
COVID19-SG_CO_OK_00021_BCR_0_385	c1486
Healthy-SG_HC_OS_00296_BCR_0_1477	c1487
Healthy-SG_HC_OS_00260_BCR_0_806	c1488
Healthy-SG_HC_OS_00129_BCR_0_4048	c1489
Healthy-SG_HC_OS_0240_BCR_0_8	c1490
COVID19-SG_CO_OK_00021_BCR_0_2328	c1491
COVID19-SG_CO_OK_00029_BCR_0_183	c1492
Healthy-SG_HC_OS_00129_BCR_0_1757	c1493
COVID19-SG_CO_OK_00027_BCR_0_2609	c1494
COVID19-SG_CO_OK_00042_BCR_0_573	c1495
COVID19-SG_CO_OK_00080_BCR_0_322	c1496
Healthy-SG_HC_OS_00296_BCR_0_368	c1497
COVID19-SG_CO_OK_00029_BCR_0_1673	c1498
Healthy-SG_HC_OS_00264_BCR_0_452	c1499
Healthy-SG_HC_OS_0007_BCR_0_559	c1500
Healthy-SG_HC_OS_00272_BCR_0_1817	c1501
COVID19-SG_CO_OK_00063_BCR_0_2554	c1502
COVID19-SG_CO_OK_00010_0315_BCR_0_4241	c1503
COVID19-SG_CO_OK_00080_BCR_0_370	c1504
COVID19-SG_CO_OK_00021_BCR_0_2620	c1505
COVID19-SG_CO_OK_00021_BCR_0_4101	c1506
Healthy-SG_HC_OS_00260_BCR_0_100	c1507
Healthy-SG_HC_OS_00282_BCR_0_3846	c1508
COVID19-SG_CO_OK_00070_BCR_0_4366	c1509
COVID19-SG_CO_OK_00070_BCR_0_4451	c1510
Healthy-SG_HC_OS_00216_BCR_0_3105	c1511
Healthy-SG_HC_OS_0221_BCR_0_387	c1512
COVID19-SG_CO_OK_00052_BCR_0_2373	c1513
Healthy-SG_HC_OS_00282_BCR_0_3417	c1514
Healthy-SG_HC_OS_0220_BCR_0_851	c1515
COVID19-SG_CO_OK_00021_BCR_0_3153	c1516
COVID19-SG_CO_OK_00006_BCR_0_784	c1517
Healthy-SG_HC_OS_00218_BCR_0_2772	c1518
COVID19-SG_CO_OK_00007_BCR_0_934	c1519
Healthy-SG_HC_OS_0221_BCR_0_1850	c1520
COVID19-SG_CO_OK_00020_BCR_0_1343	c1521
Healthy-SG_HC_OS_00216_BCR_0_551	c1522
Healthy-SG_HC_OS_0221_BCR_0_1578	c1523
COVID19-SG_CO_OK_00061_BCR_0_2086	c1524
COVID19-SG_CO_OK_00070_BCR_0_2023	c1525
COVID19-SG_CO_OK_00070_BCR_0_3330	c1526
COVID19-SG_CO_OK_00007_BCR_0_466	c1527
COVID19-SG_CO_OK_00007_BCR_0_2604	c1528
COVID19-SG_CO_OK_00068_BCR_0_2524	c1529
Healthy-SG_HC_OS_00282_BCR_0_3279	c1530
COVID19-SG_CO_OK_00068_BCR_0_2641	c1531
Healthy-SG_HC_OS_00282_BCR_0_3962	c1532
Healthy-SG_HC_OS_00259_BCR_0_734	c1533
Healthy-SG_HC_OS_00217_BCR_0_1040	c1534
COVID19-SC_GC_OS_0235_BCR_0_1175	c1535
Healthy-SG_HC_OS_0220_BCR_0_1036	c1536
Healthy-SG_HC_OS_0219_BCR_0_1673	c1537
Healthy-SG_HC_OS_0221_BCR_0_1864	c1538
COVID19-SG_CO_OK_00068_BCR_0_2881	c1539
Healthy-SG_HC_OS_00294_BCR_0_819	c1540
Healthy-SG_HC_OS_00217_BCR_0_1833	c1541
COVID19-SG_CO_OK_00067_BCR_0_598	c1542
COVID19-SG_CO_OK_00027_BCR_0_108	c1543
COVID19-SG_CO_OK_00037_BCR_0_2618	c1544
COVID19-SG_CO_OK_00070_BCR_0_3848	c1545
COVID19-SG_CO_OK_00007_BCR_0_635	c1546
COVID19-SG_CO_OK_00010_0315_BCR_0_1354	c1547
COVID19-SG_CO_OK_00010_0315_BCR_0_1370	c1548
Healthy-SG_HC_OS_0249_BCR_0_1257	c1549
Healthy-SG_HC_OS_00280_BCR_0_2356	c1550
Healthy-SG_HC_OS_0232_BCR_0_1200	c1551
COVID19-SG_GC_OS_0234_BCR_0_2722	c1552
COVID19-SC_GC_OS_0186_BCR_0_1304	c1553
COVID19-SG_CO_OK_00005_BCR_0_1936	c1554
COVID19-SG_CO_OK_00027_BCR_0_969	c1555
Healthy-SG_HC_OS_0219_BCR_0_1636	c1556
COVID19-SG_CO_OK_00037_BCR_0_2047	c1557
Healthy-SG_HC_OS_00282_BCR_0_1695	c1558
COVID19-SG_CO_OK_00019_BCR_0_1272	c1559
COVID19-SG_CO_OK_00006_BCR_0_3229	c1560
Healthy-SG_HC_OS_00280_BCR_0_2144	c1561
COVID19-SG_CO_OK_00063_BCR_0_2055	c1562
COVID19-SG_CO_OK_00028_BCR_0_1154	c1563
COVID19-SG_CO_OK_00010_0315_BCR_0_1065	c1564
Healthy-SG_HC_OS_0240_BCR_0_1835	c1565
Healthy-SG_HC_OS_0236_BCR_0_1257	c1566
COVID19-SG_CO_OK_00021_BCR_0_4055	c1567
COVID19-SG_CO_OK_00005_BCR_0_2137	c1568
COVID19-SG_CO_OK_00063_BCR_0_2157	c1569
Healthy-SG_HC_OS_0221_BCR_0_179	c1570
Healthy-SG_HC_OS_0230_BCR_0_416	c1571
Healthy-SG_HC_OS_00265_BCR_0_303	c1572
COVID19-SG_CO_OK_00066_BCR_0_1973	c1573
COVID19-SG_CO_OK_00026_BCR_0_1441	c1574
COVID19-SG_CO_OK_00067_BCR_0_1974	c1575
Healthy-SG_HC_OS_00265_BCR_0_1384	c1576
Healthy-SG_HC_OS_00265_BCR_0_1377	c1577
Healthy-SG_HC_OS_00217_BCR_0_2423	c1578
Healthy-SG_HC_OS_00294_BCR_0_1265	c1579
COVID19-SG_CO_OK_00049_BCR_0_624	c1580
Healthy-SG_HC_OS_00264_BCR_0_257	c1581
COVID19-SG_CO_OK_00026_BCR_0_1151	c1582
COVID19-SG_CO_OK_00070_BCR_0_2803	c1583
COVID19-SG_CO_OK_00021_BCR_0_3282	c1584
COVID19-SG_CO_OK_00007_BCR_0_2345	c1585
COVID19-SG_CO_OK_00070_BCR_0_2666	c1586
COVID19-SG_CO_OK_00010_0315_BCR_0_618	c1587
Healthy-SG_HC_OS_00280_BCR_0_7	c1588
Healthy-SG_HC_OS_0236_BCR_0_1101	c1589
Healthy-SG_HC_OS_00217_BCR_0_2518	c1590
COVID19-SG_CO_OK_00040_BCR_0_1721	c1591
Healthy-SG_HC_OS_0193_BCR_0_73	c1592
COVID19-SG_CO_OK_00028_BCR_0_924	c1593
Healthy-SG_HC_OS_00282_BCR_0_3864	c1594
COVID19-SG_CO_OK_00073_BCR_0_2530	c1595
Healthy-SG_HC_OS_0229_BCR_0_82	c1596
COVID19-SG_CO_OK_00070_BCR_0_2046	c1597
Healthy-SG_HC_OS_00006_BCR_0_1718	c1598
Healthy-SG_HC_OS_00163_BCR_0_1397	c1599
Healthy-SG_HC_OS_0223_BCR_0_630	c1600
Healthy-SG_HC_OS_00280_BCR_0_260	c1601
Healthy-SG_HC_OS_0219_BCR_0_1182	c1602
COVID19-SG_CO_OK_00063_BCR_0_2279	c1603
COVID19-SG_CO_OK_00040_BCR_0_9	c1604
Healthy-SG_HC_OS_00006_BCR_0_259	c1605
Healthy-SG_HC_OS_00006_BCR_0_321	c1606
Healthy-SG_HC_OS_00265_BCR_0_2863	c1607
COVID19-SG_CO_OK_00010_0315_BCR_0_2292	c1608
COVID19-SG_CO_OK_00016_BCR_0_135	c1609
COVID19-SG_CO_OK_00048_BCR_0_7450	c1610
Healthy-SG_HC_OS_00265_BCR_0_2567	c1611
COVID19-SG_CO_OK_00070_BCR_0_2919	c1612
Healthy-SG_HC_OS_0199_BCR_0_989	c1613
COVID19-SG_CO_OK_00072_BCR_0_625	c1614
COVID19-SG_CO_OK_00031_BCR_0_669	c1615
Healthy-SG_HC_OS_00295_BCR_0_282	c1616
Healthy-SG_HC_OS_0231_BCR_0_1358	c1617
Healthy-SG_HC_OS_00282_BCR_0_2252	c1618
COVID19-SG_CO_OK_00022_BCR_0_855	c1619
COVID19-SG_CO_OK_00021_BCR_0_4667	c1620
Healthy-SG_HC_OS_0228_BCR_0_1488	c1621
Healthy-SG_HC_OS_0230_BCR_0_463	c1622
Healthy-SG_HC_OS_00272_BCR_0_501	c1623
Healthy-SG_HC_OS_0228_BCR_0_1555	c1624
COVID19-SG_CO_OK_00021_BCR_0_645	c1625
Healthy-SG_HC_OS_0219_BCR_0_266	c1626
COVID19-SG_CO_OK_00012_BCR_0_860	c1627
Healthy-SG_HC_OS_00282_BCR_0_2099	c1628
Healthy-SG_HC_OS_00215_BCR_0_1379	c1629
Healthy-SG_HC_OS_00215_BCR_0_1299	c1630
COVID19-SG_CO_OK_00007_BCR_0_834	c1631
COVID19-SG_CO_OK_00042_BCR_0_561	c1632
Healthy-SG_HC_OS_00259_BCR_0_1422	c1633
Healthy-SG_HC_OS_00259_BCR_0_418	c1634
COVID19-SG_CO_OK_00057_BCR_0_3007	c1635
Healthy-SG_HC_OS_0228_BCR_0_1407	c1636
COVID19-SG_CO_OK_00080_BCR_0_115	c1637
COVID19-SG_CO_OK_00077_BCR_0_1668	c1638
COVID19-SG_CO_OK_00052_BCR_0_1875	c1639
COVID19-SG_CO_OK_00008_BCR_0_1282	c1640
Healthy-SG_HC_OS_00216_BCR_0_1787	c1641
Healthy-SG_HC_OS_00277_BCR_0_264	c1642
Healthy-SG_HC_OS_0249_BCR_0_195	c1643
Healthy-SG_HC_OS_00282_BCR_0_2485	c1644
Healthy-SG_HC_OS_00280_BCR_0_172	c1645
COVID19-SG_CO_OK_00061_BCR_0_1903	c1646
COVID19-SG_CO_OK_00006_BCR_0_232	c1647
Healthy-SG_HC_OS_00296_BCR_0_192	c1648
COVID19-SG_CO_OK_00077_BCR_0_83	c1649
COVID19-SG_CO_OK_00048_BCR_0_1915	c1650
Healthy-SG_HC_OS_00216_BCR_0_1295	c1651
Healthy-SG_HC_OS_00292_BCR_0_837	c1652
COVID19-SG_CO_OK_00025_BCR_0_3489	c1653
COVID19-SG_CO_OK_00043_BCR_0_1899	c1654
Healthy-SG_HC_OS_00168_BCR_0_796	c1655
Healthy-SG_HC_OS_0240_BCR_0_305	c1656
Healthy-SG_HC_OS_0249_BCR_0_2094	c1657
Healthy-SG_HC_OS_00295_BCR_0_848	c1658
Healthy-SG_HC_OS_0249_BCR_0_2096	c1659
COVID19-SG_CO_OK_00021_BCR_0_2746	c1660
Healthy-SG_HC_OS_00218_BCR_0_239	c1661
COVID19-SG_CO_OK_00006_BCR_0_3044	c1662
Healthy-SG_HC_OS_00282_BCR_0_287	c1663
Healthy-SG_HC_OS_00295_BCR_0_661	c1664
Healthy-SG_HC_OS_0228_BCR_0_1865	c1665
COVID19-SG_CO_OK_00006_BCR_0_1505	c1666
COVID19-SG_CO_OK_00021_BCR_0_2069	c1667
COVID19-SG_CO_OK_00076_BCR_0_2486	c1668
Healthy-SG_HC_OS_00163_BCR_0_944	c1669
COVID19-SG_CO_OK_00071_BCR_0_280	c1670
COVID19-SG_CO_OK_00007_BCR_0_1459	c1671
COVID19-SG_CO_OK_00007_BCR_0_1497	c1672
Healthy-SG_HC_OS_00168_BCR_0_792	c1673
Healthy-SG_HC_OS_00295_BCR_0_520	c1674
COVID19-SG_CO_OK_00063_BCR_0_3567	c1675
Healthy-SG_HC_OS_0005_BCR_0_28	c1676
Healthy-SG_HC_OS_00277_BCR_0_1882	c1677
COVID19-SG_CO_OK_00018_BCR_1_4743	c1678
COVID19-SC_GC_OS_0235_BCR_0_857	c1679
COVID19-SG_CO_OK_00042_BCR_0_1770	c1680
COVID19-SG_CO_OK_00005_BCR_0_2987	c1681
Healthy-SG_HC_OS_00218_BCR_0_1849	c1682
Healthy-SG_HC_OS_00217_BCR_0_3308	c1683
COVID19-SG_CO_OK_00022_BCR_0_1339	c1684
COVID19-SG_CO_OK_00076_BCR_0_113	c1685
Healthy-SG_HC_OS_0228_BCR_0_1002	c1686
COVID19-SG_CO_OK_00021_BCR_0_1473	c1687
COVID19-SG_CO_OK_00077_BCR_0_2109	c1688
COVID19-SG_CO_OK_00077_BCR_0_2132	c1689
Healthy-SG_HC_OS_0249_BCR_0_979	c1690
COVID19-SG_CO_OK_00021_BCR_0_3064	c1691
COVID19-SG_CO_OK_00067_BCR_0_151	c1692
COVID19-SG_CO_OK_00077_BCR_0_1181	c1693
COVID19-SC_GC_OS_0235_BCR_0_447	c1694
Healthy-SG_HC_OS_00218_BCR_0_1717	c1695
COVID19-SG_CO_OK_00077_BCR_0_2794	c1696
Healthy-SG_HC_OS_0228_BCR_0_1166	c1697
COVID19-SG_GC_OS_0182_BCR_0_327	c1698
COVID19-SG_CO_OK_00027_BCR_0_1900	c1699
COVID19-SG_CO_OK_00027_BCR_0_3384	c1700
COVID19-SG_CO_OK_00068_BCR_0_466	c1701
COVID19-SG_CO_OK_00010_0315_BCR_0_882	c1702
COVID19-SG_CO_OK_00028_BCR_0_886	c1703
COVID19-SG_CO_OK_00040_BCR_0_290	c1704
Healthy-SG_HC_OS_0221_BCR_0_2009	c1705
Healthy-SG_HC_OS_0249_BCR_0_1450	c1706
Healthy-SG_HC_OS_0229_BCR_0_295	c1707
COVID19-SG_CO_OK_00028_BCR_0_1088	c1708
Healthy-SG_HC_OS_0232_BCR_0_1166	c1709
Healthy-SG_HC_OS_00218_BCR_0_2290	c1710
COVID19-SG_CO_OK_00031_BCR_0_653	c1711
COVID19-SG_CO_OK_00012_BCR_0_51	c1712
COVID19-SG_CO_OK_00057_BCR_0_371	c1713
COVID19-SG_CO_OK_00021_BCR_0_735	c1714
COVID19-SG_CO_OK_00021_BCR_0_752	c1715
COVID19-SG_GC_OS_0234_BCR_0_719	c1716
COVID19-SG_CO_OK_00057_BCR_0_510	c1717
Healthy-SG_HC_OS_00217_BCR_0_3881	c1718
Healthy-SG_HC_OS_0194_BCR_0_468	c1719
COVID19-SG_CO_OK_00023_BCR_0_2238	c1720
COVID19-SG_CO_OK_00004_BCR_0_996	c1721
Healthy-SG_HC_OS_0231_BCR_0_26	c1722
COVID19-SG_CO_OK_00025_BCR_0_1805	c1723
COVID19-SG_CO_OK_00026_BCR_0_901	c1724
COVID19-SG_CO_OK_00005_BCR_0_2398	c1725
COVID19-SG_CO_OK_00028_BCR_0_797	c1726
COVID19-SG_CO_OK_00074_BCR_0_363	c1727
Healthy-SG_HC_OS_0221_BCR_0_1831	c1728
COVID19-SG_CO_OK_00014_0315_BCR_0_245	c1729
COVID19-SG_CO_OK_00027_BCR_0_2474	c1730
COVID19-SG_CO_OK_00057_BCR_0_2922	c1731
COVID19-SG_CO_OK_00011_BCR_0_199	c1732
Healthy-SG_HC_OS_00295_BCR_0_369	c1733
COVID19-SG_CO_OK_00007_BCR_0_1366	c1734
COVID19-SG_CO_OK_00080_BCR_0_1704	c1735
COVID19-SG_CO_OK_00063_BCR_0_27	c1736
Healthy-SG_HC_OS_0229_BCR_0_1251	c1737
Healthy-SG_HC_OS_00272_BCR_0_751	c1738
Healthy-SG_HC_OS_0224_BCR_0_1267	c1739
COVID19-SG_CO_OK_00025_BCR_0_3299	c1740
COVID19-SG_CO_OK_00070_BCR_0_1098	c1741
COVID19-SG_CO_OK_00066_BCR_0_1027	c1742
COVID19-SG_CO_OK_00021_BCR_0_4544	c1743
Healthy-SG_HC_OS_00216_BCR_0_2685	c1744
COVID19-SG_CO_OK_00067_BCR_0_1263	c1745
COVID19-SG_CO_OK_00063_BCR_0_2052	c1746
COVID19-SG_CO_OK_00020_BCR_0_1652	c1747
Healthy-SG_HC_OS_00260_BCR_0_786	c1748
Healthy-SG_HC_OS_00260_BCR_0_794	c1749
COVID19-SG_CO_OK_00063_BCR_0_169	c1750
COVID19-SG_CO_OK_00007_BCR_0_737	c1751
COVID19-SG_CO_OK_00071_BCR_0_1228	c1752
COVID19-SG_CO_OK_00072_BCR_0_631	c1753
Healthy-SG_HC_OS_0232_BCR_0_608	c1754
COVID19-SG_CO_OK_00016_BCR_0_127	c1755
COVID19-SG_CO_OK_00070_BCR_0_664	c1756
Healthy-SG_HC_OS_00129_BCR_0_303	c1757
COVID19-SC_GC_OS_0186_BCR_0_251	c1758
Healthy-SG_HC_OS_00293_BCR_0_629	c1759
COVID19-SG_CO_OK_00037_BCR_0_925	c1760
Healthy-SG_HC_OS_0249_BCR_0_3040	c1761
Healthy-SG_HC_OS_0230_BCR_0_280	c1762
Healthy-SG_HC_OS_00163_BCR_0_336	c1763
Healthy-SG_HC_OS_0222_BCR_0_920	c1764
COVID19-SC_GC_OS_0186_BCR_0_1254	c1765
Healthy-SG_HC_OS_0223_BCR_0_1025	c1766
COVID19-SC_GC_OS_0186_BCR_0_131	c1767
COVID19-SG_CO_OK_00033_BCR_0_2087	c1768
Healthy-SG_HC_OS_00217_BCR_0_1802	c1769
COVID19-SG_CO_OK_00021_BCR_0_2906	c1770
Healthy-SG_HC_OS_00293_BCR_0_2578	c1771
Healthy-SG_HC_OS_00282_BCR_0_3092	c1772
Healthy-SG_HC_OS_0219_BCR_0_1300	c1773
COVID19-SG_CO_OK_00034_BCR_0_1176	c1774
Healthy-SG_HC_OS_00293_BCR_0_2621	c1775
Healthy-SG_HC_OS_0219_BCR_0_1768	c1776
COVID19-SG_CO_OK_00033_BCR_0_1940	c1777
Healthy-SG_HC_OS_0222_BCR_0_288	c1778
COVID19-SG_CO_OK_00026_BCR_0_2040	c1779
COVID19-SG_CO_OK_00029_BCR_0_1876	c1780
Healthy-SG_HC_OS_0221_BCR_0_940	c1781
COVID19-SC_GC_OS_0186_BCR_0_304	c1782
COVID19-SG_CO_OK_00010_0315_BCR_0_3866	c1783
COVID19-SG_CO_OK_00052_BCR_0_1532	c1784
Healthy-SG_HC_OS_0249_BCR_0_3448	c1785
Healthy-SG_HC_OS_00282_BCR_0_264	c1786
Healthy-SG_HC_OS_00293_BCR_0_1521	c1787
COVID19-SG_CO_OK_00026_BCR_0_2114	c1788
COVID19-SG_CO_OK_00022_BCR_0_621	c1789
COVID19-SG_CO_OK_00027_BCR_0_1830	c1790
Healthy-SG_HC_OS_00168_BCR_0_613	c1791
Healthy-SG_HC_OS_0249_BCR_0_2614	c1792
Healthy-SG_HC_OS_00293_BCR_0_1567	c1793
COVID19-SG_CO_OK_00020_BCR_0_2086	c1794
COVID19-SG_CO_OK_00068_BCR_0_328	c1795
COVID19-SG_CO_OK_00030_BCR_0_11063	c1796
COVID19-SG_CO_OK_00012_BCR_0_1668	c1797
Healthy-SG_HC_OS_00282_BCR_0_1701	c1798
COVID19-SC_GC_OS_0186_BCR_0_350	c1799
Healthy-SG_HC_OS_00215_BCR_0_1200	c1800
COVID19-SG_CO_OK_00070_BCR_0_992	c1801
COVID19-SG_CO_OK_00071_BCR_0_1789	c1802
Healthy-SG_HC_OS_0228_BCR_0_1699	c1803
Healthy-SG_HC_OS_0231_BCR_0_1346	c1804
COVID19-SG_CO_OK_00070_BCR_0_1126	c1805
COVID19-SG_CO_OK_00021_BCR_0_4046	c1806
Healthy-SG_HC_OS_00296_BCR_0_1757	c1807
Healthy-SG_HC_OS_00277_BCR_0_1152	c1808
COVID19-SG_CO_OK_00012_BCR_0_1754	c1809
COVID19-SG_CO_OK_00061_BCR_0_1601	c1810
COVID19-SG_GC_OS_0182_BCR_0_815	c1811
COVID19-SG_CO_OK_00027_BCR_0_1214	c1812
Healthy-SG_HC_OS_00260_BCR_0_3250	c1813
COVID19-SG_CO_OK_00068_BCR_0_894	c1814
Healthy-SG_HC_OS_00215_BCR_0_370	c1815
COVID19-SG_CO_OK_00077_BCR_0_925	c1816
Healthy-SG_HC_OS_0222_BCR_0_771	c1817
Healthy-SG_HC_OS_0249_BCR_0_3093	c1818
Healthy-SG_HC_OS_0221_BCR_0_156	c1819
COVID19-SG_GC_OS_0234_BCR_0_267	c1820
COVID19-SG_CO_OK_00030_BCR_0_10907	c1821
Healthy-SG_HC_OS_0231_BCR_0_724	c1822
COVID19-SG_CO_OK_00048_BCR_0_5824	c1823
COVID19-SG_CO_OK_00063_BCR_0_2903	c1824
Healthy-SG_HC_OS_0221_BCR_0_1449	c1825
Healthy-SG_HC_OS_00272_BCR_0_509	c1826
COVID19-SG_CO_OK_00080_BCR_0_2992	c1827
COVID19-SG_CO_OK_00008_BCR_0_364	c1828
COVID19-SG_CO_OK_00076_BCR_0_2634	c1829
COVID19-SG_CO_OK_00080_BCR_0_1602	c1830
Healthy-SG_HC_OS_0231_BCR_0_103	c1831
COVID19-SG_CO_OK_00016_BCR_0_2095	c1832
Healthy-SG_HC_OS_00168_BCR_0_1297	c1833
Healthy-SG_HC_OS_00272_BCR_0_66	c1834
Healthy-SG_HC_OS_00295_BCR_0_807	c1835
COVID19-SG_CO_OK_00025_BCR_0_417	c1836
COVID19-SG_CO_OK_00080_BCR_0_2085	c1837
Healthy-SG_HC_OS_00272_BCR_0_634	c1838
COVID19-SG_CO_OK_00057_BCR_0_575	c1839
COVID19-SG_CO_OK_00021_BCR_0_2352	c1840
COVID19-SG_CO_OK_00037_BCR_0_1303	c1841
Healthy-SG_HC_OS_0220_BCR_0_640	c1842
COVID19-SG_CO_OK_00027_BCR_0_4129	c1843
COVID19-SG_CO_OK_00080_BCR_0_752	c1844
COVID19-SG_CO_OK_00021_BCR_0_85	c1845
Healthy-SG_HC_OS_0220_BCR_0_684	c1846
Healthy-SG_HC_OS_00280_BCR_0_1806	c1847
COVID19-SG_CO_OK_00042_BCR_0_356	c1848
COVID19-SG_CO_OK_00006_BCR_0_687	c1849
Healthy-SG_HC_OS_0194_BCR_0_422	c1850
COVID19-SG_CO_OK_00042_BCR_0_269	c1851
Healthy-SG_HC_OS_00266_BCR_0_214	c1852
Healthy-SG_HC_OS_0232_BCR_0_84	c1853
COVID19-SG_CO_OK_00030_BCR_0_13853	c1854
Healthy-SG_HC_OS_00272_BCR_0_617	c1855
Healthy-SG_HC_OS_0199_BCR_0_33	c1856
Healthy-SG_HC_OS_0194_BCR_0_465	c1857
Healthy-SG_HC_OS_0224_BCR_0_495	c1858
COVID19-SG_CO_OK_00037_BCR_0_1732	c1859
COVID19-SG_CO_OK_00008_BCR_0_549	c1860
Healthy-SG_HC_OS_00163_BCR_0_738	c1861
Healthy-SG_HC_OS_00282_BCR_0_2262	c1862
Healthy-SG_HC_OS_0225_BCR_0_170	c1863
Healthy-SG_HC_OS_00282_BCR_0_2909	c1864
Healthy-SG_HC_OS_0232_BCR_0_825	c1865
Healthy-SG_HC_OS_00295_BCR_0_645	c1866
Healthy-SG_HC_OS_0228_BCR_0_145	c1867
Healthy-SG_HC_OS_0220_BCR_0_88	c1868
Healthy-SG_HC_OS_0199_BCR_0_1006	c1869
COVID19-SG_CO_OK_00005_BCR_0_1424	c1870
COVID19-SC_GC_OS_0235_BCR_0_1162	c1871
Healthy-SG_HC_OS_00260_BCR_0_2702	c1872
Healthy-SG_HC_OS_0228_BCR_0_1705	c1873
COVID19-SG_CO_OK_00023_BCR_0_130	c1874
Healthy-SG_HC_OS_00260_BCR_0_3463	c1875
Healthy-SG_HC_OS_00216_BCR_0_1343	c1876
Healthy-SG_HC_OS_0005_BCR_0_643	c1877
COVID19-SG_CO_OK_00040_BCR_0_2315	c1878
COVID19-SG_CO_OK_00073_BCR_0_2200	c1879
COVID19-SG_CO_OK_00021_BCR_0_4899	c1880
Healthy-SG_HC_OS_0236_BCR_0_831	c1881
Healthy-SG_HC_OS_00280_BCR_0_113	c1882
Healthy-SG_HC_OS_00129_BCR_0_2513	c1883
COVID19-SG_CO_OK_00027_BCR_0_2923	c1884
Healthy-SG_HC_OS_0236_BCR_0_1144	c1885
Healthy-SG_HC_OS_00280_BCR_0_502	c1886
Healthy-SG_HC_OS_00264_BCR_0_132	c1887
Healthy-SG_HC_OS_00217_BCR_0_3557	c1888
Healthy-SG_HC_OS_0249_BCR_0_335	c1889
COVID19-SG_CO_OK_00026_BCR_0_1530	c1890
COVID19-SG_CO_OK_00022_BCR_0_980	c1891
COVID19-SG_CO_OK_00073_BCR_0_2589	c1892
Healthy-SG_HC_OS_00217_BCR_0_3706	c1893
Healthy-SG_HC_OS_0249_BCR_0_1941	c1894
Healthy-SG_HC_OS_00265_BCR_0_895	c1895
COVID19-SG_CO_OK_00040_BCR_0_439	c1896
COVID19-SG_CO_OK_00070_BCR_0_780	c1897
Healthy-SG_HC_OS_00280_BCR_0_313	c1898
COVID19-SG_CO_OK_00010_0315_BCR_0_3178	c1899
Healthy-SG_HC_OS_00280_BCR_0_1102	c1900
Healthy-SG_HC_OS_00217_BCR_0_2742	c1901
COVID19-SG_CO_OK_00025_BCR_0_1709	c1902
Healthy-SG_HC_OS_00264_BCR_0_870	c1903
COVID19-SG_CO_OK_00040_BCR_0_1902	c1904
COVID19-SG_CO_OK_00068_BCR_0_344	c1905
COVID19-SG_CO_OK_00030_BCR_0_4824	c1906
COVID19-SG_CO_OK_00025_BCR_0_1159	c1907
Healthy-SG_HC_OS_0007_BCR_0_769	c1908
COVID19-SG_CO_OK_00019_BCR_0_775	c1909
COVID19-SG_CO_OK_00004_BCR_0_1430	c1910
COVID19-SG_CO_OK_00021_BCR_0_1662	c1911
Healthy-SG_HC_OS_00264_BCR_0_349	c1912
COVID19-SG_CO_OK_00057_BCR_0_2292	c1913
COVID19-SG_CO_OK_00027_BCR_0_1001	c1914
Healthy-SG_HC_OS_00280_BCR_0_1101	c1915
Healthy-SG_HC_OS_0220_BCR_0_1024	c1916
COVID19-SG_CO_OK_00023_BCR_0_1051	c1917
COVID19-SG_CO_OK_00021_BCR_0_3480	c1918
Healthy-SG_HC_OS_0232_BCR_0_339	c1919
COVID19-SG_CO_OK_00025_BCR_0_2741	c1920
COVID19-SG_CO_OK_00070_BCR_0_4613	c1921
COVID19-SG_CO_OK_00070_BCR_0_2959	c1922
COVID19-SG_CO_OK_00073_BCR_0_2748	c1923
COVID19-SG_CO_OK_00057_BCR_0_912	c1924
Healthy-SG_HC_OS_00265_BCR_0_3230	c1925
Healthy-SG_HC_OS_00277_BCR_0_1952	c1926
Healthy-SG_HC_OS_0249_BCR_0_2141	c1927
COVID19-SG_CO_OK_00007_BCR_0_1208	c1928
Healthy-SG_HC_OS_00006_BCR_0_119	c1929
COVID19-SG_CO_OK_00077_BCR_0_685	c1930
COVID19-SG_CO_OK_00007_BCR_0_1797	c1931
COVID19-SC_GC_OS_0186_BCR_0_1219	c1932
COVID19-SG_CO_OK_00071_BCR_0_643	c1933
COVID19-SG_CO_OK_00011_BCR_0_757	c1934
COVID19-SG_GC_OS_0234_BCR_0_820	c1935
COVID19-SG_CO_OK_00027_BCR_0_3224	c1936
Healthy-SG_HC_OS_00265_BCR_0_617	c1937
COVID19-SG_CO_OK_00007_BCR_0_336	c1938
Healthy-SG_HC_OS_00293_BCR_0_1548	c1939
Healthy-SG_HC_OS_0249_BCR_0_2642	c1940
COVID19-SG_CO_OK_00018_BCR_1_1096	c1941
COVID19-SG_GC_OS_0234_BCR_0_505	c1942
COVID19-SG_CO_OK_00052_BCR_0_2837	c1943
Healthy-SG_HC_OS_00006_BCR_0_1569	c1944
Healthy-SG_HC_OS_00216_BCR_0_572	c1945
COVID19-SG_CO_OK_00070_BCR_0_1607	c1946
Healthy-SG_HC_OS_00265_BCR_0_31	c1947
Healthy-SG_HC_OS_00282_BCR_0_2484	c1948
Healthy-SG_HC_OS_0236_BCR_0_58	c1949
COVID19-SG_CO_OK_00023_BCR_0_254	c1950
COVID19-SG_CO_OK_00037_BCR_0_37	c1951
Healthy-SG_HC_OS_0228_BCR_0_2405	c1952
COVID19-SG_CO_OK_00023_BCR_0_2156	c1953
COVID19-SG_CO_OK_00052_BCR_0_929	c1954
COVID19-SG_CO_OK_00077_BCR_0_3135	c1955
COVID19-SG_CO_OK_00037_BCR_0_513	c1956
COVID19-SG_CO_OK_00052_BCR_0_3664	c1957
Healthy-SG_HC_OS_0222_BCR_0_1002	c1958
Healthy-SG_HC_OS_00216_BCR_0_1661	c1959
COVID19-SG_CO_OK_00031_BCR_0_143	c1960
COVID19-SG_CO_OK_00077_BCR_0_2683	c1961
Healthy-SG_HC_OS_00259_BCR_0_309	c1962
COVID19-SG_CO_OK_00080_BCR_0_1927	c1963
COVID19-SG_CO_OK_00080_BCR_0_21	c1964
Healthy-SG_HC_OS_00259_BCR_0_602	c1965
COVID19-SG_CO_OK_00068_BCR_0_1786	c1966
COVID19-SG_CO_OK_00008_BCR_0_1387	c1967
COVID19-SG_CO_OK_00077_BCR_0_815	c1968
COVID19-SG_CO_OK_00080_BCR_0_1124	c1969
COVID19-SG_CO_OK_00008_BCR_0_1411	c1970
Healthy-SG_HC_OS_00277_BCR_0_868	c1971
Healthy-SG_HC_OS_00259_BCR_0_422	c1972
COVID19-SG_CO_OK_00008_BCR_0_366	c1973
COVID19-SG_CO_OK_00070_BCR_0_908	c1974
COVID19-SG_CO_OK_00034_BCR_0_1042	c1975
COVID19-SG_CO_OK_00004_BCR_0_673	c1976
COVID19-SG_CO_OK_00077_BCR_0_649	c1977
COVID19-SG_CO_OK_00013_BCR_0_305	c1978
Healthy-SG_HC_OS_0228_BCR_0_107	c1979
Healthy-SG_HC_OS_00216_BCR_0_1203	c1980
COVID19-SG_CO_OK_00030_BCR_0_9909	c1981
COVID19-SG_CO_OK_00070_BCR_0_637	c1982
COVID19-SG_CO_OK_00070_BCR_0_1367	c1983
COVID19-SG_CO_OK_00043_BCR_0_22	c1984
Healthy-SG_HC_OS_00264_BCR_0_753	c1985
COVID19-SG_CO_OK_00013_BCR_0_1050	c1986
Healthy-SG_HC_OS_00129_BCR_0_3772	c1987
COVID19-SG_CO_OK_00040_BCR_0_397	c1988
COVID19-SG_CO_OK_00040_BCR_0_560	c1989
COVID19-SG_CO_OK_00005_BCR_0_2502	c1990
Healthy-SG_HC_OS_0224_BCR_0_1046	c1991
Healthy-SG_HC_OS_0222_BCR_0_1014	c1992
COVID19-SG_CO_OK_00007_BCR_0_1908	c1993
Healthy-SG_HC_OS_0005_BCR_0_164	c1994
COVID19-SG_CO_OK_00007_BCR_0_2744	c1995
COVID19-SG_CO_OK_00023_BCR_0_4159	c1996
COVID19-SG_CO_OK_00006_BCR_0_3916	c1997
Healthy-SG_HC_OS_0249_BCR_0_1131	c1998
Healthy-SG_HC_OS_00006_BCR_0_1313	c1999
COVID19-SG_CO_OK_00006_BCR_0_3954	c2000
Healthy-SG_HC_OS_00265_BCR_0_41	c2001
COVID19-SG_CO_OK_00030_BCR_0_6874	c2002
Healthy-SG_HC_OS_00160_BCR_0_1523	c2003
Healthy-SG_HC_OS_00265_BCR_0_1888	c2004
COVID19-SG_CO_OK_00068_BCR_0_596	c2005
COVID19-SG_CO_OK_00016_BCR_0_781	c2006
COVID19-SG_CO_OK_00005_BCR_0_3164	c2007
COVID19-SG_CO_OK_00022_BCR_0_1950	c2008
COVID19-SG_CO_OK_00073_BCR_0_1354	c2009
COVID19-SG_CO_OK_00007_BCR_0_2321	c2010
Healthy-SG_HC_OS_0240_BCR_0_1958	c2011
COVID19-SG_CO_OK_00073_BCR_0_1129	c2012
Healthy-SG_HC_OS_00218_BCR_0_3157	c2013
Healthy-SG_HC_OS_00129_BCR_0_175	c2014
COVID19-SG_CO_OK_00040_BCR_0_1447	c2015
COVID19-SG_CO_OK_00040_BCR_0_2290	c2016
COVID19-SG_CO_OK_00005_BCR_0_2958	c2017
Healthy-SG_HC_OS_0221_BCR_0_528	c2018
COVID19-SG_CO_OK_00033_BCR_0_1249	c2019
Healthy-SG_HC_OS_00265_BCR_0_1782	c2020
COVID19-SG_CO_OK_00006_BCR_0_262	c2021
Healthy-SG_HC_OS_0005_BCR_0_2506	c2022
Healthy-SG_HC_OS_00129_BCR_0_2798	c2023
Healthy-SG_HC_OS_0240_BCR_0_1863	c2024
COVID19-SG_GC_OS_0234_BCR_0_862	c2025
COVID19-SG_GC_OS_0234_BCR_0_807	c2026
COVID19-SG_CO_OK_00005_BCR_0_880	c2027
COVID19-SG_CO_OK_00066_BCR_0_1164	c2028
COVID19-SG_CO_OK_00019_BCR_0_1575	c2029
COVID19-SG_CO_OK_00021_BCR_0_3666	c2030
COVID19-SG_CO_OK_00009_0315_BCR_0_1899	c2031
COVID19-SG_CO_OK_00006_BCR_0_1357	c2032
COVID19-SG_CO_OK_00066_BCR_0_107	c2033
Healthy-SG_HC_OS_0225_BCR_0_124	c2034
COVID19-SG_CO_OK_00012_BCR_0_233	c2035
COVID19-SG_CO_OK_00071_BCR_0_2296	c2036
COVID19-SG_CO_OK_00076_BCR_0_2085	c2037
COVID19-SG_CO_OK_00063_BCR_0_669	c2038
COVID19-SG_CO_OK_00012_BCR_0_520	c2039
COVID19-SG_CO_OK_00005_BCR_0_1053	c2040
COVID19-SG_CO_OK_00016_BCR_0_2075	c2041
Healthy-SG_HC_OS_00168_BCR_0_847	c2042
COVID19-SG_CO_OK_00025_BCR_0_3678	c2043
COVID19-SG_CO_OK_00006_BCR_0_1906	c2044
COVID19-SG_CO_OK_00076_BCR_0_1565	c2045
Healthy-SG_HC_OS_00272_BCR_0_50	c2046
COVID19-SG_CO_OK_00070_BCR_0_1818	c2047
COVID19-SG_GC_OS_0182_BCR_0_886	c2048
COVID19-SG_CO_OK_00028_BCR_0_154	c2049
Healthy-SG_HC_OS_00265_BCR_0_870	c2050
COVID19-SG_CO_OK_00068_BCR_0_881	c2051
COVID19-SG_CO_OK_00048_BCR_0_6013	c2052
COVID19-SG_GC_OS_0234_BCR_0_3	c2053
Healthy-SG_HC_OS_00217_BCR_0_1642	c2054
COVID19-SG_CO_OK_00037_BCR_0_2157	c2055
COVID19-SG_CO_OK_00066_BCR_0_1617	c2056
Healthy-SG_HC_OS_00217_BCR_0_1442	c2057
COVID19-SG_CO_OK_00070_BCR_0_1960	c2058
COVID19-SG_CO_OK_00027_BCR_0_933	c2059
Healthy-SG_HC_OS_0231_BCR_0_1513	c2060
COVID19-SG_GC_OS_0234_BCR_0_2174	c2061
COVID19-SG_CO_OK_00074_BCR_0_2197	c2062
Healthy-SG_HC_OS_00217_BCR_0_1327	c2063
COVID19-SG_CO_OK_00012_BCR_0_1464	c2064
COVID19-SG_CO_OK_00022_BCR_0_3124	c2065
COVID19-SG_GC_OS_0182_BCR_0_795	c2066
COVID19-SG_CO_OK_00031_BCR_0_484	c2067
COVID19-SG_CO_OK_00077_BCR_0_1745	c2068
COVID19-SC_GC_OS_0235_BCR_0_553	c2069
Healthy-SG_HC_OS_0240_BCR_0_1414	c2070
Healthy-SG_HC_OS_0236_BCR_0_1424	c2071
Healthy-SG_HC_OS_0236_BCR_0_169	c2072
COVID19-SC_GC_OS_0171_BCR_0_155	c2073
COVID19-SG_CO_OK_00020_BCR_0_503	c2074
COVID19-SG_CO_OK_00057_BCR_0_59	c2075
COVID19-SC_GC_OS_0171_BCR_0_1057	c2076
COVID19-SG_CO_OK_00057_BCR_0_2048	c2077
Healthy-SG_HC_OS_00293_BCR_0_1849	c2078
Healthy-SG_HC_OS_00280_BCR_0_320	c2079
COVID19-SG_CO_OK_00025_BCR_0_2469	c2080
Healthy-SG_HC_OS_0249_BCR_0_331	c2081
Healthy-SG_HC_OS_00282_BCR_0_643	c2082
COVID19-SG_CO_OK_00063_BCR_0_1676	c2083
COVID19-SC_GC_OS_0186_BCR_0_106	c2084
COVID19-SG_CO_OK_00019_BCR_0_941	c2085
COVID19-SG_CO_OK_00025_BCR_0_2352	c2086
Healthy-SG_HC_OS_00280_BCR_0_722	c2087
Healthy-SG_HC_OS_00280_BCR_0_1698	c2088
COVID19-SG_CO_OK_00025_BCR_0_1391	c2089
Healthy-SG_HC_OS_00282_BCR_0_4029	c2090
Healthy-SG_HC_OS_00296_BCR_0_931	c2091
Healthy-SG_HC_OS_00296_BCR_0_1186	c2092
COVID19-SC_GC_OS_0171_BCR_0_458	c2093
COVID19-SG_CO_OK_00025_BCR_0_1173	c2094
Healthy-SG_HC_OS_00282_BCR_0_1820	c2095
COVID19-SC_GC_OS_0235_BCR_0_1488	c2096
COVID19-SC_GC_OS_0171_BCR_0_888	c2097
COVID19-SG_CO_OK_00057_BCR_0_825	c2098
COVID19-SG_CO_OK_00060_BCR_0_1937	c2099
