Feature	importance
c5	0.2177191
c0	0.16453475
c41	0.09527489
c62	0.066887096
c36	0.059019912
c54	0.050709933
c63	0.042681128
c58	0.0325841
c33	0.032359824
c49	0.023938578
c52	0.02134499
c22	0.017714694
c18	0.01670862
c79	0.016177353
c3	0.0154981725
c45	0.014232334
c48	0.012760827
c70	0.011575605
c81	0.010150665
c1	0.009863536
c34	0.009353665
c66	0.008675994
c14	0.008315104
c94	0.007088439
c95	0.0070446725
c82	0.0068768803
c24	0.006176196
c55	0.0042176004
c8	0.0027423853
c67	0.002624374
c57	0.0020484375
c28	0.0017299441
c16	0.0013701936
