Feature	importance
c5	0.21558617
c0	0.18708043
c4282	0.086647004
c468	0.054359596
c782	0.048697833
c3100	0.047184646
c101	0.046654485
c3417	0.029805118
c41	0.029270327
c36	0.028670289
c100	0.025992753
c54	0.025790075
c160	0.02458642
c2676	0.018662265
c217	0.015914291
c5197	0.012996645
c535	0.011798594
c258	0.009712432
c22	0.0097041065
c302	0.009465314
c1170	0.00884217
c927	0.008679282
c611	0.007922293
c407	0.0060986984
c441	0.005429379
c82	0.0052269795
c2420	0.004959128
c27	0.004431447
c303	0.003698992
c72	0.0031215276
c21	0.0030112385
