Feature	importance
c5	0.2830974
c36	0.08650238
c0	0.08269046
c319	0.06881316
c217	0.052991506
c782	0.049323488
c62	0.03722275
c54	0.036194004
c468	0.03082989
c1170	0.029655093
c41	0.025572302
c535	0.02139187
c1099	0.020282038
c1734	0.018720109
c302	0.017057324
c1023	0.016999977
c160	0.014010496
c1146	0.012437988
c100	0.01211576
c22	0.01156788
c14	0.009348727
c418	0.008314402
c258	0.0075541916
c1	0.007384682
c290	0.0066681798
c193	0.0056883977
c82	0.0053331167
c1335	0.0051282425
c1398	0.005118279
c303	0.004322379
c86	0.0040040337
c433	0.003659449
