Feature	importance
c5	0.2155862
c0	0.18708046
c4282	0.08664702
c468	0.0543596
c782	0.04869784
c3100	0.04718465
c101	0.046654493
c3417	0.029805122
c41	0.029270329
c36	0.028670292
c100	0.025992755
c54	0.025790079
c160	0.024586424
c2676	0.018662266
c217	0.015914293
c5197	0.012996647
c535	0.011798595
c258	0.0097124325
c22	0.009704107
c302	0.009465315
c1170	0.008842171
c927	0.008679283
c611	0.007922294
c407	0.006098699
c441	0.0054293796
c82	0.00522698
c2420	0.0049591283
c27	0.0044314475
c303	0.0036989923
c72	0.003121528
c21	0.0030112388
