donor	class	AIRR
mounts_scratch07_zichang_230308_Roskin_2020_HIV_bulkBCR_prep_pseudo_HD_AIRR_batch_5_H_HHC100	0	/mounts/scratch07/zichang/231016_Myimmune_TCR/HIV_HD_downsize_dmin005/HDHIVnega/H/HHC100.tsv
mounts_scratch07_zichang_230308_Roskin_2020_HIV_bulkBCR_prep_pseudo_HIVnega_AIRR_H_HIVnegS001	0	/mounts/scratch07/zichang/231016_Myimmune_TCR/HIV_HD_downsize_dmin005/HDHIVnega/H/HIVnegS001.tsv
mounts_scratch07_zichang_230308_Roskin_2020_HIV_bulkBCR_prep_pseudo_HD_AIRR_batch_5_H_HHC101	0	/mounts/scratch07/zichang/231016_Myimmune_TCR/HIV_HD_downsize_dmin005/HDHIVnega/H/HHC101.tsv
mounts_scratch07_zichang_230308_Roskin_2020_HIV_bulkBCR_prep_pseudo_HIVnega_AIRR_H_HIVnegS002	0	/mounts/scratch07/zichang/231016_Myimmune_TCR/HIV_HD_downsize_dmin005/HDHIVnega/H/HIVnegS002.tsv
mounts_scratch07_zichang_230308_Roskin_2020_HIV_bulkBCR_prep_pseudo_HD_AIRR_batch_5_H_HHC102	0	/mounts/scratch07/zichang/231016_Myimmune_TCR/HIV_HD_downsize_dmin005/HDHIVnega/H/HHC102.tsv
mounts_scratch07_zichang_230308_Roskin_2020_HIV_bulkBCR_prep_pseudo_HIVnega_AIRR_H_HIVnegS003	0	/mounts/scratch07/zichang/231016_Myimmune_TCR/HIV_HD_downsize_dmin005/HDHIVnega/H/HIVnegS003.tsv
mounts_scratch07_zichang_230308_Roskin_2020_HIV_bulkBCR_prep_pseudo_HD_AIRR_batch_5_H_HHC104	0	/mounts/scratch07/zichang/231016_Myimmune_TCR/HIV_HD_downsize_dmin005/HDHIVnega/H/HHC104.tsv
mounts_scratch07_zichang_230308_Roskin_2020_HIV_bulkBCR_prep_pseudo_HIVnega_AIRR_H_HIVnegS004	0	/mounts/scratch07/zichang/231016_Myimmune_TCR/HIV_HD_downsize_dmin005/HDHIVnega/H/HIVnegS004.tsv
mounts_scratch07_zichang_230308_Roskin_2020_HIV_bulkBCR_prep_pseudo_HD_AIRR_batch_5_H_HHC106	0	/mounts/scratch07/zichang/231016_Myimmune_TCR/HIV_HD_downsize_dmin005/HDHIVnega/H/HHC106.tsv
mounts_scratch07_zichang_230308_Roskin_2020_HIV_bulkBCR_prep_pseudo_HIVnega_AIRR_H_HIVnegS005	0	/mounts/scratch07/zichang/231016_Myimmune_TCR/HIV_HD_downsize_dmin005/HDHIVnega/H/HIVnegS005.tsv
mounts_scratch07_zichang_230308_Roskin_2020_HIV_bulkBCR_prep_pseudo_HD_AIRR_batch_5_H_HHC107	0	/mounts/scratch07/zichang/231016_Myimmune_TCR/HIV_HD_downsize_dmin005/HDHIVnega/H/HHC107.tsv
mounts_scratch07_zichang_230308_Roskin_2020_HIV_bulkBCR_prep_pseudo_HIVnega_AIRR_H_HIVnegS006	0	/mounts/scratch07/zichang/231016_Myimmune_TCR/HIV_HD_downsize_dmin005/HDHIVnega/H/HIVnegS006.tsv
mounts_scratch07_zichang_230308_Roskin_2020_HIV_bulkBCR_prep_pseudo_HD_AIRR_batch_5_H_HHC109	0	/mounts/scratch07/zichang/231016_Myimmune_TCR/HIV_HD_downsize_dmin005/HDHIVnega/H/HHC109.tsv
mounts_scratch07_zichang_230308_Roskin_2020_HIV_bulkBCR_prep_pseudo_HIVnega_AIRR_H_HIVnegS007	0	/mounts/scratch07/zichang/231016_Myimmune_TCR/HIV_HD_downsize_dmin005/HDHIVnega/H/HIVnegS007.tsv
mounts_scratch07_zichang_230308_Roskin_2020_HIV_bulkBCR_prep_pseudo_HD_AIRR_batch_1_H_HHC10	0	/mounts/scratch07/zichang/231016_Myimmune_TCR/HIV_HD_downsize_dmin005/HDHIVnega/H/HHC10.tsv
mounts_scratch07_zichang_230308_Roskin_2020_HIV_bulkBCR_prep_pseudo_HIVnega_AIRR_H_HIVnegS008	0	/mounts/scratch07/zichang/231016_Myimmune_TCR/HIV_HD_downsize_dmin005/HDHIVnega/H/HIVnegS008.tsv
mounts_scratch07_zichang_230308_Roskin_2020_HIV_bulkBCR_prep_pseudo_HD_AIRR_batch_5_H_HHC111	0	/mounts/scratch07/zichang/231016_Myimmune_TCR/HIV_HD_downsize_dmin005/HDHIVnega/H/HHC111.tsv
mounts_scratch07_zichang_230308_Roskin_2020_HIV_bulkBCR_prep_pseudo_HIVnega_AIRR_H_HIVnegS009	0	/mounts/scratch07/zichang/231016_Myimmune_TCR/HIV_HD_downsize_dmin005/HDHIVnega/H/HIVnegS009.tsv
mounts_scratch07_zichang_230308_Roskin_2020_HIV_bulkBCR_prep_pseudo_HD_AIRR_batch_5_H_HHC112	0	/mounts/scratch07/zichang/231016_Myimmune_TCR/HIV_HD_downsize_dmin005/HDHIVnega/H/HHC112.tsv
mounts_scratch07_zichang_230308_Roskin_2020_HIV_bulkBCR_prep_pseudo_HIVnega_AIRR_H_HIVnegS010	0	/mounts/scratch07/zichang/231016_Myimmune_TCR/HIV_HD_downsize_dmin005/HDHIVnega/H/HIVnegS010.tsv
mounts_scratch07_zichang_230308_Roskin_2020_HIV_bulkBCR_prep_pseudo_HD_AIRR_batch_1_H_HHC11	0	/mounts/scratch07/zichang/231016_Myimmune_TCR/HIV_HD_downsize_dmin005/HDHIVnega/H/HHC11.tsv
mounts_scratch07_zichang_230308_Roskin_2020_HIV_bulkBCR_prep_pseudo_HIVnega_AIRR_H_HIVnegS011	0	/mounts/scratch07/zichang/231016_Myimmune_TCR/HIV_HD_downsize_dmin005/HDHIVnega/H/HIVnegS011.tsv
mounts_scratch07_zichang_230308_Roskin_2020_HIV_bulkBCR_prep_pseudo_HD_AIRR_batch_1_H_HHC12	0	/mounts/scratch07/zichang/231016_Myimmune_TCR/HIV_HD_downsize_dmin005/HDHIVnega/H/HHC12.tsv
mounts_scratch07_zichang_230308_Roskin_2020_HIV_bulkBCR_prep_pseudo_HIVnega_AIRR_H_HIVnegS012	0	/mounts/scratch07/zichang/231016_Myimmune_TCR/HIV_HD_downsize_dmin005/HDHIVnega/H/HIVnegS012.tsv
mounts_scratch07_zichang_230308_Roskin_2020_HIV_bulkBCR_prep_pseudo_HD_AIRR_batch_1_H_HHC13	0	/mounts/scratch07/zichang/231016_Myimmune_TCR/HIV_HD_downsize_dmin005/HDHIVnega/H/HHC13.tsv
mounts_scratch07_zichang_230308_Roskin_2020_HIV_bulkBCR_prep_pseudo_HIVnega_AIRR_H_HIVnegS013	0	/mounts/scratch07/zichang/231016_Myimmune_TCR/HIV_HD_downsize_dmin005/HDHIVnega/H/HIVnegS013.tsv
mounts_scratch07_zichang_230308_Roskin_2020_HIV_bulkBCR_prep_pseudo_HD_AIRR_batch_1_H_HHC14	0	/mounts/scratch07/zichang/231016_Myimmune_TCR/HIV_HD_downsize_dmin005/HDHIVnega/H/HHC14.tsv
mounts_scratch07_zichang_230308_Roskin_2020_HIV_bulkBCR_prep_pseudo_HIVnega_AIRR_H_HIVnegS014	0	/mounts/scratch07/zichang/231016_Myimmune_TCR/HIV_HD_downsize_dmin005/HDHIVnega/H/HIVnegS014.tsv
mounts_scratch07_zichang_230308_Roskin_2020_HIV_bulkBCR_prep_pseudo_HD_AIRR_batch_1_H_HHC16	0	/mounts/scratch07/zichang/231016_Myimmune_TCR/HIV_HD_downsize_dmin005/HDHIVnega/H/HHC16.tsv
mounts_scratch07_zichang_230308_Roskin_2020_HIV_bulkBCR_prep_pseudo_HIVnega_AIRR_H_HIVnegS015	0	/mounts/scratch07/zichang/231016_Myimmune_TCR/HIV_HD_downsize_dmin005/HDHIVnega/H/HIVnegS015.tsv
mounts_scratch07_zichang_230308_Roskin_2020_HIV_bulkBCR_prep_pseudo_HIVnega_AIRR_H_HIVnegS016	0	/mounts/scratch07/zichang/231016_Myimmune_TCR/HIV_HD_downsize_dmin005/HDHIVnega/H/HIVnegS016.tsv
mounts_scratch07_zichang_230308_Roskin_2020_HIV_bulkBCR_prep_pseudo_HD_AIRR_batch_1_H_HHC17	0	/mounts/scratch07/zichang/231016_Myimmune_TCR/HIV_HD_downsize_dmin005/HDHIVnega/H/HHC17.tsv
mounts_scratch07_zichang_230308_Roskin_2020_HIV_bulkBCR_prep_pseudo_HIVnega_AIRR_H_HIVnegS017	0	/mounts/scratch07/zichang/231016_Myimmune_TCR/HIV_HD_downsize_dmin005/HDHIVnega/H/HIVnegS017.tsv
mounts_scratch07_zichang_230308_Roskin_2020_HIV_bulkBCR_prep_pseudo_HD_AIRR_batch_1_H_HHC18	0	/mounts/scratch07/zichang/231016_Myimmune_TCR/HIV_HD_downsize_dmin005/HDHIVnega/H/HHC18.tsv
mounts_scratch07_zichang_230308_Roskin_2020_HIV_bulkBCR_prep_pseudo_HIVnega_AIRR_H_HIVnegS018	0	/mounts/scratch07/zichang/231016_Myimmune_TCR/HIV_HD_downsize_dmin005/HDHIVnega/H/HIVnegS018.tsv
mounts_scratch07_zichang_230308_Roskin_2020_HIV_bulkBCR_prep_pseudo_HD_AIRR_batch_1_H_HHC19	0	/mounts/scratch07/zichang/231016_Myimmune_TCR/HIV_HD_downsize_dmin005/HDHIVnega/H/HHC19.tsv
mounts_scratch07_zichang_230308_Roskin_2020_HIV_bulkBCR_prep_pseudo_HIVnega_AIRR_H_HIVnegS019	0	/mounts/scratch07/zichang/231016_Myimmune_TCR/HIV_HD_downsize_dmin005/HDHIVnega/H/HIVnegS019.tsv
mounts_scratch07_zichang_230308_Roskin_2020_HIV_bulkBCR_prep_pseudo_HD_AIRR_batch_1_H_HHC20	0	/mounts/scratch07/zichang/231016_Myimmune_TCR/HIV_HD_downsize_dmin005/HDHIVnega/H/HHC20.tsv
mounts_scratch07_zichang_230308_Roskin_2020_HIV_bulkBCR_prep_pseudo_HIVnega_AIRR_H_HIVnegS020	0	/mounts/scratch07/zichang/231016_Myimmune_TCR/HIV_HD_downsize_dmin005/HDHIVnega/H/HIVnegS020.tsv
mounts_scratch07_zichang_230308_Roskin_2020_HIV_bulkBCR_prep_pseudo_HD_AIRR_batch_1_H_HHC21	0	/mounts/scratch07/zichang/231016_Myimmune_TCR/HIV_HD_downsize_dmin005/HDHIVnega/H/HHC21.tsv
mounts_scratch07_zichang_230308_Roskin_2020_HIV_bulkBCR_prep_pseudo_HIVnega_AIRR_H_HIVnegS021	0	/mounts/scratch07/zichang/231016_Myimmune_TCR/HIV_HD_downsize_dmin005/HDHIVnega/H/HIVnegS021.tsv
mounts_scratch07_zichang_230308_Roskin_2020_HIV_bulkBCR_prep_pseudo_HD_AIRR_batch_1_H_HHC22	0	/mounts/scratch07/zichang/231016_Myimmune_TCR/HIV_HD_downsize_dmin005/HDHIVnega/H/HHC22.tsv
mounts_scratch07_zichang_230308_Roskin_2020_HIV_bulkBCR_prep_pseudo_HIVnega_AIRR_H_HIVnegS022	0	/mounts/scratch07/zichang/231016_Myimmune_TCR/HIV_HD_downsize_dmin005/HDHIVnega/H/HIVnegS022.tsv
mounts_scratch07_zichang_230308_Roskin_2020_HIV_bulkBCR_prep_pseudo_HD_AIRR_batch_1_H_HHC26	0	/mounts/scratch07/zichang/231016_Myimmune_TCR/HIV_HD_downsize_dmin005/HDHIVnega/H/HHC26.tsv
mounts_scratch07_zichang_230308_Roskin_2020_HIV_bulkBCR_prep_pseudo_HIVnega_AIRR_H_HIVnegS023	0	/mounts/scratch07/zichang/231016_Myimmune_TCR/HIV_HD_downsize_dmin005/HDHIVnega/H/HIVnegS023.tsv
mounts_scratch07_zichang_230308_Roskin_2020_HIV_bulkBCR_prep_pseudo_HD_AIRR_batch_1_H_HHC27	0	/mounts/scratch07/zichang/231016_Myimmune_TCR/HIV_HD_downsize_dmin005/HDHIVnega/H/HHC27.tsv
mounts_scratch07_zichang_230308_Roskin_2020_HIV_bulkBCR_prep_pseudo_HIVnega_AIRR_H_HIVnegS024	0	/mounts/scratch07/zichang/231016_Myimmune_TCR/HIV_HD_downsize_dmin005/HDHIVnega/H/HIVnegS024.tsv
mounts_scratch07_zichang_230308_Roskin_2020_HIV_bulkBCR_prep_pseudo_HD_AIRR_batch_1_H_HHC28	0	/mounts/scratch07/zichang/231016_Myimmune_TCR/HIV_HD_downsize_dmin005/HDHIVnega/H/HHC28.tsv
mounts_scratch07_zichang_230308_Roskin_2020_HIV_bulkBCR_prep_pseudo_HIVnega_AIRR_H_HIVnegS025	0	/mounts/scratch07/zichang/231016_Myimmune_TCR/HIV_HD_downsize_dmin005/HDHIVnega/H/HIVnegS025.tsv
mounts_scratch07_zichang_230308_Roskin_2020_HIV_bulkBCR_prep_pseudo_HD_AIRR_batch_1_H_HHC29	0	/mounts/scratch07/zichang/231016_Myimmune_TCR/HIV_HD_downsize_dmin005/HDHIVnega/H/HHC29.tsv
mounts_scratch07_zichang_230308_Roskin_2020_HIV_bulkBCR_prep_pseudo_HIVnega_AIRR_H_HIVnegS026	0	/mounts/scratch07/zichang/231016_Myimmune_TCR/HIV_HD_downsize_dmin005/HDHIVnega/H/HIVnegS026.tsv
mounts_scratch07_zichang_230308_Roskin_2020_HIV_bulkBCR_prep_pseudo_HD_AIRR_batch_1_H_HHC30	0	/mounts/scratch07/zichang/231016_Myimmune_TCR/HIV_HD_downsize_dmin005/HDHIVnega/H/HHC30.tsv
mounts_scratch07_zichang_230308_Roskin_2020_HIV_bulkBCR_prep_pseudo_HIVnega_AIRR_H_HIVnegS027	0	/mounts/scratch07/zichang/231016_Myimmune_TCR/HIV_HD_downsize_dmin005/HDHIVnega/H/HIVnegS027.tsv
mounts_scratch07_zichang_230308_Roskin_2020_HIV_bulkBCR_prep_pseudo_HD_AIRR_batch_1_H_HHC31	0	/mounts/scratch07/zichang/231016_Myimmune_TCR/HIV_HD_downsize_dmin005/HDHIVnega/H/HHC31.tsv
mounts_scratch07_zichang_230308_Roskin_2020_HIV_bulkBCR_prep_pseudo_HIVnega_AIRR_H_HIVnegS028	0	/mounts/scratch07/zichang/231016_Myimmune_TCR/HIV_HD_downsize_dmin005/HDHIVnega/H/HIVnegS028.tsv
mounts_scratch07_zichang_230308_Roskin_2020_HIV_bulkBCR_prep_pseudo_HD_AIRR_batch_1_H_HHC32	0	/mounts/scratch07/zichang/231016_Myimmune_TCR/HIV_HD_downsize_dmin005/HDHIVnega/H/HHC32.tsv
mounts_scratch07_zichang_230308_Roskin_2020_HIV_bulkBCR_prep_pseudo_HIVnega_AIRR_H_HIVnegS029	0	/mounts/scratch07/zichang/231016_Myimmune_TCR/HIV_HD_downsize_dmin005/HDHIVnega/H/HIVnegS029.tsv
mounts_scratch07_zichang_230308_Roskin_2020_HIV_bulkBCR_prep_pseudo_HD_AIRR_batch_1_H_HHC33	0	/mounts/scratch07/zichang/231016_Myimmune_TCR/HIV_HD_downsize_dmin005/HDHIVnega/H/HHC33.tsv
mounts_scratch07_zichang_230308_Roskin_2020_HIV_bulkBCR_prep_pseudo_HIVnega_AIRR_H_HIVnegS030	0	/mounts/scratch07/zichang/231016_Myimmune_TCR/HIV_HD_downsize_dmin005/HDHIVnega/H/HIVnegS030.tsv
mounts_scratch07_zichang_230308_Roskin_2020_HIV_bulkBCR_prep_pseudo_HD_AIRR_batch_1_H_HHC34	0	/mounts/scratch07/zichang/231016_Myimmune_TCR/HIV_HD_downsize_dmin005/HDHIVnega/H/HHC34.tsv
mounts_scratch07_zichang_230308_Roskin_2020_HIV_bulkBCR_prep_pseudo_HIVnega_AIRR_H_HIVnegS031	0	/mounts/scratch07/zichang/231016_Myimmune_TCR/HIV_HD_downsize_dmin005/HDHIVnega/H/HIVnegS031.tsv
mounts_scratch07_zichang_230308_Roskin_2020_HIV_bulkBCR_prep_pseudo_HD_AIRR_batch_1_H_HHC35	0	/mounts/scratch07/zichang/231016_Myimmune_TCR/HIV_HD_downsize_dmin005/HDHIVnega/H/HHC35.tsv
mounts_scratch07_zichang_230308_Roskin_2020_HIV_bulkBCR_prep_pseudo_HIVnega_AIRR_H_HIVnegS032	0	/mounts/scratch07/zichang/231016_Myimmune_TCR/HIV_HD_downsize_dmin005/HDHIVnega/H/HIVnegS032.tsv
mounts_scratch07_zichang_230308_Roskin_2020_HIV_bulkBCR_prep_pseudo_HIVnega_AIRR_H_HIVnegS033	0	/mounts/scratch07/zichang/231016_Myimmune_TCR/HIV_HD_downsize_dmin005/HDHIVnega/H/HIVnegS033.tsv
mounts_scratch07_zichang_230308_Roskin_2020_HIV_bulkBCR_prep_pseudo_HD_AIRR_batch_2_H_HHC36	0	/mounts/scratch07/zichang/231016_Myimmune_TCR/HIV_HD_downsize_dmin005/HDHIVnega/H/HHC36.tsv
mounts_scratch07_zichang_230308_Roskin_2020_HIV_bulkBCR_prep_pseudo_HIVnega_AIRR_H_HIVnegS034	0	/mounts/scratch07/zichang/231016_Myimmune_TCR/HIV_HD_downsize_dmin005/HDHIVnega/H/HIVnegS034.tsv
mounts_scratch07_zichang_230308_Roskin_2020_HIV_bulkBCR_prep_pseudo_HD_AIRR_batch_2_H_HHC37	0	/mounts/scratch07/zichang/231016_Myimmune_TCR/HIV_HD_downsize_dmin005/HDHIVnega/H/HHC37.tsv
mounts_scratch07_zichang_230308_Roskin_2020_HIV_bulkBCR_prep_pseudo_HIVnega_AIRR_H_HIVnegS035	0	/mounts/scratch07/zichang/231016_Myimmune_TCR/HIV_HD_downsize_dmin005/HDHIVnega/H/HIVnegS035.tsv
mounts_scratch07_zichang_230308_Roskin_2020_HIV_bulkBCR_prep_pseudo_HIVnega_AIRR_H_HIVnegS036	0	/mounts/scratch07/zichang/231016_Myimmune_TCR/HIV_HD_downsize_dmin005/HDHIVnega/H/HIVnegS036.tsv
mounts_scratch07_zichang_230308_Roskin_2020_HIV_bulkBCR_prep_pseudo_HD_AIRR_batch_2_H_HHC39	0	/mounts/scratch07/zichang/231016_Myimmune_TCR/HIV_HD_downsize_dmin005/HDHIVnega/H/HHC39.tsv
mounts_scratch07_zichang_230308_Roskin_2020_HIV_bulkBCR_prep_pseudo_HD_AIRR_batch_2_H_HHC40	0	/mounts/scratch07/zichang/231016_Myimmune_TCR/HIV_HD_downsize_dmin005/HDHIVnega/H/HHC40.tsv
mounts_scratch07_zichang_230308_Roskin_2020_HIV_bulkBCR_prep_pseudo_HIVnega_AIRR_H_HIVnegS037	0	/mounts/scratch07/zichang/231016_Myimmune_TCR/HIV_HD_downsize_dmin005/HDHIVnega/H/HIVnegS037.tsv
mounts_scratch07_zichang_230308_Roskin_2020_HIV_bulkBCR_prep_pseudo_HIVnega_AIRR_H_HIVnegS038	0	/mounts/scratch07/zichang/231016_Myimmune_TCR/HIV_HD_downsize_dmin005/HDHIVnega/H/HIVnegS038.tsv
mounts_scratch07_zichang_230308_Roskin_2020_HIV_bulkBCR_prep_pseudo_HD_AIRR_batch_2_H_HHC41	0	/mounts/scratch07/zichang/231016_Myimmune_TCR/HIV_HD_downsize_dmin005/HDHIVnega/H/HHC41.tsv
mounts_scratch07_zichang_230308_Roskin_2020_HIV_bulkBCR_prep_pseudo_HD_AIRR_batch_2_H_HHC42	0	/mounts/scratch07/zichang/231016_Myimmune_TCR/HIV_HD_downsize_dmin005/HDHIVnega/H/HHC42.tsv
mounts_scratch07_zichang_230308_Roskin_2020_HIV_bulkBCR_prep_pseudo_HIVnega_AIRR_H_HIVnegS039	0	/mounts/scratch07/zichang/231016_Myimmune_TCR/HIV_HD_downsize_dmin005/HDHIVnega/H/HIVnegS039.tsv
mounts_scratch07_zichang_230308_Roskin_2020_HIV_bulkBCR_prep_pseudo_HD_AIRR_batch_2_H_HHC43	0	/mounts/scratch07/zichang/231016_Myimmune_TCR/HIV_HD_downsize_dmin005/HDHIVnega/H/HHC43.tsv
mounts_scratch07_zichang_230308_Roskin_2020_HIV_bulkBCR_prep_pseudo_HIVnega_AIRR_H_HIVnegS040	0	/mounts/scratch07/zichang/231016_Myimmune_TCR/HIV_HD_downsize_dmin005/HDHIVnega/H/HIVnegS040.tsv
mounts_scratch07_zichang_230308_Roskin_2020_HIV_bulkBCR_prep_pseudo_HD_AIRR_batch_2_H_HHC44	0	/mounts/scratch07/zichang/231016_Myimmune_TCR/HIV_HD_downsize_dmin005/HDHIVnega/H/HHC44.tsv
mounts_scratch07_zichang_230308_Roskin_2020_HIV_bulkBCR_prep_pseudo_HIVnega_AIRR_H_HIVnegS041	0	/mounts/scratch07/zichang/231016_Myimmune_TCR/HIV_HD_downsize_dmin005/HDHIVnega/H/HIVnegS041.tsv
mounts_scratch07_zichang_230308_Roskin_2020_HIV_bulkBCR_prep_pseudo_HD_AIRR_batch_2_H_HHC45	0	/mounts/scratch07/zichang/231016_Myimmune_TCR/HIV_HD_downsize_dmin005/HDHIVnega/H/HHC45.tsv
mounts_scratch07_zichang_230308_Roskin_2020_HIV_bulkBCR_prep_pseudo_HIVnega_AIRR_H_HIVnegS042	0	/mounts/scratch07/zichang/231016_Myimmune_TCR/HIV_HD_downsize_dmin005/HDHIVnega/H/HIVnegS042.tsv
mounts_scratch07_zichang_230308_Roskin_2020_HIV_bulkBCR_prep_pseudo_HD_AIRR_batch_2_H_HHC47	0	/mounts/scratch07/zichang/231016_Myimmune_TCR/HIV_HD_downsize_dmin005/HDHIVnega/H/HHC47.tsv
mounts_scratch07_zichang_230308_Roskin_2020_HIV_bulkBCR_prep_pseudo_HIVnega_AIRR_H_HIVnegS043	0	/mounts/scratch07/zichang/231016_Myimmune_TCR/HIV_HD_downsize_dmin005/HDHIVnega/H/HIVnegS043.tsv
mounts_scratch07_zichang_230308_Roskin_2020_HIV_bulkBCR_prep_pseudo_HD_AIRR_batch_2_H_HHC48	0	/mounts/scratch07/zichang/231016_Myimmune_TCR/HIV_HD_downsize_dmin005/HDHIVnega/H/HHC48.tsv
mounts_scratch07_zichang_230308_Roskin_2020_HIV_bulkBCR_prep_pseudo_HD_AIRR_batch_2_H_HHC49	0	/mounts/scratch07/zichang/231016_Myimmune_TCR/HIV_HD_downsize_dmin005/HDHIVnega/H/HHC49.tsv
mounts_scratch07_zichang_230308_Roskin_2020_HIV_bulkBCR_prep_pseudo_HD_AIRR_batch_1_H_HHC4	0	/mounts/scratch07/zichang/231016_Myimmune_TCR/HIV_HD_downsize_dmin005/HDHIVnega/H/HHC4.tsv
mounts_scratch07_zichang_230308_Roskin_2020_HIV_bulkBCR_prep_pseudo_HD_AIRR_batch_2_H_HHC50	0	/mounts/scratch07/zichang/231016_Myimmune_TCR/HIV_HD_downsize_dmin005/HDHIVnega/H/HHC50.tsv
mounts_scratch07_zichang_230308_Roskin_2020_HIV_bulkBCR_prep_pseudo_HD_AIRR_batch_2_H_HHC51	0	/mounts/scratch07/zichang/231016_Myimmune_TCR/HIV_HD_downsize_dmin005/HDHIVnega/H/HHC51.tsv
mounts_scratch07_zichang_230308_Roskin_2020_HIV_bulkBCR_prep_pseudo_HD_AIRR_batch_2_H_HHC52	0	/mounts/scratch07/zichang/231016_Myimmune_TCR/HIV_HD_downsize_dmin005/HDHIVnega/H/HHC52.tsv
mounts_scratch07_zichang_230308_Roskin_2020_HIV_bulkBCR_prep_pseudo_HD_AIRR_batch_3_H_HHC53	0	/mounts/scratch07/zichang/231016_Myimmune_TCR/HIV_HD_downsize_dmin005/HDHIVnega/H/HHC53.tsv
mounts_scratch07_zichang_230308_Roskin_2020_HIV_bulkBCR_prep_pseudo_HD_AIRR_batch_3_H_HHC54	0	/mounts/scratch07/zichang/231016_Myimmune_TCR/HIV_HD_downsize_dmin005/HDHIVnega/H/HHC54.tsv
mounts_scratch07_zichang_230308_Roskin_2020_HIV_bulkBCR_prep_pseudo_HD_AIRR_batch_3_H_HHC55	0	/mounts/scratch07/zichang/231016_Myimmune_TCR/HIV_HD_downsize_dmin005/HDHIVnega/H/HHC55.tsv
mounts_scratch07_zichang_230308_Roskin_2020_HIV_bulkBCR_prep_pseudo_HD_AIRR_batch_3_H_HHC57	0	/mounts/scratch07/zichang/231016_Myimmune_TCR/HIV_HD_downsize_dmin005/HDHIVnega/H/HHC57.tsv
mounts_scratch07_zichang_230308_Roskin_2020_HIV_bulkBCR_prep_pseudo_HD_AIRR_batch_3_H_HHC58	0	/mounts/scratch07/zichang/231016_Myimmune_TCR/HIV_HD_downsize_dmin005/HDHIVnega/H/HHC58.tsv
mounts_scratch07_zichang_230308_Roskin_2020_HIV_bulkBCR_prep_pseudo_HD_AIRR_batch_3_H_HHC59	0	/mounts/scratch07/zichang/231016_Myimmune_TCR/HIV_HD_downsize_dmin005/HDHIVnega/H/HHC59.tsv
mounts_scratch07_zichang_230308_Roskin_2020_HIV_bulkBCR_prep_pseudo_HD_AIRR_batch_1_H_HHC5	0	/mounts/scratch07/zichang/231016_Myimmune_TCR/HIV_HD_downsize_dmin005/HDHIVnega/H/HHC5.tsv
mounts_scratch07_zichang_230308_Roskin_2020_HIV_bulkBCR_prep_pseudo_HD_AIRR_batch_3_H_HHC60	0	/mounts/scratch07/zichang/231016_Myimmune_TCR/HIV_HD_downsize_dmin005/HDHIVnega/H/HHC60.tsv
mounts_scratch07_zichang_230308_Roskin_2020_HIV_bulkBCR_prep_pseudo_HD_AIRR_batch_3_H_HHC61	0	/mounts/scratch07/zichang/231016_Myimmune_TCR/HIV_HD_downsize_dmin005/HDHIVnega/H/HHC61.tsv
mounts_scratch07_zichang_230308_Roskin_2020_HIV_bulkBCR_prep_pseudo_HD_AIRR_batch_3_H_HHC62	0	/mounts/scratch07/zichang/231016_Myimmune_TCR/HIV_HD_downsize_dmin005/HDHIVnega/H/HHC62.tsv
mounts_scratch07_zichang_230308_Roskin_2020_HIV_bulkBCR_prep_pseudo_HD_AIRR_batch_3_H_HHC63	0	/mounts/scratch07/zichang/231016_Myimmune_TCR/HIV_HD_downsize_dmin005/HDHIVnega/H/HHC63.tsv
mounts_scratch07_zichang_230308_Roskin_2020_HIV_bulkBCR_prep_pseudo_HD_AIRR_batch_3_H_HHC64	0	/mounts/scratch07/zichang/231016_Myimmune_TCR/HIV_HD_downsize_dmin005/HDHIVnega/H/HHC64.tsv
mounts_scratch07_zichang_230308_Roskin_2020_HIV_bulkBCR_prep_pseudo_HD_AIRR_batch_3_H_HHC65	0	/mounts/scratch07/zichang/231016_Myimmune_TCR/HIV_HD_downsize_dmin005/HDHIVnega/H/HHC65.tsv
mounts_scratch07_zichang_230308_Roskin_2020_HIV_bulkBCR_prep_pseudo_HD_AIRR_batch_3_H_HHC67	0	/mounts/scratch07/zichang/231016_Myimmune_TCR/HIV_HD_downsize_dmin005/HDHIVnega/H/HHC67.tsv
mounts_scratch07_zichang_230308_Roskin_2020_HIV_bulkBCR_prep_pseudo_HD_AIRR_batch_3_H_HHC68	0	/mounts/scratch07/zichang/231016_Myimmune_TCR/HIV_HD_downsize_dmin005/HDHIVnega/H/HHC68.tsv
mounts_scratch07_zichang_230308_Roskin_2020_HIV_bulkBCR_prep_pseudo_HD_AIRR_batch_3_H_HHC69	0	/mounts/scratch07/zichang/231016_Myimmune_TCR/HIV_HD_downsize_dmin005/HDHIVnega/H/HHC69.tsv
mounts_scratch07_zichang_230308_Roskin_2020_HIV_bulkBCR_prep_pseudo_HD_AIRR_batch_1_H_HHC6	0	/mounts/scratch07/zichang/231016_Myimmune_TCR/HIV_HD_downsize_dmin005/HDHIVnega/H/HHC6.tsv
mounts_scratch07_zichang_230308_Roskin_2020_HIV_bulkBCR_prep_pseudo_HD_AIRR_batch_4_H_HHC70	0	/mounts/scratch07/zichang/231016_Myimmune_TCR/HIV_HD_downsize_dmin005/HDHIVnega/H/HHC70.tsv
mounts_scratch07_zichang_230308_Roskin_2020_HIV_bulkBCR_prep_pseudo_HD_AIRR_batch_4_H_HHC71	0	/mounts/scratch07/zichang/231016_Myimmune_TCR/HIV_HD_downsize_dmin005/HDHIVnega/H/HHC71.tsv
mounts_scratch07_zichang_230308_Roskin_2020_HIV_bulkBCR_prep_pseudo_HD_AIRR_batch_4_H_HHC72	0	/mounts/scratch07/zichang/231016_Myimmune_TCR/HIV_HD_downsize_dmin005/HDHIVnega/H/HHC72.tsv
mounts_scratch07_zichang_230308_Roskin_2020_HIV_bulkBCR_prep_pseudo_HD_AIRR_batch_4_H_HHC73	0	/mounts/scratch07/zichang/231016_Myimmune_TCR/HIV_HD_downsize_dmin005/HDHIVnega/H/HHC73.tsv
mounts_scratch07_zichang_230308_Roskin_2020_HIV_bulkBCR_prep_pseudo_HD_AIRR_batch_4_H_HHC74	0	/mounts/scratch07/zichang/231016_Myimmune_TCR/HIV_HD_downsize_dmin005/HDHIVnega/H/HHC74.tsv
mounts_scratch07_zichang_230308_Roskin_2020_HIV_bulkBCR_prep_pseudo_HD_AIRR_batch_4_H_HHC75	0	/mounts/scratch07/zichang/231016_Myimmune_TCR/HIV_HD_downsize_dmin005/HDHIVnega/H/HHC75.tsv
mounts_scratch07_zichang_230308_Roskin_2020_HIV_bulkBCR_prep_pseudo_HD_AIRR_batch_4_H_HHC76	0	/mounts/scratch07/zichang/231016_Myimmune_TCR/HIV_HD_downsize_dmin005/HDHIVnega/H/HHC76.tsv
mounts_scratch07_zichang_230308_Roskin_2020_HIV_bulkBCR_prep_pseudo_HD_AIRR_batch_4_H_HHC77	0	/mounts/scratch07/zichang/231016_Myimmune_TCR/HIV_HD_downsize_dmin005/HDHIVnega/H/HHC77.tsv
mounts_scratch07_zichang_230308_Roskin_2020_HIV_bulkBCR_prep_pseudo_HD_AIRR_batch_4_H_HHC78	0	/mounts/scratch07/zichang/231016_Myimmune_TCR/HIV_HD_downsize_dmin005/HDHIVnega/H/HHC78.tsv
mounts_scratch07_zichang_230308_Roskin_2020_HIV_bulkBCR_prep_pseudo_HD_AIRR_batch_4_H_HHC80	0	/mounts/scratch07/zichang/231016_Myimmune_TCR/HIV_HD_downsize_dmin005/HDHIVnega/H/HHC80.tsv
mounts_scratch07_zichang_230308_Roskin_2020_HIV_bulkBCR_prep_pseudo_HD_AIRR_batch_4_H_HHC84	0	/mounts/scratch07/zichang/231016_Myimmune_TCR/HIV_HD_downsize_dmin005/HDHIVnega/H/HHC84.tsv
mounts_scratch07_zichang_230308_Roskin_2020_HIV_bulkBCR_prep_pseudo_HD_AIRR_batch_4_H_HHC85	0	/mounts/scratch07/zichang/231016_Myimmune_TCR/HIV_HD_downsize_dmin005/HDHIVnega/H/HHC85.tsv
mounts_scratch07_zichang_230308_Roskin_2020_HIV_bulkBCR_prep_pseudo_HD_AIRR_batch_4_H_HHC87	0	/mounts/scratch07/zichang/231016_Myimmune_TCR/HIV_HD_downsize_dmin005/HDHIVnega/H/HHC87.tsv
mounts_scratch07_zichang_230308_Roskin_2020_HIV_bulkBCR_prep_pseudo_HD_AIRR_batch_5_H_HHC89	0	/mounts/scratch07/zichang/231016_Myimmune_TCR/HIV_HD_downsize_dmin005/HDHIVnega/H/HHC89.tsv
mounts_scratch07_zichang_230308_Roskin_2020_HIV_bulkBCR_prep_pseudo_HD_AIRR_batch_1_H_HHC8	0	/mounts/scratch07/zichang/231016_Myimmune_TCR/HIV_HD_downsize_dmin005/HDHIVnega/H/HHC8.tsv
mounts_scratch07_zichang_230308_Roskin_2020_HIV_bulkBCR_prep_pseudo_HD_AIRR_batch_5_H_HHC92	0	/mounts/scratch07/zichang/231016_Myimmune_TCR/HIV_HD_downsize_dmin005/HDHIVnega/H/HHC92.tsv
mounts_scratch07_zichang_230308_Roskin_2020_HIV_bulkBCR_prep_pseudo_HD_AIRR_batch_5_H_HHC93	0	/mounts/scratch07/zichang/231016_Myimmune_TCR/HIV_HD_downsize_dmin005/HDHIVnega/H/HHC93.tsv
mounts_scratch07_zichang_230308_Roskin_2020_HIV_bulkBCR_prep_pseudo_HD_AIRR_batch_5_H_HHC94	0	/mounts/scratch07/zichang/231016_Myimmune_TCR/HIV_HD_downsize_dmin005/HDHIVnega/H/HHC94.tsv
mounts_scratch07_zichang_230308_Roskin_2020_HIV_bulkBCR_prep_pseudo_HD_AIRR_batch_5_H_HHC95	0	/mounts/scratch07/zichang/231016_Myimmune_TCR/HIV_HD_downsize_dmin005/HDHIVnega/H/HHC95.tsv
mounts_scratch07_zichang_230308_Roskin_2020_HIV_bulkBCR_prep_pseudo_HD_AIRR_batch_5_H_HHC96	0	/mounts/scratch07/zichang/231016_Myimmune_TCR/HIV_HD_downsize_dmin005/HDHIVnega/H/HHC96.tsv
mounts_scratch07_zichang_230308_Roskin_2020_HIV_bulkBCR_prep_pseudo_HD_AIRR_batch_1_H_HHC9	0	/mounts/scratch07/zichang/231016_Myimmune_TCR/HIV_HD_downsize_dmin005/HDHIVnega/H/HHC9.tsv
mounts_scratch07_zichang_230308_Roskin_2020_HIV_bulkBCR_prep_pseudo_HIVposi_AIRR_batch_1_H_S001BroadbNab	1	/mounts/scratch07/zichang/231016_Myimmune_TCR/HIV_HD_downsize_dmin005/HIVposi/H/S001BroadbNab.tsv
mounts_scratch07_zichang_230308_Roskin_2020_HIV_bulkBCR_prep_pseudo_HIVposi_AIRR_batch_1_H_S010NobNab	1	/mounts/scratch07/zichang/231016_Myimmune_TCR/HIV_HD_downsize_dmin005/HIVposi/H/S010NobNab.tsv
mounts_scratch07_zichang_230308_Roskin_2020_HIV_bulkBCR_prep_pseudo_HIVposi_AIRR_batch_1_H_S013BroadbNab	1	/mounts/scratch07/zichang/231016_Myimmune_TCR/HIV_HD_downsize_dmin005/HIVposi/H/S013BroadbNab.tsv
mounts_scratch07_zichang_230308_Roskin_2020_HIV_bulkBCR_prep_pseudo_HIVposi_AIRR_batch_1_H_S002NobNab	1	/mounts/scratch07/zichang/231016_Myimmune_TCR/HIV_HD_downsize_dmin005/HIVposi/H/S002NobNab.tsv
mounts_scratch07_zichang_230308_Roskin_2020_HIV_bulkBCR_prep_pseudo_HIVposi_AIRR_batch_1_H_S011BroadbNab	1	/mounts/scratch07/zichang/231016_Myimmune_TCR/HIV_HD_downsize_dmin005/HIVposi/H/S011BroadbNab.tsv
mounts_scratch07_zichang_230308_Roskin_2020_HIV_bulkBCR_prep_pseudo_HIVposi_AIRR_batch_1_H_S003BroadbNab	1	/mounts/scratch07/zichang/231016_Myimmune_TCR/HIV_HD_downsize_dmin005/HIVposi/H/S003BroadbNab.tsv
mounts_scratch07_zichang_230308_Roskin_2020_HIV_bulkBCR_prep_pseudo_HIVposi_AIRR_batch_1_H_S009BroadbNab	1	/mounts/scratch07/zichang/231016_Myimmune_TCR/HIV_HD_downsize_dmin005/HIVposi/H/S009BroadbNab.tsv
mounts_scratch07_zichang_230308_Roskin_2020_HIV_bulkBCR_prep_pseudo_HIVposi_AIRR_batch_1_H_S005BroadbNab	1	/mounts/scratch07/zichang/231016_Myimmune_TCR/HIV_HD_downsize_dmin005/HIVposi/H/S005BroadbNab.tsv
mounts_scratch07_zichang_230308_Roskin_2020_HIV_bulkBCR_prep_pseudo_HIVposi_AIRR_batch_1_H_S004BroadbNab	1	/mounts/scratch07/zichang/231016_Myimmune_TCR/HIV_HD_downsize_dmin005/HIVposi/H/S004BroadbNab.tsv
mounts_scratch07_zichang_230308_Roskin_2020_HIV_bulkBCR_prep_pseudo_HIVposi_AIRR_batch_1_H_S006BroadbNab	1	/mounts/scratch07/zichang/231016_Myimmune_TCR/HIV_HD_downsize_dmin005/HIVposi/H/S006BroadbNab.tsv
mounts_scratch07_zichang_230308_Roskin_2020_HIV_bulkBCR_prep_pseudo_HIVposi_AIRR_batch_1_H_S012NobNab	1	/mounts/scratch07/zichang/231016_Myimmune_TCR/HIV_HD_downsize_dmin005/HIVposi/H/S012NobNab.tsv
mounts_scratch07_zichang_230308_Roskin_2020_HIV_bulkBCR_prep_pseudo_HIVposi_AIRR_batch_1_H_S007BroadbNab	1	/mounts/scratch07/zichang/231016_Myimmune_TCR/HIV_HD_downsize_dmin005/HIVposi/H/S007BroadbNab.tsv
mounts_scratch07_zichang_230308_Roskin_2020_HIV_bulkBCR_prep_pseudo_HIVposi_AIRR_batch_1_H_S008BroadbNab	1	/mounts/scratch07/zichang/231016_Myimmune_TCR/HIV_HD_downsize_dmin005/HIVposi/H/S008BroadbNab.tsv
mounts_scratch07_zichang_230308_Roskin_2020_HIV_bulkBCR_prep_pseudo_HIVposi_AIRR_batch_1_H_S014BroadbNab	1	/mounts/scratch07/zichang/231016_Myimmune_TCR/HIV_HD_downsize_dmin005/HIVposi/H/S014BroadbNab.tsv
mounts_scratch07_zichang_230308_Roskin_2020_HIV_bulkBCR_prep_pseudo_HIVposi_AIRR_batch_1_H_S015NobNab	1	/mounts/scratch07/zichang/231016_Myimmune_TCR/HIV_HD_downsize_dmin005/HIVposi/H/S015NobNab.tsv
mounts_scratch07_zichang_230308_Roskin_2020_HIV_bulkBCR_prep_pseudo_HIVposi_AIRR_batch_2_H_S033BroadbNab	1	/mounts/scratch07/zichang/231016_Myimmune_TCR/HIV_HD_downsize_dmin005/HIVposi/H/S033BroadbNab.tsv
mounts_scratch07_zichang_230308_Roskin_2020_HIV_bulkBCR_prep_pseudo_HIVposi_AIRR_batch_2_H_S016BroadbNab	1	/mounts/scratch07/zichang/231016_Myimmune_TCR/HIV_HD_downsize_dmin005/HIVposi/H/S016BroadbNab.tsv
mounts_scratch07_zichang_230308_Roskin_2020_HIV_bulkBCR_prep_pseudo_HIVposi_AIRR_batch_2_H_S017NobNab	1	/mounts/scratch07/zichang/231016_Myimmune_TCR/HIV_HD_downsize_dmin005/HIVposi/H/S017NobNab.tsv
mounts_scratch07_zichang_230308_Roskin_2020_HIV_bulkBCR_prep_pseudo_HIVposi_AIRR_batch_2_H_S027BroadbNab	1	/mounts/scratch07/zichang/231016_Myimmune_TCR/HIV_HD_downsize_dmin005/HIVposi/H/S027BroadbNab.tsv
mounts_scratch07_zichang_230308_Roskin_2020_HIV_bulkBCR_prep_pseudo_HIVposi_AIRR_batch_2_H_S034BroadbNab	1	/mounts/scratch07/zichang/231016_Myimmune_TCR/HIV_HD_downsize_dmin005/HIVposi/H/S034BroadbNab.tsv
mounts_scratch07_zichang_230308_Roskin_2020_HIV_bulkBCR_prep_pseudo_HIVposi_AIRR_batch_2_H_S018BroadbNab	1	/mounts/scratch07/zichang/231016_Myimmune_TCR/HIV_HD_downsize_dmin005/HIVposi/H/S018BroadbNab.tsv
mounts_scratch07_zichang_230308_Roskin_2020_HIV_bulkBCR_prep_pseudo_HIVposi_AIRR_batch_2_H_S030BroadbNab	1	/mounts/scratch07/zichang/231016_Myimmune_TCR/HIV_HD_downsize_dmin005/HIVposi/H/S030BroadbNab.tsv
mounts_scratch07_zichang_230308_Roskin_2020_HIV_bulkBCR_prep_pseudo_HIVposi_AIRR_batch_2_H_S035BroadbNab	1	/mounts/scratch07/zichang/231016_Myimmune_TCR/HIV_HD_downsize_dmin005/HIVposi/H/S035BroadbNab.tsv
mounts_scratch07_zichang_230308_Roskin_2020_HIV_bulkBCR_prep_pseudo_HIVposi_AIRR_batch_2_H_S019BroadbNab	1	/mounts/scratch07/zichang/231016_Myimmune_TCR/HIV_HD_downsize_dmin005/HIVposi/H/S019BroadbNab.tsv
mounts_scratch07_zichang_230308_Roskin_2020_HIV_bulkBCR_prep_pseudo_HIVposi_AIRR_batch_2_H_S020BroadbNab	1	/mounts/scratch07/zichang/231016_Myimmune_TCR/HIV_HD_downsize_dmin005/HIVposi/H/S020BroadbNab.tsv
mounts_scratch07_zichang_230308_Roskin_2020_HIV_bulkBCR_prep_pseudo_HIVposi_AIRR_batch_3_H_S036BroadbNab	1	/mounts/scratch07/zichang/231016_Myimmune_TCR/HIV_HD_downsize_dmin005/HIVposi/H/S036BroadbNab.tsv
mounts_scratch07_zichang_230308_Roskin_2020_HIV_bulkBCR_prep_pseudo_HIVposi_AIRR_batch_2_H_S021NobNab	1	/mounts/scratch07/zichang/231016_Myimmune_TCR/HIV_HD_downsize_dmin005/HIVposi/H/S021NobNab.tsv
mounts_scratch07_zichang_230308_Roskin_2020_HIV_bulkBCR_prep_pseudo_HIVposi_AIRR_batch_3_H_S037BroadbNab	1	/mounts/scratch07/zichang/231016_Myimmune_TCR/HIV_HD_downsize_dmin005/HIVposi/H/S037BroadbNab.tsv
mounts_scratch07_zichang_230308_Roskin_2020_HIV_bulkBCR_prep_pseudo_HIVposi_AIRR_batch_2_H_S022BroadbNab	1	/mounts/scratch07/zichang/231016_Myimmune_TCR/HIV_HD_downsize_dmin005/HIVposi/H/S022BroadbNab.tsv
mounts_scratch07_zichang_230308_Roskin_2020_HIV_bulkBCR_prep_pseudo_HIVposi_AIRR_batch_2_H_S031BroadbNab	1	/mounts/scratch07/zichang/231016_Myimmune_TCR/HIV_HD_downsize_dmin005/HIVposi/H/S031BroadbNab.tsv
mounts_scratch07_zichang_230308_Roskin_2020_HIV_bulkBCR_prep_pseudo_HIVposi_AIRR_batch_2_H_S028NobNab	1	/mounts/scratch07/zichang/231016_Myimmune_TCR/HIV_HD_downsize_dmin005/HIVposi/H/S028NobNab.tsv
mounts_scratch07_zichang_230308_Roskin_2020_HIV_bulkBCR_prep_pseudo_HIVposi_AIRR_batch_2_H_S023BroadbNab	1	/mounts/scratch07/zichang/231016_Myimmune_TCR/HIV_HD_downsize_dmin005/HIVposi/H/S023BroadbNab.tsv
mounts_scratch07_zichang_230308_Roskin_2020_HIV_bulkBCR_prep_pseudo_HIVposi_AIRR_batch_3_H_S038BroadbNab	1	/mounts/scratch07/zichang/231016_Myimmune_TCR/HIV_HD_downsize_dmin005/HIVposi/H/S038BroadbNab.tsv
mounts_scratch07_zichang_230308_Roskin_2020_HIV_bulkBCR_prep_pseudo_HIVposi_AIRR_batch_2_H_S024BroadbNab	1	/mounts/scratch07/zichang/231016_Myimmune_TCR/HIV_HD_downsize_dmin005/HIVposi/H/S024BroadbNab.tsv
mounts_scratch07_zichang_230308_Roskin_2020_HIV_bulkBCR_prep_pseudo_HIVposi_AIRR_batch_3_H_S039BroadbNab	1	/mounts/scratch07/zichang/231016_Myimmune_TCR/HIV_HD_downsize_dmin005/HIVposi/H/S039BroadbNab.tsv
mounts_scratch07_zichang_230308_Roskin_2020_HIV_bulkBCR_prep_pseudo_HIVposi_AIRR_batch_2_H_S025BroadbNab	1	/mounts/scratch07/zichang/231016_Myimmune_TCR/HIV_HD_downsize_dmin005/HIVposi/H/S025BroadbNab.tsv
mounts_scratch07_zichang_230308_Roskin_2020_HIV_bulkBCR_prep_pseudo_HIVposi_AIRR_batch_3_H_S041BroadbNab	1	/mounts/scratch07/zichang/231016_Myimmune_TCR/HIV_HD_downsize_dmin005/HIVposi/H/S041BroadbNab.tsv
mounts_scratch07_zichang_230308_Roskin_2020_HIV_bulkBCR_prep_pseudo_HIVposi_AIRR_batch_2_H_S026BroadbNab	1	/mounts/scratch07/zichang/231016_Myimmune_TCR/HIV_HD_downsize_dmin005/HIVposi/H/S026BroadbNab.tsv
mounts_scratch07_zichang_230308_Roskin_2020_HIV_bulkBCR_prep_pseudo_HIVposi_AIRR_batch_2_H_S032BroadbNab	1	/mounts/scratch07/zichang/231016_Myimmune_TCR/HIV_HD_downsize_dmin005/HIVposi/H/S032BroadbNab.tsv
mounts_scratch07_zichang_230308_Roskin_2020_HIV_bulkBCR_prep_pseudo_HIVposi_AIRR_batch_2_H_S029NobNab	1	/mounts/scratch07/zichang/231016_Myimmune_TCR/HIV_HD_downsize_dmin005/HIVposi/H/S029NobNab.tsv
mounts_scratch07_zichang_230308_Roskin_2020_HIV_bulkBCR_prep_pseudo_HIVposi_AIRR_batch_3_H_S040BroadbNab	1	/mounts/scratch07/zichang/231016_Myimmune_TCR/HIV_HD_downsize_dmin005/HIVposi/H/S040BroadbNab.tsv
mounts_scratch07_zichang_230308_Roskin_2020_HIV_bulkBCR_prep_pseudo_HIVposi_AIRR_batch_3_H_S081NobNab	1	/mounts/scratch07/zichang/231016_Myimmune_TCR/HIV_HD_downsize_dmin005/HIVposi/H/S081NobNab.tsv
mounts_scratch07_zichang_230308_Roskin_2020_HIV_bulkBCR_prep_pseudo_HIVposi_AIRR_batch_3_H_S042NobNab	1	/mounts/scratch07/zichang/231016_Myimmune_TCR/HIV_HD_downsize_dmin005/HIVposi/H/S042NobNab.tsv
mounts_scratch07_zichang_230308_Roskin_2020_HIV_bulkBCR_prep_pseudo_HIVposi_AIRR_batch_3_H_S086NobNab	1	/mounts/scratch07/zichang/231016_Myimmune_TCR/HIV_HD_downsize_dmin005/HIVposi/H/S086NobNab.tsv
mounts_scratch07_zichang_230308_Roskin_2020_HIV_bulkBCR_prep_pseudo_HIVposi_AIRR_batch_3_H_S043NobNab	1	/mounts/scratch07/zichang/231016_Myimmune_TCR/HIV_HD_downsize_dmin005/HIVposi/H/S043NobNab.tsv
mounts_scratch07_zichang_230308_Roskin_2020_HIV_bulkBCR_prep_pseudo_HIVposi_AIRR_batch_3_H_S044BroadbNab	1	/mounts/scratch07/zichang/231016_Myimmune_TCR/HIV_HD_downsize_dmin005/HIVposi/H/S044BroadbNab.tsv
mounts_scratch07_zichang_230308_Roskin_2020_HIV_bulkBCR_prep_pseudo_HIVposi_AIRR_batch_3_H_S083NobNab	1	/mounts/scratch07/zichang/231016_Myimmune_TCR/HIV_HD_downsize_dmin005/HIVposi/H/S083NobNab.tsv
mounts_scratch07_zichang_230308_Roskin_2020_HIV_bulkBCR_prep_pseudo_HIVposi_AIRR_batch_3_H_S087NobNab	1	/mounts/scratch07/zichang/231016_Myimmune_TCR/HIV_HD_downsize_dmin005/HIVposi/H/S087NobNab.tsv
mounts_scratch07_zichang_230308_Roskin_2020_HIV_bulkBCR_prep_pseudo_HIVposi_AIRR_batch_3_H_S045BroadbNab	1	/mounts/scratch07/zichang/231016_Myimmune_TCR/HIV_HD_downsize_dmin005/HIVposi/H/S045BroadbNab.tsv
mounts_scratch07_zichang_230308_Roskin_2020_HIV_bulkBCR_prep_pseudo_HIVposi_AIRR_batch_3_H_S045NobNab	1	/mounts/scratch07/zichang/231016_Myimmune_TCR/HIV_HD_downsize_dmin005/HIVposi/H/S045NobNab.tsv
mounts_scratch07_zichang_230308_Roskin_2020_HIV_bulkBCR_prep_pseudo_HIVposi_AIRR_batch_3_H_S046BroadbNab	1	/mounts/scratch07/zichang/231016_Myimmune_TCR/HIV_HD_downsize_dmin005/HIVposi/H/S046BroadbNab.tsv
mounts_scratch07_zichang_230308_Roskin_2020_HIV_bulkBCR_prep_pseudo_HIVposi_AIRR_batch_3_H_S046NobNab	1	/mounts/scratch07/zichang/231016_Myimmune_TCR/HIV_HD_downsize_dmin005/HIVposi/H/S046NobNab.tsv
mounts_scratch07_zichang_230308_Roskin_2020_HIV_bulkBCR_prep_pseudo_HIVposi_AIRR_batch_3_H_S084NobNab	1	/mounts/scratch07/zichang/231016_Myimmune_TCR/HIV_HD_downsize_dmin005/HIVposi/H/S084NobNab.tsv
mounts_scratch07_zichang_230308_Roskin_2020_HIV_bulkBCR_prep_pseudo_HIVposi_AIRR_batch_3_H_S047BroadbNab	1	/mounts/scratch07/zichang/231016_Myimmune_TCR/HIV_HD_downsize_dmin005/HIVposi/H/S047BroadbNab.tsv
mounts_scratch07_zichang_230308_Roskin_2020_HIV_bulkBCR_prep_pseudo_HIVposi_AIRR_batch_3_H_S047NobNab	1	/mounts/scratch07/zichang/231016_Myimmune_TCR/HIV_HD_downsize_dmin005/HIVposi/H/S047NobNab.tsv
mounts_scratch07_zichang_230308_Roskin_2020_HIV_bulkBCR_prep_pseudo_HIVposi_AIRR_batch_3_H_S078BroadbNab	1	/mounts/scratch07/zichang/231016_Myimmune_TCR/HIV_HD_downsize_dmin005/HIVposi/H/S078BroadbNab.tsv
mounts_scratch07_zichang_230308_Roskin_2020_HIV_bulkBCR_prep_pseudo_HIVposi_AIRR_batch_3_H_S079NobNab	1	/mounts/scratch07/zichang/231016_Myimmune_TCR/HIV_HD_downsize_dmin005/HIVposi/H/S079NobNab.tsv
mounts_scratch07_zichang_230308_Roskin_2020_HIV_bulkBCR_prep_pseudo_HIVposi_AIRR_batch_3_H_S085NobNab	1	/mounts/scratch07/zichang/231016_Myimmune_TCR/HIV_HD_downsize_dmin005/HIVposi/H/S085NobNab.tsv
mounts_scratch07_zichang_230308_Roskin_2020_HIV_bulkBCR_prep_pseudo_HIVposi_AIRR_batch_3_H_S082NobNab	1	/mounts/scratch07/zichang/231016_Myimmune_TCR/HIV_HD_downsize_dmin005/HIVposi/H/S082NobNab.tsv
mounts_scratch07_zichang_230308_Roskin_2020_HIV_bulkBCR_prep_pseudo_HIVposi_AIRR_batch_3_H_S080BroadbNab	1	/mounts/scratch07/zichang/231016_Myimmune_TCR/HIV_HD_downsize_dmin005/HIVposi/H/S080BroadbNab.tsv
mounts_scratch07_zichang_230308_Roskin_2020_HIV_bulkBCR_prep_pseudo_HIVposi_AIRR_batch_4_H_S061NobNab	1	/mounts/scratch07/zichang/231016_Myimmune_TCR/HIV_HD_downsize_dmin005/HIVposi/H/S061NobNab.tsv
mounts_scratch07_zichang_230308_Roskin_2020_HIV_bulkBCR_prep_pseudo_HIVposi_AIRR_batch_4_H_S048NobNab	1	/mounts/scratch07/zichang/231016_Myimmune_TCR/HIV_HD_downsize_dmin005/HIVposi/H/S048NobNab.tsv
mounts_scratch07_zichang_230308_Roskin_2020_HIV_bulkBCR_prep_pseudo_HIVposi_AIRR_batch_4_H_S058NobNab	1	/mounts/scratch07/zichang/231016_Myimmune_TCR/HIV_HD_downsize_dmin005/HIVposi/H/S058NobNab.tsv
mounts_scratch07_zichang_230308_Roskin_2020_HIV_bulkBCR_prep_pseudo_HIVposi_AIRR_batch_4_H_S049BroadbNab	1	/mounts/scratch07/zichang/231016_Myimmune_TCR/HIV_HD_downsize_dmin005/HIVposi/H/S049BroadbNab.tsv
mounts_scratch07_zichang_230308_Roskin_2020_HIV_bulkBCR_prep_pseudo_HIVposi_AIRR_batch_4_H_S062NobNab	1	/mounts/scratch07/zichang/231016_Myimmune_TCR/HIV_HD_downsize_dmin005/HIVposi/H/S062NobNab.tsv
mounts_scratch07_zichang_230308_Roskin_2020_HIV_bulkBCR_prep_pseudo_HIVposi_AIRR_batch_4_H_S049NobNab	1	/mounts/scratch07/zichang/231016_Myimmune_TCR/HIV_HD_downsize_dmin005/HIVposi/H/S049NobNab.tsv
mounts_scratch07_zichang_230308_Roskin_2020_HIV_bulkBCR_prep_pseudo_HIVposi_AIRR_batch_4_H_S050BroadbNab	1	/mounts/scratch07/zichang/231016_Myimmune_TCR/HIV_HD_downsize_dmin005/HIVposi/H/S050BroadbNab.tsv
mounts_scratch07_zichang_230308_Roskin_2020_HIV_bulkBCR_prep_pseudo_HIVposi_AIRR_batch_4_H_S063NobNab	1	/mounts/scratch07/zichang/231016_Myimmune_TCR/HIV_HD_downsize_dmin005/HIVposi/H/S063NobNab.tsv
mounts_scratch07_zichang_230308_Roskin_2020_HIV_bulkBCR_prep_pseudo_HIVposi_AIRR_batch_4_H_S050NobNab	1	/mounts/scratch07/zichang/231016_Myimmune_TCR/HIV_HD_downsize_dmin005/HIVposi/H/S050NobNab.tsv
mounts_scratch07_zichang_230308_Roskin_2020_HIV_bulkBCR_prep_pseudo_HIVposi_AIRR_batch_4_H_S059NobNab	1	/mounts/scratch07/zichang/231016_Myimmune_TCR/HIV_HD_downsize_dmin005/HIVposi/H/S059NobNab.tsv
mounts_scratch07_zichang_230308_Roskin_2020_HIV_bulkBCR_prep_pseudo_HIVposi_AIRR_batch_4_H_S057NobNab	1	/mounts/scratch07/zichang/231016_Myimmune_TCR/HIV_HD_downsize_dmin005/HIVposi/H/S057NobNab.tsv
mounts_scratch07_zichang_230308_Roskin_2020_HIV_bulkBCR_prep_pseudo_HIVposi_AIRR_batch_4_H_S051BroadbNab	1	/mounts/scratch07/zichang/231016_Myimmune_TCR/HIV_HD_downsize_dmin005/HIVposi/H/S051BroadbNab.tsv
mounts_scratch07_zichang_230308_Roskin_2020_HIV_bulkBCR_prep_pseudo_HIVposi_AIRR_batch_4_H_S064NobNab	1	/mounts/scratch07/zichang/231016_Myimmune_TCR/HIV_HD_downsize_dmin005/HIVposi/H/S064NobNab.tsv
mounts_scratch07_zichang_230308_Roskin_2020_HIV_bulkBCR_prep_pseudo_HIVposi_AIRR_batch_4_H_S051NobNab	1	/mounts/scratch07/zichang/231016_Myimmune_TCR/HIV_HD_downsize_dmin005/HIVposi/H/S051NobNab.tsv
mounts_scratch07_zichang_230308_Roskin_2020_HIV_bulkBCR_prep_pseudo_HIVposi_AIRR_batch_4_H_S072NobNab	1	/mounts/scratch07/zichang/231016_Myimmune_TCR/HIV_HD_downsize_dmin005/HIVposi/H/S072NobNab.tsv
mounts_scratch07_zichang_230308_Roskin_2020_HIV_bulkBCR_prep_pseudo_HIVposi_AIRR_batch_4_H_S052BroadbNab	1	/mounts/scratch07/zichang/231016_Myimmune_TCR/HIV_HD_downsize_dmin005/HIVposi/H/S052BroadbNab.tsv
mounts_scratch07_zichang_230308_Roskin_2020_HIV_bulkBCR_prep_pseudo_HIVposi_AIRR_batch_4_H_S065NobNab	1	/mounts/scratch07/zichang/231016_Myimmune_TCR/HIV_HD_downsize_dmin005/HIVposi/H/S065NobNab.tsv
mounts_scratch07_zichang_230308_Roskin_2020_HIV_bulkBCR_prep_pseudo_HIVposi_AIRR_batch_4_H_S052NobNab	1	/mounts/scratch07/zichang/231016_Myimmune_TCR/HIV_HD_downsize_dmin005/HIVposi/H/S052NobNab.tsv
mounts_scratch07_zichang_230308_Roskin_2020_HIV_bulkBCR_prep_pseudo_HIVposi_AIRR_batch_4_H_S060NobNab	1	/mounts/scratch07/zichang/231016_Myimmune_TCR/HIV_HD_downsize_dmin005/HIVposi/H/S060NobNab.tsv
mounts_scratch07_zichang_230308_Roskin_2020_HIV_bulkBCR_prep_pseudo_HIVposi_AIRR_batch_4_H_S053BroadbNab	1	/mounts/scratch07/zichang/231016_Myimmune_TCR/HIV_HD_downsize_dmin005/HIVposi/H/S053BroadbNab.tsv
mounts_scratch07_zichang_230308_Roskin_2020_HIV_bulkBCR_prep_pseudo_HIVposi_AIRR_batch_4_H_S066NobNab	1	/mounts/scratch07/zichang/231016_Myimmune_TCR/HIV_HD_downsize_dmin005/HIVposi/H/S066NobNab.tsv
mounts_scratch07_zichang_230308_Roskin_2020_HIV_bulkBCR_prep_pseudo_HIVposi_AIRR_batch_4_H_S054NobNab	1	/mounts/scratch07/zichang/231016_Myimmune_TCR/HIV_HD_downsize_dmin005/HIVposi/H/S054NobNab.tsv
mounts_scratch07_zichang_230308_Roskin_2020_HIV_bulkBCR_prep_pseudo_HIVposi_AIRR_batch_4_H_S055NobNab	1	/mounts/scratch07/zichang/231016_Myimmune_TCR/HIV_HD_downsize_dmin005/HIVposi/H/S055NobNab.tsv
mounts_scratch07_zichang_230308_Roskin_2020_HIV_bulkBCR_prep_pseudo_HIVposi_AIRR_batch_4_H_S067NobNab	1	/mounts/scratch07/zichang/231016_Myimmune_TCR/HIV_HD_downsize_dmin005/HIVposi/H/S067NobNab.tsv
mounts_scratch07_zichang_230308_Roskin_2020_HIV_bulkBCR_prep_pseudo_HIVposi_AIRR_batch_4_H_S056NobNab	1	/mounts/scratch07/zichang/231016_Myimmune_TCR/HIV_HD_downsize_dmin005/HIVposi/H/S056NobNab.tsv
mounts_scratch07_zichang_230308_Roskin_2020_HIV_bulkBCR_prep_pseudo_HIVposi_AIRR_batch_4_H_S068NobNab	1	/mounts/scratch07/zichang/231016_Myimmune_TCR/HIV_HD_downsize_dmin005/HIVposi/H/S068NobNab.tsv
mounts_scratch07_zichang_230308_Roskin_2020_HIV_bulkBCR_prep_pseudo_HIVposi_AIRR_batch_4_H_S069NobNab	1	/mounts/scratch07/zichang/231016_Myimmune_TCR/HIV_HD_downsize_dmin005/HIVposi/H/S069NobNab.tsv
mounts_scratch07_zichang_230308_Roskin_2020_HIV_bulkBCR_prep_pseudo_HIVposi_AIRR_batch_4_H_S070NobNab	1	/mounts/scratch07/zichang/231016_Myimmune_TCR/HIV_HD_downsize_dmin005/HIVposi/H/S070NobNab.tsv
mounts_scratch07_zichang_230308_Roskin_2020_HIV_bulkBCR_prep_pseudo_HIVposi_AIRR_batch_4_H_S071NobNab	1	/mounts/scratch07/zichang/231016_Myimmune_TCR/HIV_HD_downsize_dmin005/HIVposi/H/S071NobNab.tsv
mounts_scratch07_zichang_230308_Roskin_2020_HIV_bulkBCR_prep_pseudo_HIVposi_AIRR_batch_4_H_S073NobNab	1	/mounts/scratch07/zichang/231016_Myimmune_TCR/HIV_HD_downsize_dmin005/HIVposi/H/S073NobNab.tsv
mounts_scratch07_zichang_230308_Roskin_2020_HIV_bulkBCR_prep_pseudo_HIVposi_AIRR_batch_4_H_S074NobNab	1	/mounts/scratch07/zichang/231016_Myimmune_TCR/HIV_HD_downsize_dmin005/HIVposi/H/S074NobNab.tsv
mounts_scratch07_zichang_230308_Roskin_2020_HIV_bulkBCR_prep_pseudo_HIVposi_AIRR_batch_4_H_S075NobNab	1	/mounts/scratch07/zichang/231016_Myimmune_TCR/HIV_HD_downsize_dmin005/HIVposi/H/S075NobNab.tsv
mounts_scratch07_zichang_230308_Roskin_2020_HIV_bulkBCR_prep_pseudo_HIVposi_AIRR_batch_4_H_S076NobNab	1	/mounts/scratch07/zichang/231016_Myimmune_TCR/HIV_HD_downsize_dmin005/HIVposi/H/S076NobNab.tsv
mounts_scratch07_zichang_230308_Roskin_2020_HIV_bulkBCR_prep_pseudo_HIVposi_AIRR_batch_4_H_S077NobNab	1	/mounts/scratch07/zichang/231016_Myimmune_TCR/HIV_HD_downsize_dmin005/HIVposi/H/S077NobNab.tsv
