Donor	c0	c1	label
SG_HC_OS_00006_BCR	0.00000000	0.00000000	0
SG_HC_OS_00160_BCR	0.01382371	0.00000000	0
SG_HC_OS_00217_BCR	0.02233278	0.00000000	0
SG_HC_OS_00218_BCR	0.00000000	0.00000000	0
SG_HC_OS_00260_BCR	0.00000000	0.02322443	0
SG_HC_OS_00266_BCR	0.00000000	0.00000000	0
SG_HC_OS_00280_BCR	0.00000000	0.00000000	0
SG_HC_OS_00293_BCR	0.00000000	0.02602896	0
SG_HC_OS_0193_BCR	0.00000000	0.00000000	0
SG_HC_OS_0220_BCR	0.00000000	0.00000000	0
SG_HC_OS_0221_BCR	0.00000000	0.00000000	0
SG_HC_OS_0223_BCR	0.00000000	0.00000000	0
SG_HC_OS_0231_BCR	0.00000000	0.00000000	0
SG_HC_OS_0232_BCR	0.00000000	0.00000000	0
SG_HC_OS_0240_BCR	0.00000000	0.00000000	0
SC_GC_OS_0171_BCR	0.00000000	0.00000000	1
SC_GC_OS_0186_BCR	0.00000000	0.00000000	1
SG_CO_OK_00004_BCR	0.00000000	0.00000000	1
SG_CO_OK_00010_0315_BCR	0.00000000	0.00000000	1
SG_CO_OK_00019_BCR	0.00578238	0.00000000	1
SG_CO_OK_00025_BCR	0.00316521	0.00316521	1
SG_CO_OK_00026_BCR	0.00000000	0.00000000	1
SG_CO_OK_00031_BCR	0.00000000	0.00000000	1
SG_CO_OK_00034_BCR	0.00000000	0.01296625	1
SG_CO_OK_00042_BCR	0.00000000	0.00000000	1
SG_CO_OK_00052_BCR	0.00000000	0.00000000	1
SG_CO_OK_00057_BCR	0.00557833	0.00000000	1
SG_CO_OK_00067_BCR	0.00000000	0.01160830	1
SG_CO_OK_00076_BCR	0.00000000	0.00000000	1
SG_CO_OK_00077_BCR	0.00000000	0.01028948	1
SG_GC_OS_0182_BCR	0.00000000	0.00000000	1
