Donor	c0	c1	label
SG_HC_OS_0005_BCR	0.00000000	0.03207089	0
SG_HC_OS_0007_BCR	0.00000000	0.02843251	0
SG_HC_OS_00129_BCR	0.00000000	0.00000000	0
SG_HC_OS_00163_BCR	0.03651484	0.00000000	0
SG_HC_OS_00168_BCR	0.03359566	0.00000000	0
SG_HC_OS_00215_BCR	0.02908649	0.02908649	0
SG_HC_OS_00216_BCR	0.02390457	0.00000000	0
SG_HC_OS_00259_BCR	0.03425944	0.03425944	0
SG_HC_OS_00264_BCR	0.00000000	0.00000000	0
SG_HC_OS_00265_BCR	0.00000000	0.02446312	0
SG_HC_OS_00272_BCR	0.00000000	0.00000000	0
SG_HC_OS_00277_BCR	0.00000000	0.00000000	0
SG_HC_OS_00282_BCR	0.00000000	0.02151160	0
SG_HC_OS_00284_BCR	0.04956816	0.00000000	0
SG_HC_OS_00292_BCR	0.00000000	0.00000000	0
SG_HC_OS_00294_BCR	0.00000000	0.00000000	0
SG_HC_OS_00295_BCR	0.00000000	0.00000000	0
SG_HC_OS_00296_BCR	0.02778850	0.05557700	0
SG_HC_OS_0194_BCR	0.04499213	0.00000000	0
SG_HC_OS_0199_BCR	0.00000000	0.00000000	0
SG_HC_OS_0219_BCR	0.00000000	0.02511802	0
SG_HC_OS_0222_BCR	0.00000000	0.03606092	0
SG_HC_OS_0224_BCR	0.01547832	0.01547832	0
SG_HC_OS_0225_BCR	0.04381080	0.00000000	0
SG_HC_OS_0228_BCR	0.00000000	0.00000000	0
SG_HC_OS_0229_BCR	0.03522350	0.03522350	0
SG_HC_OS_0230_BCR	0.04029115	0.00000000	0
SG_HC_OS_0236_BCR	0.03676073	0.00000000	0
SG_HC_OS_0249_BCR	0.00000000	0.04518692	0
SC_GC_OS_0235_BCR	0.00000000	0.00000000	1
SG_CO_OK_00005_BCR	0.00000000	0.02285752	1
SG_CO_OK_00006_BCR	0.00000000	0.00574163	1
SG_CO_OK_00007_BCR	0.00000000	0.00000000	1
SG_CO_OK_00008_BCR	0.00000000	0.00000000	1
SG_CO_OK_00009_0315_BCR	0.00000000	0.00000000	1
SG_CO_OK_00011_BCR	0.00000000	0.00590014	1
SG_CO_OK_00012_BCR	0.00000000	0.00000000	1
SG_CO_OK_00013_BCR	0.00000000	0.00000000	1
SG_CO_OK_00014_0315_BCR	0.00000000	0.00000000	1
SG_CO_OK_00015_BCR	0.00000000	0.00000000	1
SG_CO_OK_00016_BCR	0.00000000	0.00000000	1
SG_CO_OK_00017_BCR	0.00000000	0.00000000	1
SG_CO_OK_00018_BCR	0.00000000	0.00000000	1
SG_CO_OK_00020_BCR	0.00000000	0.00000000	1
SG_CO_OK_00021_BCR	0.00000000	0.00000000	1
SG_CO_OK_00022_BCR	0.00000000	0.00000000	1
SG_CO_OK_00023_BCR	0.00000000	0.01025924	1
SG_CO_OK_00027_BCR	0.00000000	0.00000000	1
SG_CO_OK_00028_BCR	0.00000000	0.03708795	1
SG_CO_OK_00029_BCR	0.00000000	0.00000000	1
SG_CO_OK_00030_BCR	0.00000000	0.00000000	1
SG_CO_OK_00032_BCR	0.00000000	0.00000000	1
SG_CO_OK_00033_BCR	0.00000000	0.00000000	1
SG_CO_OK_00037_BCR	0.00000000	0.00000000	1
SG_CO_OK_00040_BCR	0.00000000	0.02486824	1
SG_CO_OK_00043_BCR	0.00000000	0.00000000	1
SG_CO_OK_00048_BCR	0.00000000	0.00000000	1
SG_CO_OK_00049_BCR	0.00000000	0.00000000	1
SG_CO_OK_00051_BCR	0.00000000	0.00000000	1
SG_CO_OK_00060_BCR	0.00000000	0.00000000	1
SG_CO_OK_00061_BCR	0.00000000	0.00000000	1
SG_CO_OK_00063_BCR	0.00000000	0.00000000	1
SG_CO_OK_00066_BCR	0.00000000	0.01411253	1
SG_CO_OK_00068_BCR	0.00000000	0.00000000	1
SG_CO_OK_00070_BCR	0.00805692	0.00805692	1
SG_CO_OK_00071_BCR	0.00000000	0.00758949	1
SG_CO_OK_00072_BCR	0.00000000	0.00000000	1
SG_CO_OK_00073_BCR	0.02117143	0.00000000	1
SG_CO_OK_00074_BCR	0.00000000	0.00581631	1
SG_CO_OK_00080_BCR	0.01787140	0.00000000	1
SG_GC_OS_0234_BCR	0.00000000	0.00000000	1
