Feature	importance
c232	0.15756498
c22	0.13822544
c52	0.118883274
c257	0.082744576
c0	0.08001851
c3	0.06705793
c94	0.05445393
c88	0.052297357
c9	0.039042525
c6	0.034759443
c672	0.03266605
c4	0.026345836
c48	0.022322817
c5	0.01910015
c356	0.015633823
c27	0.009647515
c79	0.007369895
c14	0.0064866804
c32	0.0056454
c20	0.0050125876
c314	0.0041022715
c1	0.004055885
c21	0.0032168224
c8	0.0026963288
c11	0.0023608035
c7	0.0016050965
c40	0.0015769174
c26	0.0014281902
c2	0.0012844941
c24	0.001282517
c13	0.0011119905
