Donor	c0	c1	c2	c3	c4	c5	c6	c7	c8	c9	c10	c11	c12	c13	c14	c15	c16	c17	c18	c19	c20	c21	c22	c23	label
SG_HC_OS_00006_BCR	0.00530165	0.00000000	0.00795247	0.00000000	0.01060329	0.02120659	0.00530165	0.00000000	0.00000000	0.00530165	0.00265082	0.00000000	0.00795247	0.00530165	0.00265082	0.00795247	0.00000000	0.00000000	0.00000000	0.00000000	0.00530165	0.00000000	0.01325412	0.03976235	0
SG_HC_OS_00160_BCR	0.00129529	0.00492210	0.00000000	0.00233152	0.00051812	0.00025906	0.00000000	0.00000000	0.00077717	0.00025906	0.00077717	0.00000000	0.00000000	0.00000000	0.00077717	0.00077717	0.00077717	0.00129529	0.00025906	0.00077717	0.00025906	0.00077717	0.00025906	0.00000000	0
SG_HC_OS_00217_BCR	0.01434798	0.01076099	0.00717399	0.01076099	0.02510897	0.01076099	0.01076099	0.10043587	0.01434798	0.00000000	0.00717399	0.04304394	0.05380493	0.00000000	0.01793498	0.01434798	0.00358700	0.01434798	0.01434798	0.01434798	0.00717399	0.00358700	0.00000000	0.00000000	0
SG_HC_OS_00218_BCR	0.01054587	0.01406117	0.00703058	0.01406117	0.02812233	0.00703058	0.00351529	0.00000000	0.01406117	0.01757646	0.00351529	0.00000000	0.01406117	0.00000000	0.01406117	0.03163762	0.00703058	0.00351529	0.00000000	0.00703058	0.00351529	0.00351529	0.00351529	0.00000000	0
SG_HC_OS_00260_BCR	0.00826171	0.04130856	0.00000000	0.02065428	0.02478514	0.01652342	0.00826171	0.00826171	0.00413086	0.00413086	0.00413086	0.00826171	0.03304685	0.02065428	0.00826171	0.04543942	0.02065428	0.00826171	0.00826171	0.01652342	0.01239257	0.01239257	0.02065428	0.03717771	0
SG_HC_OS_00266_BCR	0.00625379	0.00000000	0.00000000	0.01250758	0.00000000	0.01876136	0.00625379	0.03126894	0.00625379	0.00000000	0.01876136	0.02501515	0.01250758	0.00625379	0.00000000	0.02501515	0.00625379	0.01876136	0.00000000	0.00000000	0.01250758	0.00000000	0.00000000	0.00625379	0
SG_HC_OS_00280_BCR	0.02066154	0.02410513	0.01721795	0.02066154	0.05509745	0.03443591	0.00688718	0.01721795	0.00344359	0.01377436	0.01721795	0.00344359	0.03099232	0.00344359	0.00688718	0.00688718	0.00344359	0.02754873	0.00344359	0.01377436	0.00688718	0.00688718	0.00344359	0.01033077	0
SG_HC_OS_00293_BCR	0.00745905	0.00745905	0.04102479	0.00745905	0.00745905	0.02237716	0.00745905	0.03356574	0.00372953	0.01118858	0.00745905	0.02610668	0.01491811	0.00372953	0.00372953	0.02610668	0.01491811	0.02237716	0.01491811	0.01118858	0.01491811	0.00372953	0.00000000	0.00745905	0
SG_HC_OS_0193_BCR	0.00000000	0.00815573	0.00000000	0.00000000	0.03262291	0.00000000	0.00815573	0.00815573	0.00000000	0.01631146	0.00000000	0.00000000	0.00000000	0.00000000	0.00815573	0.01631146	0.00000000	0.03262291	0.00000000	0.00000000	0.00000000	0.00000000	0.00000000	0.00000000	0
SG_HC_OS_0220_BCR	0.00000000	0.03925343	0.00000000	0.05888015	0.00981336	0.00000000	0.00000000	0.02944008	0.00981336	0.00981336	0.01962672	0.07850687	0.02944008	0.00981336	0.00000000	0.02944008	0.00981336	0.02944008	0.00981336	0.01962672	0.00000000	0.00000000	0.00981336	0.00000000	0
SG_HC_OS_0221_BCR	0.00000000	0.05023287	0.01004657	0.04018629	0.00502329	0.01506986	0.00502329	0.04520958	0.01004657	0.03013972	0.01506986	0.02009315	0.01506986	0.01004657	0.00502329	0.00000000	0.02009315	0.00502329	0.01004657	0.01004657	0.00000000	0.01004657	0.01004657	0.05023287	0
SG_HC_OS_0223_BCR	0.00000000	0.00000000	0.00856423	0.00000000	0.00000000	0.00856423	0.00000000	0.00000000	0.00000000	0.00856423	0.00000000	0.00000000	0.00000000	0.00000000	0.00856423	0.00000000	0.00000000	0.00856423	0.00000000	0.00000000	0.00000000	0.00856423	0.00856423	0.02569269	0
SG_HC_OS_0231_BCR	0.00293254	0.02639285	0.00293254	0.02639285	0.01466269	0.01173015	0.00586508	0.01759523	0.01173015	0.00293254	0.01173015	0.00879762	0.01466269	0.00000000	0.00293254	0.00000000	0.00293254	0.00293254	0.00586508	0.00586508	0.00000000	0.00293254	0.00293254	0.00293254	0
SG_HC_OS_0232_BCR	0.00000000	0.03281679	0.02187786	0.02187786	0.00000000	0.00000000	0.00000000	0.00000000	0.00000000	0.04375572	0.02187786	0.00000000	0.00000000	0.02187786	0.01093893	0.00000000	0.00000000	0.02187786	0.01093893	0.01093893	0.00000000	0.00000000	0.01093893	0.00000000	0
SG_HC_OS_0240_BCR	0.00735354	0.00000000	0.00735354	0.00367677	0.01103031	0.00735354	0.00367677	0.00367677	0.00367677	0.02573738	0.00000000	0.00735354	0.00735354	0.00000000	0.01103031	0.00000000	0.01103031	0.00367677	0.00735354	0.00000000	0.02206061	0.00367677	0.00000000	0.00367677	0
SC_GC_OS_0171_BCR	0.02329645	0.01553097	0.00000000	0.02329645	0.00000000	0.15530965	0.00776548	0.04659290	0.00776548	0.00776548	0.02329645	0.03882741	0.03106193	0.00000000	0.01553097	0.00000000	0.01553097	0.00776548	0.00776548	0.00776548	0.03882741	0.00000000	0.01553097	0.00000000	1
SC_GC_OS_0186_BCR	0.05556628	0.02083735	0.02778314	0.00694578	0.00694578	0.00000000	0.01389157	0.05556628	0.01389157	0.00000000	0.00694578	0.02083735	0.00000000	0.00000000	0.02083735	0.00000000	0.03472892	0.00694578	0.01389157	0.02083735	0.00000000	0.01389157	0.00000000	0.00000000	1
SG_CO_OK_00004_BCR	0.00000000	0.00023075	0.00007692	0.00015384	0.00000000	0.00007692	0.00000000	0.00000000	0.00000000	0.00038459	0.00000000	0.00007692	0.00007692	0.00000000	0.00000000	0.00000000	0.00000000	0.00000000	0.00000000	0.00000000	0.00007692	0.00000000	0.00000000	0.00000000	1
SG_CO_OK_00010_0315_BCR	0.00000826	0.00004959	0.00002479	0.00003306	0.00009918	0.00001653	0.00004959	0.00016530	0.00002479	0.00000826	0.00000826	0.00005785	0.00005785	0.00000000	0.00003306	0.00000000	0.00000000	0.00001653	0.00001653	0.00001653	0.00001653	0.00000000	0.00000826	0.00045457	1
SG_CO_OK_00019_BCR	0.00005084	0.00030503	0.00000000	0.00025419	0.00005084	0.00010168	0.00000000	0.00000000	0.00015252	0.00005084	0.00000000	0.00000000	0.00045755	0.00005084	0.00010168	0.00000000	0.00020335	0.00005084	0.00000000	0.00005084	0.00000000	0.00005084	0.00010168	0.00000000	1
SG_CO_OK_00025_BCR	0.00001585	0.00007926	0.00001585	0.00006341	0.00006341	0.00000000	0.00000000	0.00000000	0.00003170	0.00003170	0.00000000	0.00001585	0.00003170	0.00000000	0.00004755	0.00004755	0.00001585	0.00000000	0.00000000	0.00001585	0.00000000	0.00001585	0.00000000	0.00000000	1
SG_CO_OK_00026_BCR	0.00029072	0.00019381	0.00000000	0.00000000	0.00038763	0.00038763	0.00009691	0.00000000	0.00000000	0.00000000	0.00009691	0.00000000	0.00048454	0.00000000	0.00000000	0.00000000	0.00009691	0.00009691	0.00000000	0.00009691	0.00000000	0.00000000	0.00000000	0.00077526	1
SG_CO_OK_00031_BCR	0.00000000	0.00000000	0.00000000	0.00000000	0.00000000	0.00015998	0.00000000	0.00000000	0.00000000	0.00031996	0.00000000	0.00000000	0.00000000	0.00000000	0.00000000	0.00000000	0.00000000	0.00000000	0.00000000	0.00000000	0.00000000	0.00000000	0.00000000	0.00127985	1
SG_CO_OK_00034_BCR	0.00020196	0.00000000	0.00000000	0.00020196	0.00000000	0.00000000	0.00000000	0.00141372	0.00020196	0.00100980	0.00000000	0.00080784	0.00000000	0.00040392	0.00000000	0.00040392	0.00000000	0.00040392	0.00000000	0.00000000	0.00000000	0.00000000	0.00080784	0.00807842	1
SG_CO_OK_00042_BCR	0.00266763	0.01067052	0.00533526	0.00533526	0.01067052	0.00133381	0.00133381	0.01067052	0.00266763	0.00400144	0.00000000	0.00266763	0.00133381	0.00133381	0.00666907	0.00000000	0.00133381	0.00000000	0.00000000	0.00533526	0.00400144	0.00133381	0.00000000	0.00266763	1
SG_CO_OK_00052_BCR	0.00017360	0.00014880	0.00004960	0.00007440	0.00007440	0.00032240	0.00007440	0.00027280	0.00002480	0.00004960	0.00022320	0.00007440	0.00009920	0.00004960	0.00002480	0.00014880	0.00002480	0.00002480	0.00002480	0.00002480	0.00014880	0.00000000	0.00002480	0.00007440	1
SG_CO_OK_00057_BCR	0.00013363	0.00013363	0.00013363	0.00006682	0.00010022	0.00003341	0.00010022	0.00033408	0.00003341	0.00000000	0.00006682	0.00006682	0.00000000	0.00016704	0.00003341	0.00010022	0.00003341	0.00010022	0.00003341	0.00003341	0.00006682	0.00003341	0.00026726	0.00036749	1
SG_CO_OK_00067_BCR	0.00032774	0.00098322	0.00000000	0.00065548	0.00032774	0.00000000	0.00032774	0.00065548	0.00065548	0.00032774	0.00065548	0.00065548	0.00000000	0.00000000	0.00098322	0.00098322	0.00032774	0.00000000	0.00032774	0.00065548	0.00229419	0.00032774	0.00000000	0.00000000	1
SG_CO_OK_00076_BCR	0.00017225	0.00000000	0.00000000	0.00000000	0.00011483	0.00017225	0.00005742	0.00000000	0.00000000	0.00005742	0.00005742	0.00005742	0.00022967	0.00005742	0.00000000	0.00005742	0.00000000	0.00005742	0.00000000	0.00000000	0.00005742	0.00000000	0.00005742	0.00045934	1
SG_CO_OK_00077_BCR	0.00005397	0.00064768	0.00053973	0.00043179	0.00102549	0.00000000	0.00021589	0.00059371	0.00021589	0.00021589	0.00010795	0.00010795	0.00005397	0.00010795	0.00021589	0.00005397	0.00010795	0.00005397	0.00000000	0.00026987	0.00000000	0.00016192	0.00000000	0.00129536	1
SG_GC_OS_0182_BCR	0.03469222	0.01734611	0.02601917	0.06071139	0.05203834	0.14744196	0.00867306	0.00000000	0.01734611	0.00000000	0.00000000	0.00000000	0.02601917	0.00000000	0.00867306	0.05203834	0.00867306	0.00000000	0.00867306	0.00867306	0.00000000	0.00000000	0.00000000	0.00867306	1
