Donor	c0	c1	c2	c3	c4	c5	c6	c7	c8	c9	c10	label
SG_HC_OS_0005_BCR	0.00000000	0.00000000	0.00000000	0.00000000	0.00000000	0.00000000	0.00000000	0.03221201	0.00000000	0.00000000	0.01610600	0
SG_HC_OS_0007_BCR	0.00000000	0.00000000	0.00000000	0.00000000	0.00000000	0.00000000	0.00000000	0.00000000	0.00000000	0.00000000	0.00000000	0
SG_HC_OS_00129_BCR	0.00000000	0.00000000	0.00000000	0.00000000	0.02173400	0.00000000	0.02173400	0.00000000	0.00000000	0.00000000	0.00000000	0
SG_HC_OS_00163_BCR	0.00000000	0.03676073	0.00000000	0.00000000	0.00000000	0.00000000	0.00000000	0.00000000	0.00000000	0.00000000	0.00000000	0
SG_HC_OS_00168_BCR	0.00000000	0.00000000	0.00000000	0.00000000	0.00000000	0.00000000	0.00000000	0.00000000	0.00000000	0.00000000	0.00000000	0
SG_HC_OS_00215_BCR	0.00000000	0.00000000	0.00000000	0.00000000	0.02933573	0.00000000	0.02933573	0.00000000	0.00000000	0.00000000	0.00000000	0
SG_HC_OS_00216_BCR	0.00000000	0.00000000	0.00000000	0.00000000	0.00000000	0.00000000	0.00000000	0.00000000	0.00000000	0.00000000	0.02435405	0
SG_HC_OS_00259_BCR	0.00000000	0.00000000	0.00000000	0.00000000	0.00000000	0.00000000	0.00000000	0.00000000	0.00000000	0.00000000	0.00000000	0
SG_HC_OS_00264_BCR	0.00000000	0.00000000	0.00000000	0.00000000	0.00000000	0.00000000	0.00000000	0.00000000	0.00000000	0.03573708	0.00000000	0
SG_HC_OS_00265_BCR	0.00000000	0.00000000	0.00000000	0.00000000	0.00000000	0.00000000	0.00000000	0.00000000	0.00000000	0.00000000	0.00000000	0
SG_HC_OS_00272_BCR	0.00000000	0.00000000	0.00000000	0.00000000	0.00000000	0.00000000	0.00000000	0.00000000	0.00000000	0.00000000	0.00000000	0
SG_HC_OS_00277_BCR	0.00000000	0.00000000	0.00000000	0.00000000	0.02955271	0.00000000	0.00000000	0.00000000	0.00000000	0.00000000	0.00000000	0
SG_HC_OS_00282_BCR	0.00000000	0.00000000	0.00000000	0.00000000	0.00000000	0.00000000	0.00000000	0.02199529	0.00000000	0.02199529	0.02199529	0
SG_HC_OS_00284_BCR	0.00000000	0.00000000	0.00000000	0.00000000	0.00000000	0.00000000	0.00000000	0.00000000	0.00000000	0.00000000	0.00000000	0
SG_HC_OS_00292_BCR	0.00000000	0.00000000	0.00000000	0.00000000	0.00000000	0.00000000	0.00000000	0.00000000	0.00000000	0.00000000	0.00000000	0
SG_HC_OS_00294_BCR	0.00000000	0.00000000	0.00000000	0.00000000	0.00000000	0.00000000	0.00000000	0.00000000	0.00000000	0.00000000	0.00000000	0
SG_HC_OS_00295_BCR	0.00000000	0.00000000	0.00000000	0.00000000	0.00000000	0.00000000	0.00000000	0.00000000	0.00000000	0.00000000	0.00000000	0
SG_HC_OS_00296_BCR	0.00000000	0.00000000	0.00000000	0.00000000	0.02822787	0.00000000	0.00000000	0.00000000	0.02822787	0.00000000	0.00000000	0
SG_HC_OS_0194_BCR	0.00000000	0.00000000	0.00000000	0.00000000	0.00000000	0.00000000	0.00000000	0.00000000	0.00000000	0.00000000	0.00000000	0
SG_HC_OS_0199_BCR	0.00000000	0.00000000	0.00000000	0.00000000	0.00000000	0.00000000	0.00000000	0.00000000	0.00000000	0.00000000	0.00000000	0
SG_HC_OS_0219_BCR	0.00000000	0.00000000	0.00000000	0.00000000	0.00000000	0.00000000	0.00000000	0.00000000	0.00000000	0.00000000	0.00000000	0
SG_HC_OS_0222_BCR	0.00000000	0.00000000	0.00000000	0.00000000	0.00000000	0.00000000	0.00000000	0.00000000	0.00000000	0.00000000	0.00000000	0
SG_HC_OS_0224_BCR	0.00000000	0.00000000	0.00000000	0.00000000	0.00000000	0.00000000	0.00000000	0.00000000	0.00000000	0.00000000	0.00000000	0
SG_HC_OS_0225_BCR	0.00000000	0.00000000	0.00000000	0.00000000	0.00000000	0.00000000	0.00000000	0.00000000	0.00000000	0.00000000	0.00000000	0
SG_HC_OS_0228_BCR	0.00000000	0.00000000	0.00000000	0.00000000	0.00000000	0.00000000	0.00000000	0.00000000	0.00000000	0.00000000	0.00000000	0
SG_HC_OS_0229_BCR	0.00000000	0.00000000	0.00000000	0.00000000	0.00000000	0.00000000	0.03553345	0.00000000	0.00000000	0.00000000	0.00000000	0
SG_HC_OS_0230_BCR	0.00000000	0.00000000	0.00000000	0.00000000	0.00000000	0.00000000	0.00000000	0.00000000	0.00000000	0.00000000	0.00000000	0
SG_HC_OS_0236_BCR	0.00000000	0.00000000	0.00000000	0.00000000	0.00000000	0.00000000	0.00000000	0.00000000	0.03711348	0.00000000	0.00000000	0
SG_HC_OS_0249_BCR	0.00000000	0.00000000	0.00000000	0.00000000	0.00000000	0.00000000	0.00000000	0.02300827	0.02300827	0.02300827	0.00000000	0
SC_GC_OS_0235_BCR	0.00000000	0.00000000	0.00000000	0.00000000	0.00000000	0.00000000	0.00000000	0.00000000	0.00000000	0.00000000	0.00000000	1
SG_CO_OK_00005_BCR	0.00000000	0.00000000	0.00000000	0.00000000	0.00000000	0.00000000	0.00000000	0.00000000	0.00000000	0.00000000	0.00000000	1
SG_CO_OK_00006_BCR	0.00574713	0.00000000	0.00000000	0.00000000	0.00000000	0.00000000	0.00000000	0.00000000	0.00000000	0.00000000	0.00000000	1
SG_CO_OK_00007_BCR	0.00000000	0.00000000	0.01750887	0.07003546	0.00000000	0.00000000	0.00000000	0.00000000	0.00000000	0.00000000	0.00000000	1
SG_CO_OK_00008_BCR	0.00000000	0.00000000	0.00000000	0.00000000	0.00000000	0.00541047	0.00000000	0.00000000	0.00000000	0.00000000	0.00000000	1
SG_CO_OK_00009_0315_BCR	0.00000000	0.00000000	0.01151786	0.00000000	0.00000000	0.00000000	0.00000000	0.01151786	0.00000000	0.00000000	0.00000000	1
SG_CO_OK_00011_BCR	0.00591147	0.00000000	0.00000000	0.00000000	0.00000000	0.00000000	0.00000000	0.00000000	0.00000000	0.00000000	0.00000000	1
SG_CO_OK_00012_BCR	0.00000000	0.00000000	0.00000000	0.00000000	0.00000000	0.00000000	0.00000000	0.00000000	0.00000000	0.00000000	0.00000000	1
SG_CO_OK_00013_BCR	0.00000000	0.00000000	0.00000000	0.00000000	0.00000000	0.00000000	0.00000000	0.00000000	0.00000000	0.00000000	0.00000000	1
SG_CO_OK_00014_0315_BCR	0.00000000	0.00616744	0.00000000	0.00000000	0.00000000	0.01233487	0.00000000	0.00000000	0.00000000	0.00000000	0.00000000	1
SG_CO_OK_00015_BCR	0.00000000	0.00000000	0.00000000	0.00000000	0.00000000	0.00000000	0.00000000	0.00000000	0.00000000	0.00000000	0.00000000	1
SG_CO_OK_00016_BCR	0.00000000	0.00000000	0.00000000	0.00000000	0.00000000	0.00000000	0.00000000	0.00000000	0.00000000	0.00000000	0.00000000	1
SG_CO_OK_00017_BCR	0.00933032	0.00000000	0.00000000	0.00000000	0.00000000	0.00000000	0.00000000	0.00000000	0.00000000	0.00000000	0.00000000	1
SG_CO_OK_00018_BCR	0.00000000	0.00000000	0.00000000	0.00000000	0.00000000	0.00000000	0.00000000	0.00000000	0.00000000	0.00000000	0.00000000	1
SG_CO_OK_00020_BCR	0.00000000	0.00000000	0.00000000	0.01279321	0.00000000	0.01279321	0.00000000	0.00000000	0.00000000	0.01279321	0.00000000	1
SG_CO_OK_00021_BCR	0.00000000	0.00000000	0.00000000	0.01472500	0.00000000	0.00000000	0.00000000	0.00000000	0.00000000	0.00000000	0.00000000	1
SG_CO_OK_00022_BCR	0.01091414	0.00000000	0.00000000	0.00000000	0.00000000	0.00000000	0.00000000	0.00000000	0.00000000	0.00000000	0.00000000	1
SG_CO_OK_00023_BCR	0.00000000	0.00991461	0.00000000	0.00991461	0.00000000	0.00000000	0.00000000	0.00000000	0.00000000	0.00000000	0.00000000	1
SG_CO_OK_00027_BCR	0.00000000	0.00000000	0.00000000	0.00000000	0.00000000	0.00000000	0.00000000	0.00000000	0.00000000	0.00000000	0.00000000	1
SG_CO_OK_00028_BCR	0.00000000	0.00000000	0.00000000	0.00000000	0.00000000	0.00000000	0.00000000	0.00000000	0.00000000	0.00000000	0.00000000	1
SG_CO_OK_00029_BCR	0.00000000	0.00000000	0.00000000	0.00755821	0.00000000	0.00000000	0.00000000	0.00000000	0.00000000	0.03779105	0.00000000	1
SG_CO_OK_00030_BCR	0.02587276	0.00000000	0.00000000	0.00000000	0.00000000	0.00000000	0.00000000	0.00000000	0.00000000	0.00000000	0.00000000	1
SG_CO_OK_00032_BCR	0.00000000	0.00000000	0.00000000	0.00000000	0.00000000	0.00000000	0.00000000	0.00000000	0.00000000	0.00000000	0.00000000	1
SG_CO_OK_00033_BCR	0.01824526	0.00000000	0.01824526	0.00000000	0.00000000	0.00000000	0.00000000	0.00000000	0.00000000	0.00000000	0.00000000	1
SG_CO_OK_00037_BCR	0.15800420	0.00000000	0.00000000	0.00000000	0.00000000	0.00000000	0.00000000	0.00000000	0.00000000	0.00000000	0.00000000	1
SG_CO_OK_00040_BCR	0.00000000	0.00000000	0.00000000	0.00000000	0.00000000	0.00000000	0.00000000	0.00000000	0.00000000	0.00000000	0.00000000	1
SG_CO_OK_00043_BCR	0.00000000	0.00000000	0.00000000	0.00000000	0.00000000	0.00000000	0.00000000	0.00000000	0.00000000	0.00000000	0.00000000	1
SG_CO_OK_00048_BCR	0.00000000	0.00323885	0.00000000	0.00000000	0.00000000	0.00000000	0.00000000	0.00000000	0.00000000	0.00000000	0.00000000	1
SG_CO_OK_00049_BCR	0.00000000	0.00000000	0.00000000	0.00000000	0.00000000	0.00000000	0.00000000	0.00000000	0.00000000	0.00000000	0.00000000	1
SG_CO_OK_00051_BCR	0.00000000	0.00000000	0.00000000	0.00000000	0.00000000	0.00000000	0.00000000	0.00000000	0.00000000	0.00000000	0.00000000	1
SG_CO_OK_00060_BCR	0.00000000	0.00685559	0.00685559	0.00685559	0.00000000	0.00000000	0.00000000	0.00000000	0.00000000	0.00000000	0.00000000	1
SG_CO_OK_00061_BCR	0.00000000	0.00000000	0.00000000	0.00000000	0.00000000	0.00319708	0.00000000	0.00000000	0.00000000	0.00000000	0.00000000	1
SG_CO_OK_00063_BCR	0.00000000	0.00000000	0.01362342	0.00000000	0.00000000	0.16348106	0.00000000	0.00000000	0.00000000	0.00000000	0.00000000	1
SG_CO_OK_00066_BCR	0.00000000	0.00000000	0.00000000	0.00000000	0.00000000	0.00000000	0.00000000	0.00000000	0.00000000	0.00000000	0.00000000	1
SG_CO_OK_00068_BCR	0.00000000	0.00000000	0.00000000	0.00000000	0.00000000	0.00000000	0.00000000	0.00000000	0.00000000	0.00000000	0.00000000	1
SG_CO_OK_00070_BCR	0.00000000	0.00000000	0.00000000	0.00000000	0.00000000	0.00000000	0.00000000	0.00000000	0.00000000	0.00000000	0.00000000	1
SG_CO_OK_00071_BCR	0.00000000	0.06845146	0.00760572	0.00000000	0.00000000	0.00000000	0.00000000	0.00000000	0.00000000	0.00000000	0.00000000	1
SG_CO_OK_00072_BCR	0.00000000	0.00000000	0.00000000	0.00000000	0.00000000	0.00000000	0.00000000	0.00000000	0.00000000	0.00000000	0.03651484	1
SG_CO_OK_00073_BCR	0.00000000	0.00000000	0.00000000	0.00000000	0.00000000	0.00000000	0.00000000	0.00000000	0.00000000	0.00000000	0.02142256	1
SG_CO_OK_00074_BCR	0.00000000	0.01162909	0.00000000	0.00000000	0.00000000	0.00000000	0.00000000	0.00000000	0.00000000	0.00000000	0.00000000	1
SG_CO_OK_00080_BCR	0.00000000	0.00000000	0.00000000	0.00000000	0.00000000	0.00000000	0.00000000	0.00000000	0.01813392	0.00000000	0.00000000	1
SG_GC_OS_0234_BCR	0.00000000	0.00000000	0.00000000	0.00000000	0.00000000	0.00000000	0.00000000	0.00000000	0.00000000	0.00000000	0.00000000	1
